time,temperature,alpha,da/dt
s,K,,5K/min
0,298.15,1E-4,4.32016250470394E-9
2.94117647058825,298.395098039216,1.00012861699542E-4,4.42620258784157E-9
5.88235294117645,298.640196078431,1.00026038887225E-4,4.5346921134293E-9
8.8235294117647,298.885294117647,1.00039538787826E-4,4.64565900773682E-9
11.7647058823529,299.130392156863,1.00053368780031E-4,4.75916251800885E-9
14.7058823529412,299.375490196078,1.00067536399495E-4,4.87525482300042E-9
17.6470588235294,299.620588235294,1.00082049341947E-4,4.99399134430225E-9
20.5882352941176,299.86568627451,1.00096915466367E-4,5.11542800881972E-9
23.5294117647059,300.110784313725,1.0011214279821E-4,5.23962200814335E-9
26.4705882352941,300.355882352941,1.00127739532703E-4,5.36663162141035E-9
29.4117647058823,300.600980392157,1.00143714038193E-4,5.49651628964576E-9
32.3529411764706,300.846078431373,1.00160074859569E-4,5.62933662319696E-9
35.2941176470588,301.091176470588,1.00176830721733E-4,5.76515442761098E-9
38.2352941176471,301.336274509804,1.00193990533156E-4,5.90403272514823E-9
41.1764705882353,301.58137254902,1.00211563389484E-4,6.04603577797482E-9
44.1176470588235,301.826470588235,1.00229558577223E-4,6.19122911147937E-9
47.0588235294118,302.071568627451,1.00247985577486E-4,6.33967953812385E-9
50,302.316666666667,1.00266854069817E-4,6.49145518174236E-9
52.9411764705882,302.561764705882,1.00286173936081E-4,6.64662550231768E-9
55.8823529411765,302.806862745098,1.00305955264436E-4,6.80526132120992E-9
58.8235294117647,303.051960784314,1.0032620835337E-4,6.96743484694372E-9
61.764705882353,303.297058823529,1.00346943715819E-4,7.13321970144621E-9
64.7058823529412,303.542156862745,1.00368172083369E-4,7.30269094681553E-9
67.6470588235294,303.787254901961,1.00389904410526E-4,7.47592511265043E-9
70.5882352941177,304.032352941176,1.00412151879076E-4,7.65300022387137E-9
73.5294117647059,304.277450980392,1.00434925902524E-4,7.8339958291376E-9
76.4705882352941,304.522549019608,1.00458238130616E-4,8.01899302982643E-9
79.4117647058823,304.767647058824,1.00482100453953E-4,8.2080745095616E-9
82.3529411764706,305.012745098039,1.00506525008687E-4,8.40132456437988E-9
85.2941176470588,305.257843137255,1.00531524181307E-4,8.59882913348521E-9
88.235294117647,305.502941176471,1.00557110613519E-4,8.80067583062586E-9
91.1764705882352,305.748039215686,1.0058329720722E-4,9.00695397612105E-9
94.1176470588235,305.993137254902,1.00610097129563E-4,9.21775462952515E-9
97.0588235294117,306.238235294118,1.0063752381812E-4,9.43317062298031E-9
100,306.483333333333,1.00665590986148E-4,9.65329659524668E-9
102.941176470588,306.728431372549,1.00694312627953E-4,9.87822902644412E-9
105.882352941176,306.973529411765,1.00723703024358E-4,1.01080662734946E-8
108.823529411765,307.21862745098,1.00753776748274E-4,1.03429086063334E-8
111.764705882353,307.463725490196,1.00784548670381E-4,1.05828582448497E-8
114.705882352941,307.708823529412,1.00816033964923E-4,1.08280193966157E-8
117.647058823529,307.953921568627,1.00848248115604E-4,1.10784982954306E-8
120.588235294118,308.199019607843,1.00881206921608E-4,1.13344032406307E-8
123.529411764706,308.444117647059,1.00914926503736E-4,1.15958446372817E-8
126.470588235294,308.689215686275,1.00949423310654E-4,1.1862935037222E-8
129.411764705882,308.93431372549,1.00984714125273E-4,1.21357891809661E-8
132.352941176471,309.179411764706,1.01020816071244E-4,1.24145240405142E-8
135.294117647059,309.424509803922,1.01057746619593E-4,1.2699258863104E-8
138.235294117647,309.669607843137,1.01095523595469E-4,1.29901152159055E-8
141.176470588235,309.914705882353,1.01134165185042E-4,1.32872170316836E-8
144.117647058824,310.159803921569,1.01173689942526E-4,1.3590690655459E-8
147.058823529412,310.404901960784,1.01214116797342E-4,1.39006648922022E-8
150,310.65,1.01255465061427E-4,1.42172710555859E-8
152.941176470588,310.895098039216,1.01297754436687E-4,1.45406430178E-8
155.882352941176,311.140196078431,1.01341005022591E-4,1.48709172604878E-8
158.823529411765,311.385294117647,1.01385237323929E-4,1.52082329268334E-8
161.764705882353,311.630392156863,1.01430472258712E-4,1.55527318747975E-8
164.705882352941,311.875490196078,1.0147673116624E-4,1.59045587315498E-8
167.647058823529,312.120588235294,1.01524035815329E-4,1.62638609491692E-8
170.588235294118,312.36568627451,1.01572408412701E-4,1.66307888615896E-8
173.529411764706,312.610784313725,1.01621871611544E-4,1.70054957428208E-8
176.470588235294,312.855882352941,1.01672448520249E-4,1.73881378665675E-8
179.411764705882,313.100980392157,1.01724162711324E-4,1.77788745671615E-8
182.352941176471,313.346078431373,1.01777038230482E-4,1.81778683019297E-8
185.294117647059,313.591176470588,1.01831099605922E-4,1.85852847150361E-8
188.235294117647,313.836274509804,1.018863718578E-4,1.900129270277E-8
191.176470588235,314.08137254902,1.01942880507889E-4,1.94260644803803E-8
194.117647058823,314.326470588235,1.02000651589442E-4,1.98597756505124E-8
197.058823529412,314.571568627451,1.02059711657258E-4,2.03026052732155E-8
200,314.816666666667,1.02120087797953E-4,2.07547359376446E-8
202.941176470588,315.061764705882,1.02181807640453E-4,2.12163538354749E-8
205.882352941176,315.306862745098,1.02244899366694E-4,2.16876488360302E-8
208.823529411765,315.551960784314,1.02309391722554E-4,2.21688145632952E-8
211.764705882353,315.797058823529,1.02375314029011E-4,2.26600484747136E-8
214.705882352941,316.042156862745,1.02442696193538E-4,2.31615519419139E-8
217.647058823529,316.287254901961,1.02511568721733E-4,2.36735303334367E-8
220.588235294118,316.532352941176,1.025819627292E-4,2.4196193099451E-8
223.529411764706,316.777450980392,1.02653909953683E-4,2.47297538585526E-8
226.470588235294,317.022549019608,1.02727442767455E-4,2.5274430486703E-8
229.411764705882,317.267647058824,1.02802594189971E-4,2.58304452083702E-8
232.352941176471,317.512745098039,1.02879397900799E-4,2.63980246899277E-8
235.294117647059,317.757843137255,1.02957888252818E-4,2.69774001354064E-8
238.235294117647,318.002941176471,1.03038100285716E-4,2.75688073846021E-8
241.176470588235,318.248039215686,1.03120069739767E-4,2.81724870136626E-8
244.117647058824,318.493137254902,1.0320383306991E-4,2.87886844382375E-8
247.058823529412,318.738235294118,1.03289427460145E-4,2.94176500192049E-8
250,318.983333333333,1.0337689083823E-4,3.00596391710883E-8
252.941176470588,319.228431372549,1.0346626189071E-4,3.07149124732684E-8
255.882352941177,319.473529411765,1.03557580078277E-4,3.13837357839923E-8
258.823529411765,319.71862745098,1.03650885651462E-4,3.20663803573525E-8
261.764705882353,319.963725490196,1.03746219666685E-4,3.27631229632692E-8
264.705882352941,320.208823529412,1.03843624002659E-4,3.34742460105451E-8
267.647058823529,320.453921568627,1.03943141377155E-4,3.42000376731644E-8
270.588235294118,320.699019607843,1.04044815364152E-4,3.494079201985E-8
273.529411764706,320.944117647059,1.0414869041137E-4,3.56968091470091E-8
276.470588235294,321.189215686275,1.04254811858194E-4,3.64683953151586E-8
279.411764705882,321.43431372549,1.04363225954014E-4,3.72558630889614E-8
282.352941176471,321.679411764706,1.04473979876971E-4,3.80595314809513E-8
285.294117647059,321.924509803922,1.04587121753143E-4,3.88797260990137E-8
288.235294117647,322.169607843137,1.04702700676162E-4,3.97167792978611E-8
291.176470588235,322.414705882353,1.04820766727285E-4,4.05710303344811E-8
294.117647058823,322.659803921569,1.0494137099593E-4,4.14428255277838E-8
297.058823529412,322.904901960784,1.05064565600685E-4,4.2332518422496E-8
300,323.15,1.05190403710808E-4,4.32404699574558E-8
302.941176470588,323.395098039216,1.05318939568225E-4,4.41670486384522E-8
305.882352941176,323.640196078431,1.0545022851005E-4,4.51126307157506E-8
308.823529411765,323.885294117647,1.05584326991625E-4,4.60776003664354E-8
311.764705882353,324.130392156863,1.05721292610112E-4,4.70623498816399E-8
314.705882352941,324.375490196078,1.05861184128637E-4,4.80672798589825E-8
317.647058823529,324.620588235294,1.06004061501011E-4,4.90927994001844E-8
320.588235294118,324.86568627451,1.06149985897042E-4,5.01393263141197E-8
323.529411764706,325.110784313725,1.06299019728445E-4,5.12072873254328E-8
326.470588235294,325.355882352941,1.0645122667538E-4,5.22971182889178E-8
329.411764705882,325.600980392157,1.06606671713632E-4,5.34092644098423E-8
332.352941176471,325.846078431373,1.06765421142438E-4,5.454418047029E-8
335.294117647059,326.091176470588,1.06927542612998E-4,5.57023310617895E-8
338.235294117647,326.336274509804,1.07093105157675E-4,5.68841908245005E-8
341.176470588235,326.58137254902,1.07262179219912E-4,5.80902446929808E-8
344.117647058823,326.826470588235,1.07434836684876E-4,5.9320988148779E-8
347.058823529412,327.071568627451,1.07611150910861E-4,6.05769274801914E-8
350,327.316666666667,1.07791196761463E-4,6.1858580049224E-8
352.941176470588,327.561764705882,1.07975050638551E-4,6.3166474566093E-8
355.882352941176,327.806862745098,1.08162790516056E-4,6.45011513713942E-8
358.823529411765,328.051960784314,1.08354495974608E-4,6.5863162726273E-8
361.764705882353,328.297058823529,1.08550248237024E-4,6.7253073110839E-8
364.705882352941,328.542156862745,1.08750130204706E-4,6.86714595308649E-8
367.647058823529,328.787254901961,1.08954226494934E-4,7.01189118333659E-8
370.588235294118,329.032352941176,1.09162623479113E-4,7.15960330310084E-8
373.529411764706,329.277450980392,1.09375409321986E-4,7.31034396357298E-8
376.470588235294,329.522549019608,1.09592674021835E-4,7.46417620020631E-8
379.411764705882,329.767647058824,1.09814509451715E-4,7.62116446799979E-8
382.352941176471,330.012745098039,1.10041009401737E-4,7.78137467780435E-8
385.294117647059,330.257843137255,1.1027226962243E-4,7.944874233674E-8
388.235294117647,330.502941176471,1.10508387869225E-4,8.11173207127268E-8
391.176470588235,330.748039215686,1.10749463948079E-4,8.28201869739638E-8
394.117647058824,330.993137254902,1.10995599762279E-4,8.45580623062254E-8
397.058823529412,331.238235294118,1.11246899360461E-4,8.63316844313737E-8
400,331.483333333333,1.11503468985876E-4,8.81418080375748E-8
402.941176470588,331.728431372549,1.11765417126935E-4,8.99892052219615E-8
405.882352941176,331.973529411765,1.12032854569083E-4,9.18746659461206E-8
408.823529411765,332.21862745098,1.12305894448025E-4,9.37989985047501E-8
411.764705882353,332.463725490196,1.12584652304351E-4,9.57630300077738E-8
414.705882352941,332.708823529412,1.12869246139605E-4,9.77676068764731E-8
417.647058823529,332.953921568627,1.13159796473829E-4,9.98135953540937E-8
420.588235294118,333.199019607843,1.13456426404629E-4,1.01901882031139E-7
423.529411764706,333.444117647059,1.13759261667814E-4,1.04033374386018E-7
426.470588235294,333.689215686275,1.14068430699645E-4,1.06209001341279E-7
429.411764705882,333.93431372549,1.14384064700743E-4,1.08429713836217E-7
432.352941176471,334.179411764706,1.14706297701706E-4,1.10696485415962E-7
435.294117647059,334.424509803922,1.15035266630486E-4,1.13010312837823E-7
438.235294117647,334.669607843137,1.15371111381571E-4,1.15372216695414E-7
441.176470588235,334.914705882353,1.15713974887035E-4,1.17783242060762E-7
444.117647058823,335.159803921569,1.16064003189497E-4,1.20244459145292E-7
447.058823529412,335.404901960784,1.16421345517057E-4,1.22756963980101E-7
450,335.65,1.16786154360263E-4,1.25321879116246E-7
452.941176470588,335.895098039216,1.17158585551165E-4,1.27940354345168E-7
455.882352941177,336.140196078431,1.17538798344516E-4,1.30613567440546E-7
458.823529411765,336.385294117647,1.17926955501193E-4,1.33342724921705E-7
461.764705882353,336.630392156863,1.18323223373895E-4,1.36129062839318E-7
464.705882352941,336.875490196078,1.18727771995177E-4,1.38973847584305E-7
467.647058823529,337.120588235294,1.19140775167911E-4,1.41878376720182E-7
470.588235294118,337.36568627451,1.19562410558221E-4,1.44843979840014E-7
473.529411764706,337.610784313726,1.19992859790978E-4,1.47872019448392E-7
476.470588235294,337.855882352941,1.2043230854793E-4,1.50963891869313E-7
479.411764705882,338.100980392157,1.20880946668533E-4,1.5412102818058E-7
482.35294117647,338.346078431373,1.21338968253584E-4,1.57344895175807E-7
485.294117647059,338.591176470588,1.21806571771708E-4,1.60636996354454E-7
488.235294117647,338.836274509804,1.22283960168814E-4,1.63998872940862E-7
491.176470588235,339.08137254902,1.22771340980582E-4,1.67432104933523E-7
494.117647058823,339.326470588235,1.23268926448088E-4,1.70938312184782E-7
497.058823529412,339.571568627451,1.23776933636646E-4,1.7451915551233E-7
500,339.816666666667,1.24295584557968E-4,1.78176337843376E-7
502.941176470588,340.061764705882,1.24825106295742E-4,1.81911605392272E-7
505.882352941176,340.306862745098,1.25365731134718E-4,1.85726748872797E-7
508.823529411765,340.551960784314,1.25917696693418E-4,1.8962360474593E-7
511.764705882353,340.797058823529,1.26481246060562E-4,1.93604056504241E-7
514.705882352941,341.042156862745,1.27056627935336E-4,1.97670035994009E-7
517.647058823529,341.287254901961,1.27644096771598E-4,2.01823524775868E-7
520.588235294118,341.532352941176,1.28243912926143E-4,2.06066555525637E-7
523.529411764706,341.777450980392,1.28856342811161E-4,2.10401213476035E-7
526.470588235294,342.022549019608,1.29481659050977E-4,2.14829637900741E-7
529.411764705882,342.267647058824,1.3012014064324E-4,2.1935402364171E-7
532.35294117647,342.512745098039,1.30772073124653E-4,2.23976622681407E-7
535.294117647059,342.757843137255,1.31437748741405E-4,2.28699745761104E-7
538.235294117647,343.002941176471,1.32117466624429E-4,2.33525764046321E-7
541.176470588235,343.248039215686,1.32811532969628E-4,2.38457110841086E-7
544.117647058824,343.493137254902,1.33520261223217E-4,2.43496283352387E-7
547.058823529412,343.738235294118,1.34243972272331E-4,2.48645844506168E-7
550,343.983333333333,1.34982994641053E-4,2.53908424816153E-7
552.941176470588,344.228431372549,1.35737664692016E-4,2.59286724307611E-7
555.882352941176,344.473529411765,1.36508326833743E-4,2.64783514496976E-7
558.823529411765,344.71862745098,1.37295333733903E-4,2.70401640429344E-7
561.764705882353,344.963725490196,1.38099046538635E-4,2.76144022775346E-7
564.705882352941,345.208823529412,1.38919835098138E-4,2.82013659989021E-7
567.64705882353,345.453921568627,1.39758078198694E-4,2.88013630528807E-7
570.588235294118,345.699019607843,1.40614163801321E-4,2.94147095142855E-7
573.529411764706,345.944117647059,1.41488489287244E-4,3.00417299221039E-7
576.470588235294,346.189215686274,1.42381461710382E-4,3.06827575215231E-7
579.411764705882,346.43431372549,1.4329349805706E-4,3.13381345129931E-7
582.352941176471,346.679411764706,1.44225025513147E-4,3.20082123085132E-7
585.294117647059,346.924509803922,1.45176481738848E-4,3.26933517953675E-7
588.235294117647,347.169607843137,1.46148315151358E-4,3.33939236075083E-7
591.176470588235,347.414705882353,1.47140985215615E-4,3.41103084047782E-7
594.117647058823,347.659803921569,1.48154962743386E-4,3.48428971602351E-7
597.058823529412,347.904901960784,1.49190730200923E-4,3.55920914557944E-7
600,348.15,1.50248782025443E-4,3.63583037864098E-7
602.941176470588,348.395098039216,1.51329624950673E-4,3.71419578730248E-7
605.882352941176,348.640196078431,1.52433778341748E-4,3.79434889845962E-7
608.823529411765,348.885294117647,1.535617745397E-4,3.87633442693657E-7
611.764705882353,349.130392156863,1.54714159215843E-4,3.96019830957074E-7
614.705882352941,349.375490196078,1.55891491736317E-4,4.04598774027534E-7
617.647058823529,349.620588235294,1.57094345537097E-4,4.13375120611506E-7
620.588235294118,349.86568627451,1.58323308509764E-4,4.22353852441704E-7
623.529411764706,350.110784313726,1.59578983398345E-4,4.31540088094349E-7
626.470588235294,350.355882352941,1.60861988207544E-4,4.40939086916781E-7
629.411764705882,350.600980392157,1.62172956622686E-4,4.50556253067028E-7
632.35294117647,350.846078431373,1.63512538441715E-4,4.60397139669118E-7
635.294117647059,351.091176470588,1.6488140001958E-4,4.70467453087659E-7
638.235294117647,351.336274509804,1.66280224725385E-4,4.80773057324299E-7
641.176470588235,351.58137254902,1.67709713412643E-4,4.91319978539865E-7
644.117647058823,351.826470588235,1.69170584903022E-4,5.02114409705716E-7
647.058823529412,352.071568627451,1.70663576483967E-4,5.13162715387227E-7
650,352.316666666667,1.72189444420589E-4,5.24471436663819E-7
652.941176470588,352.561764705882,1.73748964482233E-4,5.36047296189271E-7
655.882352941176,352.806862745098,1.75342932484134E-4,5.4789720339513E-7
658.823529411765,353.051960784314,1.76972164844598E-4,5.60028259842365E-7
661.764705882353,353.297058823529,1.78637499158143E-4,5.72447764724605E-7
664.705882352941,353.542156862745,1.80339794785057E-4,5.85163220527569E-7
667.647058823529,353.787254901961,1.82079933457833E-4,5.98182338848402E-7
670.588235294118,354.032352941176,1.8385881990496E-4,6.11513046379474E-7
673.529411764706,354.277450980392,1.85677382492566E-4,6.25163491061704E-7
676.470588235294,354.522549019608,1.87536573884408E-4,6.39142048410677E-7
679.411764705882,354.767647058824,1.89437371720729E-4,6.53457328021884E-7
682.35294117647,355.012745098039,1.91380779316522E-4,6.68118180258702E-7
685.294117647059,355.257843137255,1.93367826379734E-4,6.8313370312798E-7
688.235294117647,355.502941176471,1.95399569749974E-4,6.98513249349822E-7
691.176470588235,355.748039215686,1.97477094158314E-4,7.14266433624683E-7
694.117647058824,355.993137254902,1.99601513008752E-4,7.30403140104795E-7
697.058823529412,356.238235294118,2.0177396918196E-4,7.46933530074511E-7
700,356.483333333333,2.03995635861936E-4,7.63868049845142E-7
702.941176470588,356.728431372549,2.06267717386201E-4,7.81217438870968E-7
705.882352941176,356.973529411765,2.08591450120191E-4,7.98992738090807E-7
708.823529411765,357.21862745098,2.10968103356531E-4,8.17205298502523E-7
711.764705882353,357.463725490196,2.13398980239874E-4,8.35866789976027E-7
714.705882352941,357.708823529412,2.15885418718019E-4,8.54989210311302E-7
717.64705882353,357.953921568627,2.1842879252004E-4,8.74584894547706E-7
720.588235294118,358.199019607843,2.2103051216217E-4,8.94666524531858E-7
723.529411764706,358.444117647059,2.23692025982221E-4,9.15247138749688E-7
726.470588235294,358.689215686274,2.26414821203309E-4,9.36340142431078E-7
729.411764705882,358.93431372549,2.29200425027719E-4,9.57959317933826E-7
732.352941176471,359.179411764706,2.3205040576172E-4,9.80118835413359E-7
735.294117647059,359.424509803922,2.34966373972203E-4,1.00283326378714E-6
738.235294117647,359.669607843137,2.37949983675997E-4,1.02611758200043E-6
741.176470588235,359.914705882353,2.41002933562783E-4,1.04998719060198E-6
744.117647058823,360.159803921569,2.44126968252513E-4,1.07445792363739E-6
747.058823529412,360.404901960784,2.47323879588292E-4,1.09954606086847E-6
750,360.65,2.50595507965688E-4,1.12526834032705E-6
752.941176470588,360.895098039216,2.53943743699458E-4,1.15164197121254E-6
755.882352941176,361.140196078431,2.57370528428745E-4,1.17868464714129E-6
758.823529411765,361.385294117647,2.60877856561748E-4,1.20641455975745E-6
761.764705882353,361.630392156863,2.64467776760985E-4,1.23485041271436E-6
764.705882352941,361.875490196078,2.68142393470229E-4,1.26401143603652E-6
767.647058823529,362.120588235294,2.71903868484252E-4,1.29391740087175E-6
770.588235294118,362.36568627451,2.7575442256255E-4,1.32458863464288E-6
773.529411764706,362.610784313725,2.79696337088227E-4,1.35604603661105E-6
776.470588235294,362.855882352941,2.83731955773281E-4,1.3883110938587E-6
779.411764705882,363.100980392157,2.87863686411513E-4,1.4214058977054E-6
782.35294117647,363.346078431373,2.92094002680385E-4,1.45535316056606E-6
785.294117647059,363.591176470588,2.96425445993114E-4,1.49017623326376E-6
788.235294117647,363.836274509804,3.00860627402374E-4,1.52589912280804E-6
791.176470588235,364.08137254902,3.05402229556983E-4,1.56254651065015E-6
794.117647058823,364.326470588235,3.10053008713E-4,1.60014377142996E-6
797.058823529412,364.571568627451,3.14815796800702E-4,1.63871699222302E-6
800,364.816666666667,3.19693503548908E-4,1.6782929923038E-6
802.941176470588,365.061764705882,3.24689118668226E-4,1.71889934343662E-6
805.882352941176,365.306862745098,3.29805714094749E-4,1.76056439070758E-6
808.823529411765,365.551960784314,3.35046446295852E-4,1.80331727391138E-6
811.764705882353,365.797058823529,3.40414558639711E-4,1.84718794950778E-6
814.705882352941,366.042156862745,3.45913383830266E-4,1.89220721316003E-6
817.64705882353,366.287254901961,3.51546346409338E-4,1.93840672287152E-6
820.588235294118,366.532352941176,3.57316965327699E-4,1.98581902273579E-6
823.529411764706,366.777450980392,3.63228856586914E-4,2.03447756731309E-6
826.470588235294,367.022549019608,3.69285735953817E-4,2.08441674665208E-6
829.411764705882,367.267647058824,3.75491421749552E-4,2.13567191196965E-6
832.35294117647,367.512745098039,3.81849837715129E-4,2.18827940200779E-6
835.294117647059,367.757843137255,3.88365015955517E-4,2.24227657008287E-6
838.235294117647,368.002941176471,3.95041099964328E-4,2.29770181184403E-6
841.176470588235,368.248039215686,4.01882347731222E-4,2.35459459376021E-6
844.117647058824,368.493137254902,4.08893134934168E-4,2.41299548235103E-6
847.058823529412,368.738235294118,4.16077958218816E-4,2.47294617418181E-6
850,368.983333333333,4.23441438567226E-4,2.53448952664135E-6
852.941176470588,369.228431372549,4.30988324758293E-4,2.59766958951937E-6
855.882352941176,369.473529411765,4.38723496922251E-4,2.6625316374065E-6
858.823529411765,369.71862745098,4.46651970191705E-4,2.7291222029347E-6
861.764705882353,369.963725490196,4.54778898451686E-4,2.79748911087837E-6
864.705882352941,370.208823529412,4.631095781913E-4,2.86768151313834E-6
867.647058823529,370.453921568627,4.71649452459588E-4,2.93974992462881E-6
870.588235294118,370.699019607843,4.80404114928304E-4,3.01374626009048E-6
873.529411764706,370.944117647059,4.89379314064334E-4,3.08972387185012E-6
876.470588235294,371.189215686274,4.98580957414619E-4,3.16773758855159E-6
879.411764705882,371.43431372549,5.08015116006429E-4,3.24784375488012E-6
882.352941176471,371.679411764706,5.17688028865968E-4,3.33010027230348E-6
885.294117647059,371.924509803922,5.27606107658341E-4,3.41456664085594E-6
888.235294117647,372.169607843137,5.37775941451963E-4,3.50130400198748E-6
891.176470588235,372.414705882353,5.48204301610608E-4,3.590375182506E-6
894.117647058823,372.659803921569,5.58898146816323E-4,3.68184473963609E-6
897.058823529412,372.904901960784,5.69864628226561E-4,3.77577900722278E-6
900,373.15,5.81111094768905E-4,3.87224614310598E-6
902.941176470588,373.395098039216,5.92645098576894E-4,3.97131617769282E-6
905.882352941176,373.640196078431,6.04474400570509E-4,4.07306106375844E-6
908.823529411765,373.885294117647,6.16606976184959E-4,4.1775547274999E-6
911.764705882353,374.130392156863,6.29051021251523E-4,4.28487312087638E-6
914.705882352941,374.375490196078,6.41814958034243E-4,4.39509427526355E-6
917.647058823529,374.620588235294,6.54907441426408E-4,4.50829835645221E-6
920.588235294118,374.86568627451,6.68337365310808E-4,4.62456772102407E-6
923.529411764706,375.110784313725,6.82113869087862E-4,4.74398697413473E-6
926.470588235294,375.355882352941,6.96246344375808E-4,4.866643028737E-6
929.411764705882,375.600980392157,7.10744441887235E-4,4.99262516627779E-6
932.35294117647,375.846078431373,7.25618078486347E-4,5.12202509890179E-6
935.294117647059,376.091176470588,7.40877444431432E-4,5.25493703319631E-6
938.235294117647,376.336274509804,7.56533010807131E-4,5.39145773551252E-6
941.176470588235,376.58137254902,7.72595537151182E-4,5.53168659889862E-6
944.117647058823,376.826470588235,7.89076079280453E-4,5.67572571168193E-6
947.058823529412,377.071568627451,8.05985997321146E-4,5.82367992773583E-6
950,377.316666666667,8.23336963948194E-4,5.97565693847052E-6
952.941176470588,377.561764705882,8.41140972838992E-4,6.13176734658536E-6
955.882352941176,377.806862745098,8.59410347346659E-4,6.29212474162229E-6
958.823529411765,378.051960784314,8.78157749398242E-4,6.45684577736056E-6
961.764705882353,378.297058823529,8.97396188623284E-4,6.62605025109322E-6
964.705882352941,378.542156862745,9.17139031718399E-4,6.79986118482655E-6
967.64705882353,378.787254901961,9.37400012053525E-4,6.97840490844534E-6
970.588235294118,379.032352941176,9.58193239525745E-4,7.16181114488623E-6
973.529411764706,379.277450980392,9.79533210666617E-4,7.35021309736326E-6
976.470588235294,379.522549019608,0.00100143481900911,7.54374753869171E-6
979.411764705882,379.767647058824,0.00102391336572042,7.74255490275098E-6
982.35294117647,380.012745098039,0.00104698457050698,7.94677937813754E-6
985.294117647059,380.257843137255,0.00107066458279822,8.15656900405356E-6
988.235294117647,380.502941176471,0.00109496999321564,8.37207576847589E-6
991.176470588235,380.748039215686,0.00111991784533412,8.59345570865773E-6
994.117647058824,380.993137254902,0.00114552564774223,8.82086901401032E-6
997.058823529412,381.238235294118,0.00117181138640874,9.05448013141475E-6
1000,381.483333333333,0.0011987935373625,9.29445787301564E-6
1002.94117647059,381.728431372549,0.00122649107969307,9.5409755265465E-6
1005.88235294118,381.973529411765,0.0012549235088796,9.79421096824164E-6
1008.82352941176,382.21862745098,0.00128411085045572,1.00543467783862E-5
1011.76470588235,382.463725490196,0.00131407367401818,1.03215703595587E-5
1014.70588235294,382.708823529412,0.00134483310758733,1.05960740576217E-5
1017.64705882353,382.953921568627,0.00137641085232755,1.08780552855149E-5
1020.58823529412,383.199019607843,0.00140882919763595,1.11677166499083E-5
1023.52941176471,383.444117647059,0.00144211103660787,1.14652660807722E-5
1026.47058823529,383.689215686274,0.00147627988188783,1.1770916963922E-5
1029.41176470588,383.93431372549,0.00151135988191479,1.20848882765969E-5
1032.35294117647,384.179411764706,0.00154737583757062,1.24074047261306E-5
1035.29411764706,384.424509803922,0.00158435321924115,1.27386968917774E-5
1038.23529411765,384.669607843137,0.00162231818429904,1.307900136975E-5
1041.17647058824,384.914705882353,0.00166129759501793,1.34285609215369E-5
1044.11764705882,385.159803921569,0.00170131903692791,1.37876246255548E-5
1047.05882352941,385.404901960784,0.00174241083762182,1.41564480322047E-5
1050,385.65,0.00178460208602278,1.45352933223934E-5
1052.94117647059,385.895098039216,0.00182792265212315,1.49244294695836E-5
1055.88235294118,386.140196078431,0.0018724032072053,1.53241324054401E-5
1058.82352941176,386.385294117647,0.001918075244555,1.57346851891356E-5
1061.76470588235,386.630392156863,0.00196497110067821,1.61563781803835E-5
1064.70588235294,386.875490196078,0.00201312397703238,1.65895092162636E-5
1067.64705882353,387.120588235294,0.00206256796228345,1.70343837919081E-5
1070.58823529412,387.36568627451,0.00211333805510004,1.74913152451168E-5
1073.52941176471,387.610784313725,0.00216547018749653,1.79606249449677E-5
1076.47058823529,387.855882352941,0.00221900124873679,1.8442642484491E-5
1079.41176470588,388.100980392157,0.00227396910981066,1.89377058774788E-5
1082.35294117647,388.346078431373,0.00233041264849551,1.94461617594947E-5
1085.29411764706,388.591176470588,0.00238837177501518,1.99683655931566E-5
1088.23529411765,388.836274509804,0.00244788745830912,2.05046818777596E-5
1091.17647058824,389.08137254902,0.0025090017529245,2.10554843633086E-5
1094.11764705882,389.326470588235,0.00257175782654444,2.16211562690331E-5
1097.05882352941,389.571568627451,0.00263619998816557,2.22020905064482E-5
1100,389.816666666667,0.00270237371693842,2.27986899070365E-5
1102.94117647059,390.061764705882,0.0027703256916844,2.34113674546166E-5
1105.88235294118,390.306862745098,0.0028401038211031,2.40405465224683E-5
1108.82352941176,390.551960784314,0.00291175727468417,2.46866611152837E-5
1111.76470588235,390.797058823529,0.00298533651433802,2.53501561160097E-5
1114.70588235294,391.042156862745,0.00306089332675965,2.60314875376524E-5
1117.64705882353,391.287254901961,0.00313848085654069,2.67311227801062E-5
1120.58823529412,391.532352941176,0.00321815364004411,2.74495408920789E-5
1123.52941176471,391.777450980392,0.00329996764005696,2.81872328381725E-5
1126.47058823529,392.022549019608,0.00338398028123622,2.89447017711843E-5
1129.41176470588,392.267647058824,0.00347025048636343,2.97224633096955E-5
1132.35294117647,392.512745098039,0.00355883871342344,3.05210458210022E-5
1135.29411764706,392.757843137255,0.00364980699352339,3.1340990709453E-5
1138.23529411765,393.002941176471,0.00374321896966762,3.21828527102483E-5
1141.17647058824,393.248039215686,0.00383913993640497,3.30472001887602E-5
1144.11764705882,393.493137254902,0.00393763688036441,3.39346154454252E-5
1147.05882352941,393.738235294118,0.00403877852169587,3.48456950262611E-5
1150,393.983333333333,0.00414263535643256,3.57810500390591E-5
1152.94117647059,394.228431372549,0.00424927969979175,3.67413064752968E-5
1155.88235294118,394.473529411765,0.00435878573043067,3.77271055378162E-5
1158.82352941176,394.71862745098,0.00447122953567495,3.8739103974307E-5
1161.76470588235,394.963725490196,0.00458668915773624,3.97779744166312E-5
1164.70588235294,395.208823529412,0.00470524464093657,4.08444057260261E-5
1167.64705882353,395.453921568627,0.00482697807995678,4.19391033442124E-5
1170.58823529412,395.699019607843,0.00495197366912609,4.30627896504306E-5
1173.52941176471,395.944117647059,0.00508031775277086,4.42162043244322E-5
1176.47058823529,396.189215686274,0.00521209887663941,4.54001047154378E-5
1179.41176470588,396.43431372549,0.00534740784042111,4.66152662170717E-5
1182.35294117647,396.679411764706,0.00548633775137669,4.78624826482794E-5
1185.29411764706,396.924509803922,0.00562898407909799,4.91425666402279E-5
1188.23529411765,397.169607843137,0.0057754447114143,5.04563500291799E-5
1191.17647058824,397.414705882353,0.00592582001146296,5.18046842553281E-5
1194.11764705882,397.659803921569,0.0060802128759418,5.31884407675664E-5
1197.05882352941,397.904901960784,0.00623872879456077,5.46085114341708E-5
1200,398.15,0.00640147591071005,5.60658089593529E-5
1202.94117647059,398.395098039216,0.00656856508336196,5.7561267305637E-5
1205.88235294118,398.640196078431,0.00674010995022368,5.90958421220067E-5
1208.82352941176,398.885294117647,0.00691622699215749,6.06705111777563E-5
1211.76470588235,399.130392156863,0.00709703559888545,6.22862748019703E-5
1214.70588235294,399.375490196078,0.0072826581359949,6.39441563285457E-5
1217.64705882353,399.620588235294,0.00747322001326074,6.56452025466555E-5
1220.58823529412,399.86568627451,0.00766884975430051,6.73904841565444E-5
1223.52941176471,400.110784313725,0.00786967906757778,6.9181096230537E-5
1226.47058823529,400.355882352941,0.00807584291876895,7.10181586791123E-5
1229.41176470588,400.600980392157,0.00828747960450807,7.29028167218995E-5
1232.35294117647,400.846078431373,0.00850473082752398,7.48362413634268E-5
1235.29411764706,401.091176470588,0.00872774177318359,7.68196298734345E-5
1238.23529411765,401.336274509804,0.00895666118745411,7.885420627156E-5
1241.17647058824,401.58137254902,0.00919164145629717,8.09412218161683E-5
1244.11764705882,401.826470588235,0.0094328386865064,8.30819554970977E-5
1247.05882352941,402.071568627451,0.00968041278799974,8.52777145320575E-5
1250,402.316666666667,0.00993452755757672,8.75298348664026E-5
1252.94117647059,402.561764705882,0.0101953507641504,8.98396816759876E-5
1255.88235294118,402.806862745098,0.0104630542354621,9.22086498727685E-5
1258.82352941176,403.051960784314,0.0107378139462875,9.46381646128171E-5
1261.76470588235,403.297058823529,0.011019810108139,9.71296818063665E-5
1264.70588235294,403.542156862745,0.0113092272604716,9.96846886294887E-5
1267.64705882353,403.787254901961,0.0116062543633952,1.02304704036981E-4
1270.58823529412,404.032352941176,0.0119110848918965,1.04991279276004E-4
1273.52941176471,404.277450980392,0.0122239169315726,1.07745998399978E-4
1276.47058823529,404.522549019608,0.0125449532758751,1.10570478782227E-4
1279.41176470588,404.767647058824,0.0128744015248645,1.13466371628808E-4
1282.35294117647,405.012745098039,0.0132124741854706,1.16435362489947E-4
1285.29411764706,405.257843137255,0.0135593887732547,1.19479171769441E-4
1288.23529411765,405.502941176471,0.0139153679156658,1.22599555231383E-4
1291.17647058824,405.748039215686,0.0142806394567826,1.25798304503482E-4
1294.11764705882,405.993137254902,0.0146554365635301,1.29077247576249E-4
1297.05882352941,406.238235294118,0.0150399978333568,1.32438249297249E-4
1300,406.483333333333,0.0154345674033583,1.35883211859589E-4
1302.94117647059,406.728431372549,0.0158393950608268,1.39414075283745E-4
1305.88235294118,406.973529411765,0.0162547363552077,1.43032817891805E-4
1308.82352941176,407.21862745098,0.0166808527114386,1.46741456773137E-4
1311.76470588235,407.463725490196,0.0171180115446438,1.50542048240439E-4
1314.70588235294,407.708823529412,0.0175664863761543,1.54436688275067E-4
1317.64705882353,407.953921568627,0.0180265569508215,1.58427512960497E-4
1320.58823529412,408.199019607843,0.0184985093555854,1.62516698902685E-4
1323.52941176471,408.444117647059,0.0189826361392599,1.66706463636062E-4
1326.47058823529,408.689215686274,0.0194792364334881,1.70999066013787E-4
1329.41176470588,408.93431372549,0.0199886160748208,1.75396806580867E-4
1332.35294117647,409.179411764706,0.0205110877278664,1.79902027928628E-4
1335.29411764706,409.424509803922,0.0210469710094525,1.84517115028997E-4
1338.23529411765,409.669607843137,0.0215965926137404,1.89244495546922E-4
1341.17647058824,409.914705882353,0.022160286438223,1.9408664012923E-4
1344.11764705882,410.159803921569,0.0227383937105365,1.99046062668105E-4
1347.05882352941,410.404901960784,0.0233312631160063,2.04125320537289E-4
1350,410.65,0.0239392509258466,2.09327014799031E-4
1352.94117647059,410.895098039216,0.0245627211259212,2.14653790379696E-4
1355.88235294118,411.140196078431,0.0252020455459738,2.20108336211876E-4
1358.82352941176,411.385294117647,0.0258576039892231,2.25693385340708E-4
1361.76470588235,411.630392156863,0.0265297843622156,2.31411714992049E-4
1364.70588235294,411.875490196078,0.02721898280482,2.37266146600012E-4
1367.64705882353,412.120588235294,0.0279256038202385,2.43259545791263E-4
1370.58823529412,412.36568627451,0.0286500604049067,2.49394822323401E-4
1373.52941176471,412.610784313725,0.0293927741781399,2.55674929974578E-4
1376.47058823529,412.855882352941,0.0301541755113803,2.62102866381419E-4
1379.41176470588,413.100980392157,0.0309347036568874,2.6868167282219E-4
1382.35294117647,413.346078431373,0.031734806875706,2.75414433942007E-4
1385.29411764706,413.591176470588,0.0325549425647374,2.82304277416773E-4
1388.23529411765,413.836274509804,0.0333955773827271,2.89354373552383E-4
1391.17647058824,414.08137254902,0.0342571873749746,2.96567934815589E-4
1394.11764705882,414.326470588235,0.0351402580965581,3.039482152928E-4
1397.05882352941,414.571568627451,0.0360452847338568,3.1149851007295E-4
1400,414.816666666667,0.0369727722241413,3.19222154550355E-4
1402.94117647059,415.061764705882,0.0379232353729918,3.27122523643422E-4
1405.88235294118,415.306862745098,0.0388971989692873,3.35203030924856E-4
1408.82352941176,415.551960784314,0.0398951978975032,3.43467127658865E-4
1411.76470588235,415.797058823529,0.0409177772470333,3.51918301740705E-4
1414.70588235294,416.042156862745,0.0419654924182438,3.60560076533758E-4
1417.64705882353,416.287254901961,0.0430389092249499,3.6939600959914E-4
1420.58823529412,416.532352941176,0.0441386039929919,3.78429691312689E-4
1423.52941176471,416.777450980392,0.0452651636545714,3.87664743364002E-4
1426.47058823529,417.022549019608,0.0464191858379927,3.97104817132031E-4
1429.41176470588,417.267647058824,0.0476012789524378,4.06753591931542E-4
1432.35294117647,417.512745098039,0.0488120622673876,4.16614773124606E-4
1435.29411764706,417.757843137255,0.050052165986282,4.26692090091077E-4
1438.23529411765,418.002941176471,0.0513222313139961,4.36989294051864E-4
1441.17647058824,418.248039215686,0.0526229105176909,4.4751015573861E-4
1444.11764705882,418.493137254902,0.0539548669805742,4.58258462903179E-4
1447.05882352941,418.738235294118,0.0553187752480943,4.69238017660298E-4
1450,418.983333333333,0.0567153210660649,4.80452633656351E-4
1452.94117647059,419.228431372549,0.0581452014101953,4.91906133057287E-4
1455.88235294118,419.473529411765,0.0596091245064903,5.0360234334838E-4
1458.82352941176,419.71862745098,0.0611078098419495,5.15545093938401E-4
1461.76470588235,419.963725490196,0.0626419881649832,5.27738212560657E-4
1464.70588235294,420.208823529412,0.064212401474934,5.40185521463104E-4
1467.64705882353,420.453921568627,0.0658198030000742,5.52890833379684E-4
1470.58823529412,420.699019607843,0.067464957163421,5.65857947274835E-4
1473.52941176471,420.944117647059,0.0691486395356936,5.79090643852995E-4
1476.47058823529,421.189215686274,0.0708716367747068,5.92592680824854E-4
1479.41176470588,421.43431372549,0.0726347465504725,6.06367787921851E-4
1482.35294117647,421.679411764706,0.0744387774552587,6.20419661650508E-4
1485.29411764706,421.924509803922,0.076284548897827,6.34751959777959E-4
1488.23529411765,422.169607843137,0.0781728909810451,6.49368295539973E-4
1491.17647058824,422.414705882353,0.0801046443620434,6.64272231562775E-4
1494.11764705882,422.659803921569,0.0820806600940657,6.79467273489907E-4
1497.05882352941,422.904901960784,0.0841017994491295,6.94956863305334E-4
1500,423.15,0.0861689337205905,7.10744372343985E-4
1502.94117647059,423.395098039216,0.0882829440046808,7.26833093981029E-4
1505.88235294118,423.640196078431,0.0904447209600605,7.4322623599118E-4
1508.82352941176,423.885294117647,0.0926551645444016,7.59926912569393E-4
1511.76470588235,424.130392156863,0.094915183726995,7.76938136004502E-4
1514.70588235294,424.375490196078,0.0972256961763473,7.94262807997438E-4
1517.64705882353,424.620588235294,0.0995876279217107,8.11903710615896E-4
1520.58823529412,424.86568627451,0.102001912987463,8.29863496877491E-4
1523.52941176471,425.110784313725,0.10446949299924,8.48144680953814E-4
1526.47058823529,425.355882352941,0.10699131676068,8.66749627987983E-4
1529.41176470588,425.600980392157,0.109568339799656,8.85680543518762E-4
1532.35294117647,425.846078431373,0.112201523882805,9.04939462504724E-4
1535.29411764706,426.091176470588,0.114891836497185,9.2452823794231E-4
1538.23529411765,426.336274509804,0.117640250297851,9.44448529072293E-4
1541.17647058824,426.58137254902,0.120447742520128,9.64701789169704E-4
1544.11764705882,426.826470588235,0.123315294355364,9.85289252912925E-4
1547.05882352941,427.071568627451,0.126243890288902,0.00100621192332846
1550,427.316666666667,0.129234517399026,0.00102747055830854
1552.94117647059,427.561764705882,0.13228816461563,0.00104906565669984
1555.88235294118,427.806862745098,0.135405821937331,0.0010709974439625
1558.82352941176,428.051960784314,0.138588479605776,0.00109326585739945
1561.76470588235,428.297058823529,0.141837127235878,0.00111587053095767
1564.70588235294,428.542156862745,0.145152752900712,0.00113881077960381
1567.64705882353,428.787254901961,0.148536342169849,0.00116208558327833
1570.58823529412,429.032352941176,0.151988877099879,0.00118569357043352
1573.52941176471,429.277450980392,0.155511335175903,0.00120963300116247
1576.47058823529,429.522549019608,0.159104688202831,0.00123390174992776
1579.41176470588,429.767647058824,0.16276990114529,0.00125849728790052
1582.35294117647,430.012745098039,0.166507930915039,0.00128341666492218
1585.29411764706,430.257843137255,0.170319725104792,0.00130865649110365
1588.23529411765,430.502941176471,0.174206220667407,0.00133421291807882
1591.17647058824,430.748039215686,0.17816834253945,0.0013600816199314
1594.11764705882,430.993137254902,0.182207002208212,0.00138625777381671
1597.05882352941,431.238235294118,0.186323096221314,0.00141273604030308
1600,431.483333333333,0.190517504638103,0.00143951054345949
1602.94117647059,431.728431372549,0.194791089422158,0.00146657485071991
1605.88235294118,431.973529411765,0.199144692774276,0.00149392195255724
1608.82352941176,432.21862745098,0.203579135405444,0.00152154424200339
1611.76470588235,432.463725490196,0.2080952147494,0.00154943349405535
1614.70588235294,432.708823529412,0.212693703114499,0.00157758084501054
1617.64705882353,432.953921568627,0.217375345774769,0.00160597677177875
1620.58823529412,433.199019607843,0.222140859000133,0.00163461107122166
1623.52941176471,433.444117647059,0.226990928025984,0.00166347283957504
1626.47058823529,433.689215686274,0.231926204962422,0.00169255045201291
1629.41176470588,433.93431372549,0.236947306643675,0.00172183154241744
1632.35294117647,434.179411764706,0.242054812418408,0.00175130298342265
1635.29411764706,434.424509803922,0.247249261881825,0.00178095086680477
1638.23529411765,434.669607843137,0.2525311525507,0.00181076048429687
1641.17647058824,434.914705882353,0.257900937482709,0.0018407163089101
1644.11764705882,435.159803921569,0.263359022841667,0.00187080197684914
1647.05882352941,435.404901960784,0.268905765410573,0.0019010002701143
1650,435.65,0.274541470054603,0.00193129309988799
1652.94117647059,435.895098039216,0.280266387136529,0.00196166149080858
1655.88235294118,436.140196078431,0.28608070988731,0.00199208556623968
1658.82352941176,436.385294117647,0.291984571734976,0.00202254453464849
1661.76470588235,436.630392156863,0.297978043595199,0.00205301667721181
1664.70588235294,436.875490196078,0.304061131127397,0.00208347933677394
1667.64705882353,437.120588235294,0.310233771960486,0.00211390890828543
1670.58823529412,437.36568627451,0.31649583289286,0.00214428083085703
1673.52941176471,437.610784313726,0.322847107071547,0.00217456958156815
1676.47058823529,437.855882352941,0.329287311155902,0.00220474867117355
1679.41176470588,438.100980392157,0.335816082471663,0.00223479064185719
1682.35294117647,438.346078431373,0.342432976161577,0.00226466706718549
1685.29411764706,438.591176470588,0.349137462339327,0.0022943485544175
1688.23529411765,438.836274509804,0.355928923253917,0.00232380474933176
1691.17647058824,439.08137254902,0.362806650472149,0.00235300434373378
1694.11764705882,439.326470588235,0.369769842087326,0.00238191508581028
1697.05882352941,439.571568627451,0.376817599962809,0.00241050379349871
1700,439.816666666667,0.383948927019529,0.00243873637104195
1702.94117647059,440.061764705882,0.391162724577089,0.00246657782889889
1705.88235294118,440.306862745098,0.398457789758568,0.00249399230718213
1708.82352941176,440.551960784314,0.405832812969657,0.00252094310279238
1711.76470588235,440.797058823529,0.413286375463244,0.00254739270041856
1714.70588235294,441.042156862745,0.420816947001065,0.00257330280756892
1717.64705882353,441.287254901961,0.428422883624509,0.00259863439379568
1720.58823529412,441.532352941176,0.436102425547164,0.00262334773426976
1723.52941176471,441.777450980392,0.44385369518209,0.00264740245785694
1726.47058823529,442.022549019608,0.451674695317298,0.00267075759983861
1729.41176470588,442.267647058824,0.459563307453289,0.00269337165941158
1732.35294117647,442.512745098039,0.467517290316881,0.00271520266209099
1735.29411764706,442.757843137255,0.475534278565938,0.00273620822712795
1738.23529411765,443.002941176471,0.483611781699865,0.00275634564004037
1741.17647058824,443.248039215686,0.491747183191065,0.00277557193033909
1744.11764705882,443.493137254902,0.49993773985272,0.00279384395451486
1747.05882352941,443.738235294118,0.508180581458448,0.00281111848433212
1750,443.983333333333,0.516472710629481,0.00282735230045379
1752.94117647059,444.228431372549,0.524811003005062,0.00284250229139898
1755.88235294118,444.473529411765,0.533192207711697,0.00285652555780939
1758.82352941176,444.71862745098,0.541612948146836,0.00286937952197343
1761.76470588235,444.963725490196,0.550069723092314,0.00288102204252646
1764.70588235294,445.208823529412,0.558558908172616,0.00289141153421541
1767.64705882353,445.453921568627,0.567076757672676,0.00290050709258116
1770.58823529412,445.699019607843,0.575619406729396,0.0029082686233764
1773.52941176471,445.944117647059,0.584182873910505,0.00291465697649948
1776.47058823529,446.189215686274,0.592763064193669,0.00291963408418443
1779.41176470588,446.43431372549,0.60135577235794,0.0029231631031458
1782.35294117647,446.679411764706,0.609956686798672,0.00292520856033388
1785.29411764706,446.924509803922,0.618561393775973,0.00292573650191118
1788.23529411765,447.169607843137,0.627165382105526,0.00292471464501405
1791.17647058824,447.414705882353,0.63576404829929,0.00292211253181713
1794.11764705882,447.659803921569,0.644352702162048,0.00291790168536921
1797.05882352941,447.904901960784,0.652926572848226,0.00291205576662028
1800,448.15,0.66148081538152,0.00290455073201108
1802.94117647059,448.395098039216,0.670010517638041,0.00289536499094662
1805.88235294118,448.640196078431,0.678510707791543,0.00288447956242688
1808.82352941176,448.885294117647,0.686976362217172,0.00287187823006027
1811.76470588235,449.130392156863,0.695402413847727,0.00285754769463879
1814.70588235294,449.375490196078,0.703783760974059,0.00284147772340983
1817.64705882353,449.620588235294,0.712115276478526,0.00282366129513648
1820.58823529412,449.86568627451,0.720391817487742,0.0028040947400005
1823.52941176471,450.110784313726,0.72860823542804,0.00278277787336548
1826.47058823529,450.355882352941,0.736759386464064,0.00275971412238643
1829.41176470588,450.600980392157,0.744840142297978,0.00273491064442623
1832.35294117647,450.846078431373,0.752845401303583,0.00270837843621772
1835.29411764706,451.091176470588,0.760770099966598,0.00268013243269549
1838.23529411765,451.336274509804,0.768609224599087,0.00265019159441397
1841.17647058824,451.58137254902,0.776357823292892,0.00261857898246742
1844.11764705882,451.826470588235,0.784011018073713,0.00258532181983521
1847.05882352941,452.071568627451,0.791564017214364,0.00255045153809354
1850,452.316666666667,0.799012127662605,0.00251400380845948
1852.94117647059,452.561764705882,0.806350767536032,0.00247601855617042
1855.88235294118,452.806862745098,0.813575478633575,0.00243653995724872
1858.82352941176,453.051960784314,0.820681938910468,0.00239561641675899
1861.76470588235,453.297058823529,0.827665974861045,0.00235330052773528
1864.70588235294,453.542156862745,0.834523573751385,0.00230964901003627
1867.64705882353,453.787254901961,0.84125089564179,0.00226472262847966
1870.58823529412,454.032352941176,0.847844285137334,0.0022185860897122
1873.52941176471,454.277450980392,0.854300282803278,0.00217130791738903
1876.47058823529,454.522549019608,0.860615636181092,0.00212296030536486
1879.41176470588,454.767647058824,0.866787310340129,0.00207361894873948
1882.35294117647,455.012745098039,0.872812497899792,0.00202336285275188
1885.29411764706,455.257843137255,0.878688628457213,0.00197227411967914
1888.23529411765,455.502941176471,0.884413377356199,0.00192043771406612
1891.17647058824,455.748039215686,0.889984673734406,0.00186794120679209
1894.11764705882,455.993137254902,0.895400707787475,0.00181487449866726
1897.05882352941,456.238235294118,0.900659937191174,0.00176132952444249
1900,456.483333333333,0.905761092625466,0.0017073999383136
1902.94117647059,456.728431372549,0.910703182347934,0.00165318078219832
1905.88235294118,456.973529411765,0.915485495767985,0.00159876813826264
1908.82352941176,457.21862745098,0.920107605977952,0.00154425876737025
1911.76470588235,457.463725490196,0.924569371202361,0.00148974973531978
1914.70588235294,457.708823529412,0.928870935132433,0.00143533802892026
1917.64705882353,457.953921568627,0.933012726119157,0.00138112016413073
1920.58823529412,458.199019607843,0.936995455205076,0.00132719178865352
1923.52941176471,458.444117647059,0.940820112982161,0.0012736472815201
1926.47058823529,458.689215686274,0.944487965270834,0.00122057935233903
1929.41176470588,458.93431372549,0.948000547623205,0.00116807864298734
1932.35294117647,459.179411764706,0.951359658661917,0.00111623333461568
1935.29411764706,459.424509803922,0.954567352274528,0.00106512876289961
1938.23529411765,459.669607843137,0.957625928692035,0.00101484704450708
1941.17647058824,459.914705882353,0.960537924488924,9.65466717756728E-4
1944.11764705882,460.159803921569,0.963306101550812,9.17062400417734E-4
1947.05882352941,460.404901960784,0.965933435064387,8.69704467543669E-4
1950,460.65,0.968423100592707,8.23458752140943E-4
1952.94117647059,460.895098039216,0.970778460306988,7.7838627134666E-4
1955.88235294118,461.140196078431,0.973003048453644,7.34542980628732E-4
1958.82352941176,461.385294117647,0.975100556142467,6.91979558326907E-4
1961.76470588235,461.630392156863,0.977074815548311,6.50741222623809E-4
1964.70588235294,461.875490196078,0.978929783624424,6.10867582774049E-4
1967.64705882353,462.120588235294,0.980669525430516,5.72392526128821E-4
1970.58823529412,462.36568627451,0.982298197182723,5.35344142175324E-4
1973.52941176471,462.610784313726,0.983820029135709,4.99744684466916E-4
1976.47058823529,462.855882352941,0.985239308409194,4.65610570957496E-4
1979.41176470588,463.100980392157,0.986560361872151,4.32952422874251E-4
1982.35294117647,463.346078431373,0.987787539197749,4.01775141871602E-4
1985.29411764706,463.591176470588,0.988925196200753,3.72078024812465E-4
1988.23529411765,463.836274509804,0.989977678566618,3.43854915125163E-4
1991.17647058824,464.08137254902,0.990949306077815,3.17094389290787E-4
1994.11764705882,464.326470588235,0.991844357438111,2.917799766337E-4
1997.05882352941,464.571568627451,0.992667055789628,2.67890410223532E-4
2000,464.816666666667,0.993421555010543,2.45399906353203E-4
2002.94117647059,465.061764705882,0.994111926873335,2.24278469744265E-4
2005.88235294118,465.306862745098,0.99474214913474,2.04492221351037E-4
2008.82352941176,465.551960784314,0.995316094618964,1.86003745393754E-4
2011.76470588235,465.797058823529,0.995837521345505,1.68772452053753E-4
2014.70588235294,466.042156862745,0.996310063742221,1.52754952113063E-4
2017.64705882353,466.287254901961,0.99673722497318,1.37905439722357E-4
2020.58823529412,466.532352941176,0.99712237039951,1.24176079432835E-4
2023.52941176471,466.777450980392,0.997468722180129,1.11517393635163E-4
2026.47058823529,467.022549019608,0.997779355007926,9.98786466098972E-5
2029.41176470588,467.267647058824,0.998057192965994,8.92082215072804E-5
2032.35294117647,467.512745098039,0.998305007477907,7.94539867420088E-5
2035.29411764706,467.757843137255,0.998525416315973,7.05636485025988E-5
2038.23529411765,468.002941176471,0.998720883622111,6.24850863353457E-5
2041.17647058824,468.248039215686,0.998893720887451,5.51666690641149E-5
2044.11764705882,468.493137254902,0.999046088829203,4.85575486425886E-5
2047.05882352941,468.738235294118,0.999180000096798,4.26079298995611E-5
2050,468.983333333333,0.999297322733875,3.72693145246915E-5
2052.94117647059,469.228431372549,0.999399784318407,3.24947180422515E-5
2055.88235294118,469.473529411765,0.999488976700172,2.82388589288463E-5
2058.82352941176,469.71862745098,0.999566361252913,2.44583194387511E-5
2061.76470588235,469.963725490196,0.999633274557802,2.11116780989088E-5
2064.70588235294,470.208823529412,0.99969093443532,1.81596142213147E-5
2067.64705882353,470.453921568627,0.9997404462442,1.55649851420907E-5
2070.58823529412,470.699019607843,0.999782809368674,1.32928772313505E-5
2073.52941176471,470.944117647059,0.999818923818794,1.13106320183837E-5
2076.47058823529,471.189215686274,0.999849596872934,9.58784904012284E-6
2079.41176470588,471.43431372549,0.999875549696658,8.09636724232742E-6
2082.35294117647,471.679411764706,0.999897423877787,6.81022694001439E-6
2085.29411764706,471.924509803922,0.999915787823598,5.70561447662546E-6
2088.23529411765,472.169607843137,0.999931142972546,4.76079180791101E-6
2091.17647058824,472.414705882353,0.999943929779468,3.95601327842835E-6
2094.11764705882,472.659803921569,0.999954533439976,3.27343185748029E-6
2097.05882352941,472.904901960784,0.9999632893263,2.69699706059434E-6
2100,473.15,0.999970488113314,2.21234670437326E-6
2102.94117647059,473.395098039216,0.999976380579644,1.80669453225987E-6
2105.88235294118,473.640196078431,0.999981182074533,1.46871561053333E-6
2108.82352941176,473.885294117647,0.999985076646514,1.18843123384068E-6
2111.76470588235,474.130392156863,0.999988220834775,9.57094901052197E-7
2114.70588235294,474.375490196078,0.999990747128446,7.67080732031839E-7
2117.64705882353,474.620588235294,0.999992767102746,6.11775500759452E-7
2120.58823529412,474.86568627451,0.999994374244128,4.85475260709514E-7
2123.52941176471,475.110784313725,0.999995646479106,3.83287343726041E-7
2126.47058823529,475.355882352941,0.999996648423502,3.01038326133668E-7
2129.41176470588,475.600980392157,0.999997433370307,2.35188376878272E-7
2132.35294117647,475.846078431373,0.999998045035339,1.82752240162335E-7
2135.29411764706,476.091176470588,0.999998519080399,1.41226956026154E-7
2138.23529411765,476.336274509804,0.999998884433727,1.08526291512944E-7
2141.17647058824,476.58137254902,0.999999164427326,8.29217433574286E-8
2144.11764705882,476.826470588235,0.999999377770143,6.2989878864186E-8
2147.05882352941,477.071568627451,0.999999539375331,4.75657069423314E-8
2150,477.316666666667,0.99999966105879,3.57017135177006E-8
2152.94117647059,477.561764705882,0.999999752125053,2.66321546970469E-8
2155.88235294118,477.806862745098,0.999999819855367,1.97421760064962E-8
2158.82352941176,478.051960784314,0.999999869911496,1.45413135210638E-8
2161.76470588235,478.297058823529,0.999999906667487,1.0640932358345E-8
2164.70588235294,478.542156862745,0.99999993348033,7.73516792605139E-9
2167.64705882353,478.787254901961,0.999999952909209,5.58495249790037E-9
2170.58823529412,479.032352941176,0.999999966891812,4.00473329539959E-9
2173.52941176471,479.277450980392,0.999999976885093,2.85151605751216E-9
2176.47058823529,479.522549019608,0.999999983976809,2.01589961321864E-9
2179.41176470588,479.767647058824,0.999999988973243,1.4147985268483E-9
2182.35294117647,480.012745098039,0.99999999246767,9.85584060991111E-10
2185.29411764706,480.257843137255,0.999999994893381,6.81405810086156E-10
2188.23529411765,480.502941176471,0.999999996564429,4.67487262369706E-10
2191.17647058824,480.748039215686,0.999999997706686,3.18216840694387E-10
2194.11764705882,480.993137254902,0.999999998481329,2.14883233139263E-10
2197.05882352941,481.238235294118,0.999999999002448,1.43927407780581E-10
2200,481.483333333333,0.99999999935015,9.56049109012524E-11
2202.94117647059,481.728431372549,0.999999999580212,6.29718356376144E-11
2205.88235294118,481.973529411765,0.999999999731145,4.11219806741386E-11
2208.82352941176,482.21862745098,0.99999999982931,2.66191462482012E-11
2211.76470588235,482.463725490196,0.99999999989259,1.70780200341361E-11
2214.70588235294,482.708823529412,0.99999999993302,1.08575446917332E-11
2217.64705882353,482.953921568627,0.99999999995862,6.83918886560244E-12
2220.58823529412,483.199019607843,0.99999999997467,4.26758452256647E-12
2223.52941176471,483.444117647059,0.99999999998465,2.63751760674778E-12
2226.47058823529,483.689215686274,0.99999999999078,1.61420758774491E-12
2229.41176470588,483.93431372549,0.99999999999452,9.78141551399943E-13
2232.35294117647,484.179411764706,0.99999999999678,5.86749227811724E-13
2235.29411764706,484.424509803922,0.99999999999812,3.48343056326458E-13
2238.23529411765,484.669607843137,0.99999999999892,2.04670893919789E-13
2241.17647058824,484.914705882353,0.99999999999938,1.18958020094111E-13
2244.11764705882,485.159803921569,0.99999999999965,6.83713216120636E-14
2247.05882352941,485.404901960784,0.99999999999981,3.88983225389437E-14
2250,485.65,0.99999999999989,2.18853952512011E-14
2252.94117647059,485.895098039216,0.99999999999994,1.21692206346508E-14
2255.88235294118,486.140196078431,0.99999999999997,6.66927669522241E-15
2258.82352941176,486.385294117647,0.99999999999998,3.61970327637559E-15
2261.76470588235,486.630392156863,0.99999999999999,1.95343089567505E-15
2264.70588235294,486.875490196078,1,1.02327547721825E-15
2267.64705882353,487.120588235294,1,5.21546609133967E-16
2270.58823529412,487.36568627451,1,2.87820541598565E-16
2273.52941176471,487.610784313725,1,1.39055200660177E-16
2276.47058823529,487.855882352941,1,6.19006438548574E-17
2279.41176470588,488.100980392157,1,6.63132179674788E-17
2282.35294117647,488.346078431373,1,1.25747298105065E-17
2285.29411764706,488.591176470588,1,-3.36938869776524E-18
2288.23529411765,488.836274509804,1,9.02824980552623E-19
2291.17647058824,489.08137254902,1,-2.41911224445737E-19
2294.11764705882,489.326470588235,1,6.48199172302589E-20
2297.05882352941,489.571568627451,1,-1.7368444475299E-20
2300,489.816666666667,1,4.65386067094181E-21
2302.94117647059,490.061764705882,1,-1.24699820846573E-21
2305.88235294118,490.306862745098,1,3.34132162921448E-22
2308.82352941176,490.551960784314,1,-8.95304432200603E-23
2311.76470588235,490.797058823529,1,2.39896099588174E-23
2314.70588235294,491.042156862745,1,-6.42799661520274E-24
2317.64705882353,491.287254901961,1,1.72237650199356E-24
2320.58823529412,491.532352941176,1,-4.61509392771518E-25
2323.52941176471,491.777450980392,1,1.23661069092505E-25
2326.47058823529,492.022549019608,1,-3.31348835985038E-26
2329.41176470588,492.267647058824,1,8.87846530151904E-27
2332.35294117647,492.512745098039,1,-2.37897760756992E-27
2335.29411764706,492.757843137255,1,6.37445128759995E-28
2338.23529411765,493.002941176471,1,-1.70802907470406E-28
2341.17647058824,493.248039215686,1,4.57665011215831E-29
2344.11764705882,493.493137254902,1,-1.22630970159263E-29
2347.05882352941,493.738235294118,1,3.28588694212194E-30
2350,493.983333333333,1,-8.80450752561488E-31
2352.94117647059,494.228431372549,1,2.35916068124258E-31
2355.88235294118,494.473529411765,1,-6.32135199354159E-32
2358.82352941176,494.71862745098,1,1.69380116174223E-32
2361.76470588235,494.963725490196,1,-4.53852653427786E-33
2364.70588235294,495.208823529412,1,1.21609451968673E-33
2367.64705882353,495.453921568627,1,-3.25851544470043E-34
2370.58823529412,495.699019607843,1,8.73116581931756E-35
2373.52941176471,495.944117647059,1,-2.33950883026836E-35
2376.47058823529,496.189215686274,1,6.26869501755885E-36
2379.41176470588,496.43431372549,1,-1.67969176755179E-36
2382.35294117647,496.679411764706,1,4.50072052648738E-37
2385.29411764706,496.924509803922,1,-1.20596443043047E-37
2388.23529411765,497.169607843137,1,3.23137195234504E-38
2391.17647058824,497.414705882353,1,-8.65843505075433E-39
2394.11764705882,497.659803921569,1,2.32002067956695E-39
2397.05882352941,497.904901960784,1,-6.21647667513467E-40
2400,498.15,1,1.66569990486924E-40
2402.94117647059,498.395098039216,1,-4.46322944342282E-41
2405.88235294118,498.640196078431,1,1.19591872500004E-41
2408.82352941176,498.885294117647,1,-3.20445456577018E-42
2411.76470588235,499.130392156863,1,8.58631013080348E-43
2414.70588235294,499.375490196078,1,-2.3006948655121E-43
2417.64705882353,499.620588235294,1,6.16469331244313E-44
2420.58823529412,499.86568627451,1,-1.65182459465479E-44
2423.52941176471,500.110784313725,1,4.42605066175588E-45
2426.47058823529,500.355882352941,1,-1.18595670047682E-45
2429.41176470588,500.600980392157,1,3.17776140151061E-46
2432.35294117647,500.846078431373,1,-8.51478601273449E-47
2435.29411764706,501.091176470588,1,2.28153003583632E-47
2438.23529411765,501.336274509804,1,-6.11334130609609E-48
2441.17647058824,501.58137254902,1,1.63806486602439E-48
2444.11764705882,501.826470588235,1,-4.38918158001029E-49
2447.05882352941,502.071568627451,1,1.17607765979724E-49
2450,502.316666666667,1,-3.15129059178999E-50
2452.94117647059,502.561764705882,1,8.44385769185863E-51
2455.88235294118,502.806862745098,1,-2.26252484953683E-51
2458.82352941176,503.051960784314,1,6.06241706288701E-52
2461.76470588235,503.297058823529,1,-1.62441975618135E-52
2464.70588235294,503.542156862745,1,4.35261961837954E-53
2467.64705882353,503.787254901961,1,-1.16628091170466E-53
2470.58823529412,504.032352941176,1,3.12504028439097E-54
2473.52941176471,504.277450980392,1,-8.37352020517283E-55
2476.47058823529,504.522549019608,1,2.2436779767816E-55
2479.41176470588,504.767647058824,1,-6.01191701954169E-56
2482.35294117647,505.012745098039,1,1.61088831034922E-56
2485.29411764706,505.257843137255,1,-4.31636221854749E-57
2488.23529411765,505.502941176471,1,1.15656577070009E-57
2491.17647058824,505.748039215686,1,-3.09900864252569E-58
2494.11764705882,505.993137254902,1,8.30376863101829E-59
2497.05882352941,506.238235294118,1,-2.22498809881623E-59
2500,506.483333333333,1,5.96183764246631E-60
2502.94117647059,506.728431372549,1,-1.59746958170453E-60
2505.88235294118,506.973529411765,1,4.28040684350981E-61
2508.82352941176,507.21862745098,1,-1.14693155699503E-61
2511.76470588235,507.463725490196,1,3.07319384470629E-62
2514.70588235294,507.708823529412,1,-8.23459808873184E-63
2517.64705882353,507.953921568627,1,2.20645390787102E-63
2520.58823529412,508.199019607843,1,-5.91217542750493E-64
2523.52941176471,508.444117647059,1,1.58416263131107E-64
2526.47058823529,508.689215686274,1,-4.24475097739363E-65
2529.41176470588,508.93431372549,1,1.13737759646377E-65
2532.35294117647,509.179411764706,1,-3.04759408461739E-66
2535.29411764706,509.424509803922,1,8.16600373831097E-67
2538.23529411765,509.669607843137,1,-2.18807410706995E-67
2541.17647058824,509.914705882353,1,5.86292689968844E-68
2544.11764705882,510.159803921569,1,-1.57096652805422E-68
2547.05882352941,510.404901960784,1,4.20939212528453E-69
2550,510.65,1,-1.12790322059591E-69
2552.94117647059,510.895098039216,1,3.02220757099117E-70
2555.88235294118,511.140196078431,1,-8.09798078006366E-71
2558.82352941176,511.385294117647,1,2.16984741034082E-71
2561.76470588235,511.630392156863,1,-5.81408861299587E-72
2564.70588235294,511.875490196078,1,1.55788034857533E-72
2567.64705882353,512.120588235294,1,-4.17432781305017E-73
2570.58823529412,512.36568627451,1,1.11850776644964E-73
2573.52941176471,512.610784313725,1,-2.99703252748101E-74
2576.47058823529,512.855882352941,1,8.03052445428403E-75
2579.41176470588,513.100980392157,1,-2.15177254232393E-75
2582.35294117647,513.346078431372,1,5.76565715011081E-76
2585.29411764706,513.591176470588,1,-1.54490317720712E-76
2588.23529411765,513.836274509804,1,4.13955558716868E-77
2591.17647058824,514.08137254902,1,-1.10919057660567E-77
2594.11764705882,514.326470588235,1,2.97206719253699E-78
2597.05882352941,514.571568627451,1,-7.96363004091272E-79
2600,514.816666666667,1,2.13384823828309E-79
2602.94117647059,515.061764705882,1,-5.71762912218486E-80
2605.88235294118,515.306862745098,1,1.53203410591009E-80
2608.82352941176,515.551960784314,1,-4.1050730145552E-81
2611.76470588235,515.797058823529,1,1.09995099912094E-81
2614.70588235294,516.042156862745,1,-2.94730981928262E-82
2617.64705882353,516.287254901961,1,7.89729285921096E-83
2620.58823529412,516.532352941176,1,-2.11607324401765E-83
2623.52941176471,516.777450980392,1,5.67000116859632E-84
2626.47058823529,517.022549019608,1,-1.5192722342088E-84
2629.41176470588,517.267647058824,1,4.07087768239308E-85
2632.35294117647,517.512745098039,1,-1.09078838748318E-85
2635.29411764706,517.757843137255,1,2.92275867539322E-86
2638.23529411765,518.002941176471,1,-7.83150826742729E-87
2641.17647058824,518.248039215686,1,2.09844631577479E-87
2644.11764705882,518.493137254902,1,-5.62276995671886E-88
2647.05882352941,518.738235294118,1,1.506616669129E-88
2650,518.983333333333,1,-4.03696719796329E-89
2652.94117647059,519.228431372549,1,1.08170210056535E-89
2655.88235294118,519.473529411765,1,-2.89841204297511E-90
2658.82352941176,519.71862745098,1,7.76627166247773E-91
2661.76470588235,519.963725490196,1,-2.08096622016189E-91
2664.70588235294,520.208823529412,1,5.57593218168713E-92
2667.64705882353,520.453921568627,1,-1.49406652513408E-92
2670.58823529412,520.699019607843,1,4.00333918848024E-93
2673.52941176471,520.944117647059,1,-1.07269150258115E-93
2676.47058823529,521.189215686274,1,2.87426821844344E-94
2679.41176470588,521.43431372549,1,-7.7015784796231E-95
2682.35294117647,521.679411764706,1,2.06363173406007E-95
2685.29411764706,521.924509803922,1,-5.52948456616633E-96
2688.23529411765,522.169607843137,1,1.48162092406463E-96
2691.17647058824,522.414705882353,1,-3.9699913009217E-97
2694.11764705882,522.659803921569,1,1.06375596304055E-97
2697.05882352941,522.904901960784,1,-2.85032551240508E-98
2700,523.15,1,7.63742419214762E-99
2702.94117647059,523.395098039216,1,-2.04644164453974E-99
2705.88235294118,523.640196078431,1,5.48342386011881E-100
2708.82352941176,523.885294117647,1,-1.46927899507639E-100
2711.76470588235,524.130392156863,1,3.93692120186731E-101
2714.70588235294,524.375490196078,1,-1.05489485670537E-101
2717.64705882353,524.620588235294,1,2.82658224953911E-102
2720.58823529412,524.86568627451,1,-7.57380431104201E-103
2723.52941176471,525.110784313725,1,2.02939474877493E-103
2726.47058823529,525.355882352941,1,-5.43774684058246E-104
2729.41176470588,525.600980392157,1,1.45703987457905E-104
2732.35294117647,525.846078431372,1,-3.90412657733347E-105
2735.29411764706,526.091176470588,1,1.04610756354553E-105
2738.23529411765,526.336274509804,1,-2.80303676848075E-106
2741.17647058824,526.58137254902,1,7.51071438469213E-107
2744.11764705882,526.826470588235,1,-2.01248985395906E-107
2747.05882352941,527.071568627451,1,5.39245031144126E-108
2750,527.316666666667,1,-1.44490270617584E-108
2752.94117647059,527.561764705882,1,3.87160513261333E-109
2755.88235294118,527.806862745098,1,-1.03739346869593E-109
2758.82352941176,528.051960784314,1,2.77968742170376E-110
2761.76470588235,528.297058823529,1,-7.44814999856524E-111
2764.70588235294,528.542156862745,1,1.99572577722143E-111
2767.64705882353,528.787254901961,1,-5.34753110320457E-112
2770.58823529412,529.032352941176,1,1.43286664060397E-112
2773.52941176471,529.277450980392,1,-3.8393545921133E-113
2776.47058823529,529.522549019608,1,1.02875196241348E-113
2779.41176470588,529.767647058824,1,-2.75653257540625E-114
2782.35294117647,530.012745098039,1,7.38610677490189E-115
2785.29411764706,530.257843137255,1,-1.979101345545E-115
2788.23529411765,530.502941176471,1,5.30298607278132E-116
2791.17647058824,530.748039215686,1,-1.42093083567523E-116
2794.11764705882,530.993137254902,1,3.8073726991961E-117
2797.05882352941,531.238235294118,1,-1.02018244003411E-117
2800,531.483333333333,1,2.73357060939515E-118
2802.94117647059,531.728431372549,1,-7.32458037240983E-119
2805.88235294118,531.973529411765,1,1.96261539568392E-119
2808.82352941176,532.21862745098,1,-5.25881210326362E-120
2811.76470588235,532.463725490196,1,1.40909445621668E-120
2814.70588235294,532.708823529412,1,-3.77565721602354E-121
2817.64705882353,532.953921568627,1,1.01168430193039E-121
2820.58823529412,533.199019607843,1,-2.71079991697493E-122
2823.52941176471,533.444117647059,1,7.26356648595787E-123
2826.47058823529,533.689215686274,1,-1.94626677408218E-123
2829.41176470588,533.93431372549,1,5.21500610370847E-124
2832.35294117647,534.179411764706,1,-1.39735667401206E-124
2835.29411764706,534.424509803922,1,3.74420592339771E-125
2838.23529411765,534.669607843137,1,-1.00325695347024E-125
2841.17647058824,534.914705882353,1,2.6882189048326E-126
2844.11764705882,535.159803921569,1,-7.20306084627971E-127
2847.05882352941,535.404901960784,1,1.93005433679289E-127
2850,535.65,1,-5.1715650089184E-128
2852.94117647059,535.895098039216,1,1.38571666774474E-128
2855.88235294118,536.140196078431,1,-3.7130166206055E-129
2858.82352941176,536.385294117647,1,9.94899804974578E-130
2861.76470588235,536.630392156863,1,-2.6658259929282E-130
2864.70588235294,536.875490196078,1,7.14305921967006E-131
2867.64705882353,537.120588235294,1,-1.91397694939827E-131
2870.58823529412,537.36568627451,1,5.12848577923013E-132
2873.52941176471,537.610784313725,1,-1.37417362293922E-132
2876.47058823529,537.855882352941,1,3.68208712526742E-133
2879.41176470588,538.100980392157,1,-9.866122716765E-134
2882.35294117647,538.346078431372,1,2.64361961438318E-134
2885.29411764706,538.591176470588,1,-7.0835574076914E-135
2888.23529411765,538.836274509804,1,1.89803348693002E-135
2891.17647058823,539.08137254902,1,-5.08576540030199E-136
2894.11764705882,539.326470588235,1,1.36272673190507E-136
2897.05882352941,539.571568627451,1,-3.65141527318265E-137
2900,539.816666666667,1,9.7839377367996E-138
2902.94117647059,540.061764705882,1,-2.62159821537184E-138
2905.88235294118,540.306862745098,1,7.02455124687756E-139
2908.82352941176,540.551960784314,1,-1.88222283379188E-139
2911.76470588235,540.797058823529,1,5.04340088289953E-140
2914.70588235294,541.042156862745,1,-1.35137519367934E-140
2917.64705882353,541.287254901961,1,3.62099891817831E-141
2920.58823529412,541.532352941176,1,-9.70243735919849E-142
2923.52941176471,541.777450980392,1,2.59976025501079E-142
2926.47058823529,542.022549019608,1,-6.96603660844669E-143
2929.41176470588,542.267647058824,1,1.86654388367893E-143
2932.35294117647,542.512745098039,1,-5.0013892626902E-144
2935.29411764706,542.757843137255,1,1.34011821397153E-144
2938.23529411765,543.002941176471,1,-3.5908359319591E-145
2941.17647058824,543.248039215686,1,9.62161588121089E-146
2944.11764705882,543.493137254902,1,-2.57810420525259E-146
2947.05882352941,543.738235294118,1,6.90800939800855E-147
2950,543.983333333333,1,-1.85099553950275E-147
2952.94117647059,544.228431372549,1,4.95972760003441E-148
2955.88235294118,544.473529411765,1,-1.32895500510747E-148
2958.82352941176,544.71862745098,1,3.56092420395823E-149
2961.76470588235,544.963725490196,1,-9.54146764759167E-150
2964.70588235294,545.208823529412,1,2.55662855077935E-150
2967.64705882353,545.453921568627,1,-6.85046555527777E-151
2970.58823529412,545.699019607843,1,1.8355767133139E-151
2973.52941176471,545.944117647059,1,-4.91841297977834E-152
2976.47058823529,546.189215686274,1,1.31788478597436E-152
2979.41176470588,546.43431372549,1,-3.53126164119093E-153
2982.35294117647,546.679411764706,1,9.46198705020109E-154
2985.29411764706,546.924509803922,1,-2.53533178889512E-154
2988.23529411765,547.169607843137,1,6.79340105379402E-155
2991.17647058824,547.414705882353,1,-1.82028632622484E-155
2994.11764705882,547.659803921569,1,4.87744251105362E-156
2997.05882352941,547.904901960784,1,-1.30690678196604E-156
3000,548.15,1,3.50184616810559E-157
3002.94117647059,548.395098039216,1,-9.38316852761915E-158
3005.88235294118,548.640196078431,1,2.51421242942068E-158
3008.82352941176,548.885294117647,1,-6.73681190063562E-159
3011.76470588235,549.130392156863,1,1.80512330833569E-159
3014.70588235294,549.375490196078,1,-4.83681332707145E-160
3017.64705882353,549.620588235294,1,1.29602022492888E-160
3020.58823529412,549.86568627451,1,-3.4726757264407E-161
3023.52941176471,550.110784313725,1,9.30500656474954E-162
3026.47058823529,550.355882352941,1,-2.49326899459113E-162
3029.41176470588,550.600980392157,1,6.6806941361429E-163
3032.35294117647,550.846078431372,1,-1.79008659865859E-163
3035.29411764706,551.091176470588,1,4.79652258492406E-164
3038.23529411765,551.336274509804,1,-1.28522435310778E-164
3041.17647058823,551.58137254902,1,3.44374827508091E-165
3044.11764705882,551.826470588235,1,-9.22749569244001E-166
3047.05882352941,552.071568627451,1,2.47250001895096E-166
3050,552.316666666667,1,-6.62504383363847E-167
3052.94117647059,552.561764705882,1,1.77517514504422E-167
3055.88235294118,552.806862745098,1,-4.75656746538399E-168
3058.82352941176,553.051960784314,1,1.27451841109379E-168
3061.76470588235,553.297058823529,1,-3.41506178991179E-169
3064.70588235294,553.542156862745,1,9.15063048709249E-170
3067.64705882353,553.787254901961,1,-2.45190404925205E-170
3070.58823529412,554.032352941176,1,6.56985709915685E-171
3073.52941176471,554.277450980392,1,-1.76038790410696E-171
3076.47058823529,554.522549019608,1,4.71694517270975E-172
3079.41176470588,554.767647058824,1,-1.26390164976946E-172
3082.35294117647,555.012745098039,1,3.38661426368087E-173
3085.29411764706,555.257843137255,1,-9.07440557028895E-174
3088.23529411765,555.502941176471,1,2.43147964435192E-174
3091.17647058824,555.748039215686,1,-6.51513007116759E-175
3094.11764705882,555.993137254902,1,1.74572384115297E-175
3097.05882352941,556.238235294118,1,-4.6776529344476E-176
3100,556.483333333333,1,1.25337332625814E-176
3102.94117647059,556.728431372549,1,-3.35840370585624E-177
3105.88235294118,556.973529411765,1,8.99881560841801E-178
3108.82352941176,557.21862745098,1,-2.41122537511204E-178
3111.76470588235,557.463725490196,1,6.46085892030788E-179
3114.70588235294,557.708823529412,1,-1.73118193010768E-179
3117.64705882353,557.953921568627,1,4.63868800123769E-180
3120.58823529412,558.199019607843,1,-1.24293270387148E-180
3123.52941176471,558.444117647059,1,3.3304281424855E-181
3126.47058823529,558.689215686274,1,-8.92385531229001E-182
3129.41176470588,558.93431372549,1,2.39113982430029E-182
3132.35294117647,559.179411764706,1,-6.4070398491116E-183
3135.29411764706,559.424509803922,1,1.71676115344348E-183
3138.23529411765,559.669607843137,1,-4.60004764662301E-184
3141.17647058824,559.914705882353,1,1.23257905205732E-184
3144.11764705882,560.159803921569,1,-3.30268561606279E-185
3147.05882352941,560.404901960784,1,8.84951943677909E-186
3150,560.65,1,-2.37122158648848E-186
3152.94117647059,560.895098039216,1,6.35366909174834E-187
3155.88235294118,561.140196078431,1,-1.70246050210854E-187
3158.82352941176,561.385294117647,1,4.56172916685805E-188
3161.76470588235,561.630392156863,1,-1.22231164634929E-188
3164.70588235294,561.875490196078,1,3.2751741853847E-189
3167.64705882353,562.120588235294,1,-8.77580278044972E-190
3170.58823529412,562.36568627451,1,2.35146926795662E-190
3173.52941176471,562.610784313725,1,-6.30074291375493E-191
3176.47058823529,562.855882352941,1,1.68827897545688E-191
3179.41176470588,563.100980392157,1,-4.52372988072142E-192
3182.35294117647,563.346078431372,1,1.21212976831568E-192
3185.29411764706,563.591176470588,1,-3.24789192541954E-193
3188.23529411765,563.836274509804,1,8.7027001851961E-194
3191.17647058824,564.08137254902,1,-2.33188148659366E-194
3194.11764705882,564.326470588235,1,6.24825761177891E-195
3197.05882352941,564.571568627451,1,-1.67421558117743E-195
3200,564.816666666667,1,4.4860471293216E-196
3202.94117647059,565.061764705882,1,-1.20203270550968E-196
3205.88235294118,565.306862745098,1,3.22083692717116E-197
3208.82352941176,565.551960784314,1,-8.63020653587852E-198
3211.76470588235,565.797058823529,1,2.31245687180244E-198
3214.70588235294,566.042156862745,1,-6.19620951331265E-199
3217.64705882353,566.287254901961,1,1.66026933522616E-199
3220.58823529412,566.532352941176,1,-4.44867827592008E-200
3223.52941176471,566.777450980392,1,1.19201975141866E-200
3226.47058823529,567.022549019608,1,-3.19400729754579E-201
3229.41176470588,567.267647058824,1,8.55831675996506E-202
3232.35294117647,567.512745098039,1,-2.29319406440236E-202
3235.29411764706,567.757843137255,1,6.14459497644377E-203
3238.23529411765,568.002941176471,1,-1.64643926175479E-203
3241.17647058824,568.248039215686,1,4.41162070574055E-204
3244.11764705882,568.493137254902,1,-1.18209020541553E-204
3247.05882352941,568.738235294118,1,3.16740115921873E-205
3250,568.983333333333,1,-8.48702582717946E-206
3252.94117647059,569.228431372549,1,2.27409171653513E-206
3255.88235294118,569.473529411765,1,-6.0934103895985E-207
3258.82352941176,569.71862745098,1,1.63272439304423E-207
3261.76470588235,569.963725490196,1,-4.37487182578854E-208
3264.70588235294,570.208823529412,1,1.17224337270955E-208
3267.64705882353,570.453921568627,1,-3.14101665050304E-209
3270.58823529412,570.699019607843,1,8.4163287491493E-210
3273.52941176471,570.944117647059,1,-2.2551484915691E-210
3276.47058823529,571.189215686274,1,6.04265217128291E-211
3279.41176470588,571.43431372549,1,-1.61912376943743E-211
3282.35294117647,571.679411764706,1,4.33842906466793E-212
3285.29411764706,571.924509803922,1,-1.16247856429749E-212
3288.23529411765,572.169607843137,1,3.11485192522002E-213
3291.17647058824,572.414705882353,1,-8.34622057905233E-214
3294.11764705882,572.659803921569,1,2.23636306400909E-214
3297.05882352941,572.904901960784,1,-5.99231676984025E-215
3300,573.15,1,1.60563643927017E-215
3302.94117647059,573.395098039216,1,-4.30228987240426E-216
3305.88235294118,573.640196078431,1,1.15279509691531E-216
3308.82352941176,573.885294117647,1,-3.08890515256973E-217
3311.76470588235,574.130392156863,1,8.27669641127516E-218
3314.70588235294,574.375490196078,1,-2.21773411939889E-218
3317.64705882353,574.620588235294,1,5.94240066319799E-219
3320.58823529412,574.86568627451,1,-1.59226145880628E-219
3323.52941176471,575.110784313725,1,4.26645172026286E-220
3326.47058823529,575.355882352941,1,-1.1431922929909E-220
3329.41176470588,575.600980392157,1,3.06317451700413E-221
3332.35294117647,575.846078431372,1,-8.2077513810674E-222
3335.29411764706,576.091176470588,1,2.19926035423274E-222
3338.23529411765,576.336274509804,1,-5.89290035862365E-223
3341.17647058824,576.58137254902,1,1.5789978921704E-223
3344.11764705882,576.826470588235,1,-4.23091210057528E-224
3347.05882352941,577.071568627451,1,1.13366948059598E-224
3350,577.316666666667,1,-3.03765821809547E-225
3352.94117647059,577.561764705882,1,8.13938066420443E-226
3355.88235294118,577.806862745098,1,-2.18094047586307E-226
3358.82352941176,578.051960784314,1,5.84381239247859E-227
3361.76470588235,578.297058823529,1,-1.56584481128363E-227
3364.70588235294,578.542156862745,1,4.19566852655911E-228
3367.64705882353,578.787254901961,1,-1.12422599340019E-228
3370.58823529412,579.032352941176,1,3.01235447041658E-229
3373.52941176471,579.277450980392,1,-8.07157947664406E-230
3376.47058823529,579.522549019608,1,2.1627732024104E-230
3379.41176470588,579.767647058824,1,-5.79513332997538E-231
3382.35294117647,580.012745098039,1,1.55280129579757E-231
3385.29411764706,580.257843137255,1,-4.16071853214906E-232
3388.23529411765,580.502941176471,1,1.11486117062278E-232
3391.17647058824,580.748039215686,1,-2.98726150341168E-233
3394.11764705882,580.993137254902,1,8.00434307419692E-234
3397.05882352941,581.238235294118,1,-2.144757262673E-234
3400,581.483333333333,1,5.74685976493939E-235
3402.94117647059,581.728431372549,1,-1.53986643303064E-235
3405.88235294118,581.973529411765,1,4.12605967182321E-236
3408.82352941176,582.21862745098,1,-1.10557435698758E-236
3411.76470588235,582.463725490196,1,2.9623775612742E-237
3414.70588235294,582.708823529412,1,-7.93766675219396E-238
3417.64705882353,582.953921568627,1,2.12689139603801E-238
3420.58823529412,583.199019607843,1,-5.69898831956974E-239
3423.52941176471,583.444117647059,1,1.52703931790333E-239
3426.47058823529,583.689215686274,1,-4.09168952042769E-240
3429.41176470588,583.93431372549,1,1.09636490267749E-240
3432.35294117647,584.179411764706,1,-2.9377009028226E-241
3435.29411764706,584.424509803922,1,7.87154584515494E-242
3438.23529411765,584.669607843137,1,-2.10917435239383E-242
3441.17647058824,584.914705882353,1,5.65151564420361E-243
3444.11764705882,585.159803921569,1,-1.51431905287621E-243
3447.05882352941,585.404901960784,1,4.05760567301244E-244
3450,585.65,1,-1.08723216328763E-244
3452.94117647059,585.895098039216,1,2.91322980138062E-245
3455.88235294118,586.140196078431,1,-7.8059757264621E-246
3458.82352941176,586.385294117647,1,2.09160489204219E-246
3461.76470588235,586.630392156863,1,-5.60443841707771E-247
3464.70588235294,586.875490196078,1,1.50170474788603E-247
3467.64705882353,587.120588235294,1,-4.0238057446599E-248
3470.58823529412,587.36568627451,1,1.07817549978148E-248
3473.52941176471,587.610784313725,1,-2.88896254465429E-249
3476.47058823529,587.855882352941,1,7.74095180803937E-250
3479.41176470588,588.100980392157,1,-2.07418178561252E-250
3482.35294117647,588.346078431372,1,5.55775334410144E-251
3485.29411764706,588.591176470588,1,-1.48919552028355E-251
3488.23529411765,588.836274509804,1,3.99028737031968E-252
3491.17647058824,589.08137254902,1,-1.06919427844535E-252
3494.11764705882,589.326470588235,1,2.86489743461424E-253
3497.05882352941,589.571568627451,1,-7.67646954002724E-254
3500,589.816666666667,1,2.05690381397271E-254
3502.94117647059,590.061764705882,1,-5.51145715862483E-255
3505.88235294118,590.306862745098,1,1.47679049477225E-255
3508.82352941176,590.551960784314,1,-3.95704820464184E-256
3511.76470588235,590.797058823529,1,1.0602878708448E-256
3514.70588235294,591.042156862745,1,-2.84103278737379E-257
3517.64705882353,591.287254901961,1,7.6125244104715E-258
3520.58823529412,591.532352941176,1,-2.03976976814805E-258
3523.52941176471,591.777450980392,1,5.46554662120687E-259
3526.47058823529,592.022549019608,1,-1.46448880334703E-259
3529.41176470588,592.267647058824,1,3.92408592181258E-260
3532.35294117647,592.512745098039,1,-1.05145565378001E-260
3535.29411764706,592.757843137255,1,2.81736693307456E-261
3538.23529411765,593.002941176471,1,-7.54911194499636E-262
3541.17647058824,593.248039215686,1,2.02277844923376E-262
3544.11764705882,593.493137254902,1,-5.42001851939231E-263
3547.05882352941,593.738235294118,1,1.45228958523309E-263
3550,593.983333333333,1,-3.89139821539286E-264
3552.94117647059,594.228431372549,1,1.04269700924257E-264
3555.88235294118,594.473529411765,1,-2.79389821576872E-265
3558.82352941176,594.71862745098,1,7.48622770649938E-266
3561.76470588235,594.963725490196,1,-2.00592866831227E-266
3564.70588235294,595.208823529412,1,5.37486966748639E-267
3567.64705882353,595.453921568627,1,-1.4401919868257E-267
3570.58823529412,595.699019607843,1,3.85898279815642E-268
3573.52941176471,595.944117647059,1,-1.03401132437175E-268
3576.47058823529,596.189215686274,1,2.77062499330047E-269
3579.41176470588,596.43431372549,1,-7.42386729484345E-270
3582.35294117647,596.679411764706,1,1.98921924636913E-270
3585.29411764706,596.924509803922,1,-5.33009690633055E-271
3588.23529411765,597.169607843137,1,1.4281951616309E-271
3591.17647058824,597.414705882353,1,-3.82683740193035E-272
3594.11764705882,597.659803921569,1,1.02539799141245E-272
3597.05882352941,597.904901960784,1,-2.74754563719463E-273
3600,598.15,1,7.36202634653953E-274
3602.94117647059,598.395098039216,1,-1.97264901421192E-274
3605.88235294118,598.640196078431,1,5.28569710308128E-275
3608.82352941176,598.885294117647,1,-1.41629827020597E-275
3611.76470588235,599.130392156863,1,3.79495977743341E-276
3614.70588235294,599.375490196078,1,-1.01685640767194E-276
3617.64705882353,599.620588235294,1,2.72465853254072E-277
3620.58823529412,599.86568627451,1,-7.30070053444949E-278
3623.52941176471,600.110784313725,1,1.95621681238694E-278
3626.47058823529,600.355882352941,1,-5.24166715099306E-279
3629.41176470588,600.600980392157,1,1.40450048010142E-279
3632.35294117647,600.846078431372,1,-3.76334769412249E-280
3635.29411764706,601.091176470588,1,1.00838597547778E-280
3638.23529411765,601.336274509804,1,-2.70196207788105E-281
3641.17647058824,601.58137254902,1,7.23988556747801E-282
3644.11764705882,601.826470588235,1,-1.93992149109959E-282
3647.05882352941,602.071568627451,1,5.19800396919806E-283
3650,602.316666666667,1,-1.39280096580059E-283
3652.94117647059,602.561764705882,1,3.73199894003556E-284
3655.88235294118,602.806862745098,1,-9.99986102136334E-285
3658.82352941176,603.051960784314,1,2.67945468509777E-285
3661.76470588235,603.297058823529,1,-7.17957719027737E-286
3664.70588235294,603.542156862745,1,1.92376191013173E-286
3667.64705882353,603.787254901961,1,-5.1547045024955E-287
3670.58823529412,604.032352941176,1,1.38119890866474E-287
3673.52941176471,604.277450980392,1,-3.70091132163466E-288
3676.47058823529,604.522549019608,1,9.91656199891204E-289
3679.41176470588,604.767647058824,1,-2.65713477930163E-289
3682.35294117647,605.012745098039,1,7.1197711829447E-290
3685.29411764706,605.257843137255,1,-1.90773693876443E-290
3688.23529411765,605.502941176471,1,5.11176572113022E-291
3691.17647058824,605.748039215686,1,-1.36969349687384E-291
3694.11764705882,605.993137254902,1,3.67008266365481E-292
3697.05882352941,606.238235294118,1,-9.83395685881906E-293
3700,606.483333333333,1,2.63500079872271E-293
3702.94117647059,606.728431372549,1,-7.0604633607321E-294
3705.88235294118,606.973529411765,1,1.89184545569755E-294
3708.82352941176,607.21862745098,1,-5.06918462058618E-295
3711.76470588235,607.463725490196,1,1.35828392537051E-295
3714.70588235294,607.708823529412,1,-3.63951080895155E-296
3717.64705882353,607.953921568627,1,9.75203982103037E-297
3720.58823529412,608.199019607843,1,-2.6130511946007E-297
3723.52941176471,608.444117647059,1,7.00164957374539E-298
3726.47058823529,608.689215686274,1,-1.87608634897079E-298
3729.41176470588,608.93431372549,1,5.02695822137777E-299
3732.35294117647,609.179411764706,1,-1.34696939580317E-299
3735.29411764706,609.424509803922,1,3.60919361834896E-300
3738.23529411765,609.669607843137,1,-9.67080515364166E-301
3741.17647058824,609.914705882353,1,2.59128443107702E-301
3744.11764705882,610.159803921569,1,-6.94332570666428E-302
3747.05882352941,610.404901960784,1,1.86045851588695E-302
3750,610.65,1,-4.98508356883513E-303
3752.94117647059,610.895098039216,1,1.33574911647103E-303
3755.88235294118,611.140196078431,1,-3.57912897048995E-304
3758.82352941176,611.385294117647,1,9.59024717249491E-305
3761.76470588235,611.630392156863,1,-2.56969898508525E-305
3764.70588235294,611.875490196078,1,6.88548767844711E-306
3767.64705882353,612.120588235294,1,-1.8449608629341E-306
3770.58823529412,612.36568627451,1,4.94355773290286E-307
3773.52941176471,612.610784313725,1,-1.32462230226777E-307
3776.47058823529,612.855882352941,1,3.54931476168931e-308
3779.41176470588,613.100980392157,1,-9.51036024078567e-309
3782.35294117647,613.346078431372,1,2.54829334624724e-309
3785.29411764706,613.591176470588,1,-6.82813144204626e-310
3788.23529411765,613.836274509804,1,1.82959230570969e-310
3791.17647058824,614.08137254902,1,-4.90237780793699e-311
3794.11764705882,614.326470588235,1,1.31358817462877e-311
3797.05882352941,614.571568627451,1,-3.51974890579575e-312
3800,614.816666666667,1,9.43113876865645e-313
3802.94117647059,615.061764705882,1,-2.52706601622367e-313
3805.88235294118,615.306862745098,1,6.77125298461535e-314
3808.82352941176,615.551960784314,1,-1.81435176535525e-314
3811.76470588235,615.797058823529,1,4.86154091133559e-315
3814.70588235294,616.042156862745,1,-1.30264598684918e-315
3817.64705882353,616.287254901961,1,3.49042932307356e-316
3820.58823529412,616.532352941176,1,-9.352578684615e-317
3823.52941176471,616.777450980392,1,2.5060140967397e-317
3826.47058823529,617.022549019608,1,-6.71482148934609e-318
3829.41176470588,617.267647058824,1,1.79922898114715e-318
3832.35294117647,617.512745098039,1,-4.82074672616679e-319
3835.29411764706,617.757843137255,1,1.29168522448735e-319
3838.23529411765,618.002941176471,1,-3.46587050557634e-320
3841.17647058824,618.248039215686,1,9.28349348535702e-321
3844.11764705882,618.493137254902,1,-2.49997216795671e-321
3847.05882352941,618.738235294118,1,6.8181059126092e-322
3850,618.983333333333,1,-1.33397724377137e-322
3852.94117647059,619.228431372549,1,5.92878775009496e-323
3855.88235294118,619.473529411765,1,1.48219693752374e-323
3858.82352941176,619.71862745098,1,0
3861.76470588235,619.963725490196,1,0
3864.70588235294,620.208823529412,1,0
3867.64705882353,620.453921568627,1,0
3870.58823529412,620.699019607843,1,0
3873.52941176471,620.944117647059,1,0
3876.47058823529,621.189215686274,1,0
3879.41176470588,621.43431372549,1,0
3882.35294117647,621.679411764706,1,0
3885.29411764706,621.924509803922,1,0
3888.23529411765,622.169607843137,1,0
3891.17647058823,622.414705882353,1,0
3894.11764705882,622.659803921569,1,0
3897.05882352941,622.904901960784,1,0
3900,623.15,1,0
3902.94117647059,623.395098039216,1,0
3905.88235294118,623.640196078431,1,0
3908.82352941177,623.885294117647,1,0
3911.76470588235,624.130392156863,1,0
3914.70588235294,624.375490196078,1,0
3917.64705882353,624.620588235294,1,0
3920.58823529412,624.86568627451,1,0
3923.52941176471,625.110784313725,1,0
3926.47058823529,625.355882352941,1,0
3929.41176470588,625.600980392157,1,0
3932.35294117647,625.846078431372,1,0
3935.29411764706,626.091176470588,1,0
3938.23529411765,626.336274509804,1,0
3941.17647058824,626.58137254902,1,0
3944.11764705882,626.826470588235,1,0
3947.05882352941,627.071568627451,1,0
3950,627.316666666667,1,0
3952.94117647059,627.561764705882,1,0
3955.88235294118,627.806862745098,1,0
3958.82352941176,628.051960784314,1,0
3961.76470588235,628.297058823529,1,0
3964.70588235294,628.542156862745,1,0
3967.64705882353,628.787254901961,1,0
3970.58823529412,629.032352941176,1,0
3973.52941176471,629.277450980392,1,0
3976.47058823529,629.522549019608,1,0
3979.41176470588,629.767647058824,1,0
3982.35294117647,630.012745098039,1,0
3985.29411764706,630.257843137255,1,0
3988.23529411765,630.502941176471,1,0
3991.17647058824,630.748039215686,1,0
3994.11764705882,630.993137254902,1,0
3997.05882352941,631.238235294118,1,0
4000,631.483333333333,1,0
4002.94117647059,631.728431372549,1,0
4005.88235294118,631.973529411765,1,0
4008.82352941176,632.21862745098,1,0
4011.76470588235,632.463725490196,1,0
4014.70588235294,632.708823529412,1,0
4017.64705882353,632.953921568627,1,0
4020.58823529412,633.199019607843,1,0
4023.52941176471,633.444117647059,1,0
4026.47058823529,633.689215686274,1,0
4029.41176470588,633.93431372549,1,0
4032.35294117647,634.179411764706,1,0
4035.29411764706,634.424509803922,1,0
4038.23529411765,634.669607843137,1,0
4041.17647058823,634.914705882353,1,0
4044.11764705882,635.159803921569,1,0
4047.05882352941,635.404901960784,1,0
4050,635.65,1,0
4052.94117647059,635.895098039216,1,0
4055.88235294118,636.140196078431,1,0
4058.82352941177,636.385294117647,1,0
4061.76470588235,636.630392156863,1,0
4064.70588235294,636.875490196078,1,0
4067.64705882353,637.120588235294,1,0
4070.58823529412,637.36568627451,1,0
4073.52941176471,637.610784313725,1,0
4076.47058823529,637.855882352941,1,0
4079.41176470588,638.100980392157,1,0
4082.35294117647,638.346078431372,1,0
4085.29411764706,638.591176470588,1,0
4088.23529411765,638.836274509804,1,0
4091.17647058824,639.08137254902,1,0
4094.11764705882,639.326470588235,1,0
4097.05882352941,639.571568627451,1,0
4100,639.816666666667,1,0
4102.94117647059,640.061764705882,1,0
4105.88235294118,640.306862745098,1,0
4108.82352941176,640.551960784314,1,0
4111.76470588235,640.797058823529,1,0
4114.70588235294,641.042156862745,1,0
4117.64705882353,641.287254901961,1,0
4120.58823529412,641.532352941176,1,0
4123.52941176471,641.777450980392,1,0
4126.47058823529,642.022549019608,1,0
4129.41176470588,642.267647058824,1,0
4132.35294117647,642.512745098039,1,0
4135.29411764706,642.757843137255,1,0
4138.23529411765,643.002941176471,1,0
4141.17647058824,643.248039215686,1,0
4144.11764705882,643.493137254902,1,0
4147.05882352941,643.738235294118,1,0
4150,643.983333333333,1,0
4152.94117647059,644.228431372549,1,0
4155.88235294118,644.473529411765,1,0
4158.82352941176,644.71862745098,1,0
4161.76470588235,644.963725490196,1,0
4164.70588235294,645.208823529412,1,0
4167.64705882353,645.453921568627,1,0
4170.58823529412,645.699019607843,1,0
4173.52941176471,645.944117647059,1,0
4176.47058823529,646.189215686274,1,0
4179.41176470588,646.43431372549,1,0
4182.35294117647,646.679411764706,1,0
4185.29411764706,646.924509803922,1,0
4188.23529411765,647.169607843137,1,0
4191.17647058824,647.414705882353,1,0
4194.11764705882,647.659803921569,1,0
4197.05882352941,647.904901960784,1,0
4200,648.15,1,0
4202.94117647059,648.395098039216,1,0
4205.88235294118,648.640196078431,1,0
4208.82352941176,648.885294117647,1,0
4211.76470588235,649.130392156863,1,0
4214.70588235294,649.375490196078,1,0
4217.64705882353,649.620588235294,1,0
4220.58823529412,649.86568627451,1,0
4223.52941176471,650.110784313725,1,0
4226.47058823529,650.355882352941,1,0
4229.41176470588,650.600980392157,1,0
4232.35294117647,650.846078431372,1,0
4235.29411764706,651.091176470588,1,0
4238.23529411765,651.336274509804,1,0
4241.17647058824,651.58137254902,1,0
4244.11764705882,651.826470588235,1,0
4247.05882352941,652.071568627451,1,0
4250,652.316666666667,1,0
4252.94117647059,652.561764705882,1,0
4255.88235294118,652.806862745098,1,0
4258.82352941176,653.051960784314,1,0
4261.76470588235,653.297058823529,1,0
4264.70588235294,653.542156862745,1,0
4267.64705882353,653.787254901961,1,0
4270.58823529412,654.032352941176,1,0
4273.52941176471,654.277450980392,1,0
4276.47058823529,654.522549019608,1,0
4279.41176470588,654.767647058824,1,0
4282.35294117647,655.012745098039,1,0
4285.29411764706,655.257843137255,1,0
4288.23529411765,655.502941176471,1,0
4291.17647058824,655.748039215686,1,0
4294.11764705882,655.993137254902,1,0
4297.05882352941,656.238235294118,1,0
4300,656.483333333333,1,0
4302.94117647059,656.728431372549,1,0
4305.88235294118,656.973529411765,1,0
4308.82352941176,657.21862745098,1,0
4311.76470588235,657.463725490196,1,0
4314.70588235294,657.708823529412,1,0
4317.64705882353,657.953921568627,1,0
4320.58823529412,658.199019607843,1,0
4323.52941176471,658.444117647059,1,0
4326.47058823529,658.689215686274,1,0
4329.41176470588,658.93431372549,1,0
4332.35294117647,659.179411764706,1,0
4335.29411764706,659.424509803922,1,0
4338.23529411765,659.669607843137,1,0
4341.17647058824,659.914705882353,1,0
4344.11764705882,660.159803921569,1,0
4347.05882352941,660.404901960784,1,0
4350,660.65,1,0
4352.94117647059,660.895098039216,1,0
4355.88235294118,661.140196078431,1,0
4358.82352941176,661.385294117647,1,0
4361.76470588235,661.630392156863,1,0
4364.70588235294,661.875490196078,1,0
4367.64705882353,662.120588235294,1,0
4370.58823529412,662.36568627451,1,0
4373.52941176471,662.610784313725,1,0
4376.47058823529,662.855882352941,1,0
4379.41176470588,663.100980392157,1,0
4382.35294117647,663.346078431372,1,0
4385.29411764706,663.591176470588,1,0
4388.23529411765,663.836274509804,1,0
4391.17647058824,664.08137254902,1,0
4394.11764705882,664.326470588235,1,0
4397.05882352941,664.571568627451,1,0
4400,664.816666666667,1,0
4402.94117647059,665.061764705882,1,0
4405.88235294118,665.306862745098,1,0
4408.82352941176,665.551960784314,1,0
4411.76470588235,665.797058823529,1,0
4414.70588235294,666.042156862745,1,0
4417.64705882353,666.287254901961,1,0
4420.58823529412,666.532352941176,1,0
4423.52941176471,666.777450980392,1,0
4426.47058823529,667.022549019608,1,0
4429.41176470588,667.267647058824,1,0
4432.35294117647,667.512745098039,1,0
4435.29411764706,667.757843137255,1,0
4438.23529411765,668.002941176471,1,0
4441.17647058824,668.248039215686,1,0
4444.11764705882,668.493137254902,1,0
4447.05882352941,668.738235294118,1,0
4450,668.983333333333,1,0
4452.94117647059,669.228431372549,1,0
4455.88235294118,669.473529411765,1,0
4458.82352941176,669.71862745098,1,0
4461.76470588235,669.963725490196,1,0
4464.70588235294,670.208823529412,1,0
4467.64705882353,670.453921568627,1,0
4470.58823529412,670.699019607843,1,0
4473.52941176471,670.944117647059,1,0
4476.47058823529,671.189215686274,1,0
4479.41176470588,671.43431372549,1,0
4482.35294117647,671.679411764706,1,0
4485.29411764706,671.924509803922,1,0
4488.23529411765,672.169607843137,1,0
4491.17647058824,672.414705882353,1,0
4494.11764705882,672.659803921569,1,0
4497.05882352941,672.904901960784,1,0
4500,673.15,1,0
