time,temperature,alpha,da/dt
s,K,,5K/min
68.67918,654.506,0,2.46495E-4
68.6875,654.5471,2.01741E-6,2.46648E-4
68.69582,654.5886,4.03481E-6,2.4681E-4
68.70418,654.6298,6.05222E-6,2.46979E-4
68.7125,654.672,8.06962E-6,2.47156E-4
68.72082,654.7138,1.10957E-5,2.4734E-4
68.72916,654.7552,1.21044E-5,2.47531E-4
68.7375,654.7973,1.41218E-5,2.47729E-4
68.74584,654.8391,1.61392E-5,2.47933E-4
68.75416,654.8804,1.81567E-5,2.48143E-4
68.7625,654.9222,1.91654E-5,2.48358E-4
68.77084,654.9642,2.11828E-5,2.48577E-4
68.77918,655.0055,2.32002E-5,2.48801E-4
68.7875,655.0474,2.62263E-5,2.49029E-4
68.79582,655.0887,2.82437E-5,2.4926E-4
68.80418,655.1306,3.02611E-5,2.49495E-4
68.8125,655.1726,3.22785E-5,2.49733E-4
68.82082,655.2153,3.42959E-5,2.49975E-4
68.82918,655.256,3.63133E-5,2.50219E-4
68.8375,655.2972,3.7322E-5,2.50468E-4
68.84582,655.3394,4.03481E-5,2.50719E-4
68.85416,655.38,4.13568E-5,2.50973E-4
68.8625,655.4212,4.43829E-5,2.51229E-4
68.87084,655.4625,4.53916E-5,2.51488E-4
68.87916,655.5042,4.64003E-5,2.5175E-4
68.8875,655.5465,4.94264E-5,2.52015E-4
68.89584,655.5879,5.04351E-5,2.52467E-4
68.90418,655.6295,5.24525E-5,2.52927E-4
68.9125,655.6724,5.447E-5,2.53397E-4
68.92082,655.7146,5.64874E-5,2.53877E-4
68.92918,655.756,5.85048E-5,2.54367E-4
68.9375,655.7982,6.05222E-5,2.54868E-4
68.94582,655.8394,6.15309E-5,2.55378E-4
68.95418,655.8798,6.35483E-5,2.55899E-4
68.9625,655.9211,6.65744E-5,2.56429E-4
68.97082,655.9626,6.85918E-5,2.56969E-4
68.97916,656.0046,6.96005E-5,2.57518E-4
68.9875,656.0461,7.16179E-5,2.58077E-4
68.99584,656.0884,7.36353E-5,2.58647E-4
69.00416,656.1298,7.56527E-5,2.59228E-4
69.0125,656.1716,7.76701E-5,2.59821E-4
69.02084,656.2146,7.96875E-5,2.60427E-4
69.02918,656.2555,8.17049E-5,2.61044E-4
69.0375,656.2971,8.37223E-5,2.61674E-4
69.04582,656.3386,8.57397E-5,2.62317E-4
69.05418,656.3795,8.77571E-5,2.62973E-4
69.0625,656.4223,8.97746E-5,2.63642E-4
69.07082,656.4637,9.28007E-5,2.64325E-4
69.07918,656.5046,9.48181E-5,2.65022E-4
69.0875,656.5467,9.58268E-5,2.65733E-4
69.09582,656.5888,9.78442E-5,2.66458E-4
69.10416,656.6298,9.98616E-5,2.67198E-4
69.1125,656.6717,1.01879E-4,2.67947E-4
69.12084,656.7135,1.03896E-4,2.68706E-4
69.12916,656.7554,1.05914E-4,2.69474E-4
69.1375,656.797,1.0894E-4,2.70253E-4
69.14584,656.8386,1.10957E-4,2.71042E-4
69.15418,656.8808,1.12975E-4,2.71841E-4
69.1625,656.9219,1.14992E-4,2.72651E-4
69.17082,656.9641,1.1701E-4,2.7347E-4
69.17918,657.005,1.19027E-4,2.74299E-4
69.1875,657.0472,1.21044E-4,2.75139E-4
69.19582,657.0878,1.23062E-4,2.7599E-4
69.20418,657.1302,1.26088E-4,2.76851E-4
69.2125,657.1715,1.27097E-4,2.77724E-4
69.22082,657.2135,1.30123E-4,2.78608E-4
69.22916,657.255,1.33149E-4,2.79503E-4
69.2375,657.2974,1.35166E-4,2.80409E-4
69.24584,657.3388,1.37184E-4,2.81327E-4
69.25416,657.3802,1.4021E-4,2.82256E-4
69.2625,657.4216,1.42227E-4,2.83196E-4
69.27084,657.4632,1.45253E-4,2.84148E-4
69.27918,657.5049,1.47271E-4,2.85112E-4
69.2875,657.5468,1.49288E-4,2.86088E-4
69.29582,657.5882,1.51305E-4,2.87075E-4
69.30418,657.6294,1.54332E-4,2.88073E-4
69.3125,657.6718,1.57358E-4,2.89082E-4
69.32082,657.7132,1.59375E-4,2.90101E-4
69.32918,657.7546,1.62401E-4,2.9113E-4
69.3375,657.7965,1.64419E-4,2.92168E-4
69.34582,657.8384,1.66436E-4,2.93215E-4
69.35416,657.8798,1.68453E-4,2.9427E-4
69.3625,657.9224,1.71479E-4,2.95333E-4
69.37084,657.964,1.73497E-4,2.96404E-4
69.37916,658.0048,1.75514E-4,2.97482E-4
69.3875,658.046,1.7854E-4,2.98568E-4
69.39584,658.088,1.81567E-4,2.99663E-4
69.40418,658.1292,1.83584E-4,3.00767E-4
69.4125,658.1715,1.8661E-4,3.01878E-4
69.42082,658.2134,1.89636E-4,3.02996E-4
69.42918,658.255,1.92662E-4,3.0412E-4
69.4375,658.2966,1.9468E-4,3.05251E-4
69.44582,658.3384,1.97706E-4,3.06389E-4
69.45418,658.38,1.99723E-4,3.07532E-4
69.4625,658.4213,2.01741E-4,3.08681E-4
69.47082,658.463,2.04767E-4,3.09835E-4
69.47916,658.5043,2.06784E-4,3.10995E-4
69.4875,658.546,2.0981E-4,3.12159E-4
69.49584,658.5871,2.12836E-4,3.13328E-4
69.50416,658.63,2.14854E-4,3.14501E-4
69.5125,658.6714,2.1788E-4,3.15679E-4
69.52084,658.7136,2.19897E-4,3.16861E-4
69.52918,658.7552,2.22923E-4,3.18047E-4
69.5375,658.7969,2.25949E-4,3.19237E-4
69.54582,658.8381,2.27967E-4,3.20432E-4
69.55418,658.8791,2.32002E-4,3.21629E-4
69.5625,658.9217,2.34019E-4,3.22829E-4
69.57082,658.9625,2.37045E-4,3.24033E-4
69.57918,659.0045,2.39063E-4,3.25239E-4
69.5875,659.0459,2.42089E-4,3.26447E-4
69.59582,659.088,2.45115E-4,3.27659E-4
69.60416,659.1295,2.48141E-4,3.28873E-4
69.6125,659.1706,2.50158E-4,3.3009E-4
69.62084,659.2131,2.53184E-4,3.3131E-4
69.62916,659.2546,2.56211E-4,3.32533E-4
69.6375,659.296,2.58228E-4,3.33758E-4
69.64584,659.3382,2.61254E-4,3.34986E-4
69.65418,659.3798,2.6428E-4,3.36217E-4
69.6625,659.421,2.66298E-4,3.3745E-4
69.67082,659.4618,2.69324E-4,3.38686E-4
69.67918,659.5044,2.71341E-4,3.39925E-4
69.6875,659.5458,2.74367E-4,3.41167E-4
69.69582,659.5881,2.76385E-4,3.4241E-4
69.70418,659.6296,2.79411E-4,3.43656E-4
69.7125,659.6706,2.83445E-4,3.44904E-4
69.72082,659.7132,2.85463E-4,3.46155E-4
69.72916,659.7544,2.88489E-4,3.47409E-4
69.7375,659.7959,2.91515E-4,3.48668E-4
69.74584,659.838,2.94541E-4,3.4993E-4
69.75416,659.8791,2.97567E-4,3.51196E-4
69.7625,659.9214,3.00593E-4,3.52465E-4
69.77084,659.9626,3.0362E-4,3.53739E-4
69.77918,660.0041,3.06646E-4,3.55018E-4
69.7875,660.046,3.1068E-4,3.56303E-4
69.79582,660.087,3.13707E-4,3.57595E-4
69.80418,660.1283,3.15724E-4,3.58892E-4
69.8125,660.1703,3.1875E-4,3.60195E-4
69.82082,660.2122,3.21776E-4,3.61503E-4
69.82918,660.2537,3.24802E-4,3.62817E-4
69.8375,660.2956,3.27828E-4,3.64136E-4
69.84582,660.337,3.29846E-4,3.65461E-4
69.85416,660.3794,3.32872E-4,3.66792E-4
69.8625,660.4211,3.35898E-4,3.68129E-4
69.87084,660.4626,3.39933E-4,3.69472E-4
69.87916,660.504,3.42959E-4,3.70821E-4
69.8875,660.5456,3.45985E-4,3.72177E-4
69.89584,660.5879,3.49011E-4,3.73541E-4
69.90418,660.6284,3.52037E-4,3.74912E-4
69.9125,660.6705,3.55063E-4,3.7629E-4
69.92082,660.712,3.5809E-4,3.77674E-4
69.92918,660.7535,3.61116E-4,3.79065E-4
69.9375,660.7946,3.64142E-4,3.80463E-4
69.94582,660.8356,3.67168E-4,3.81867E-4
69.95418,660.8782,3.71203E-4,3.83279E-4
69.9625,660.9199,3.74229E-4,3.84698E-4
69.97082,660.9617,3.77255E-4,3.86124E-4
69.97916,661.0034,3.80281E-4,3.87558E-4
69.9875,661.0456,3.83307E-4,3.88999E-4
69.99584,661.0868,3.86333E-4,3.90448E-4
70.00416,661.1286,3.90368E-4,3.91904E-4
70.0125,661.1704,3.93394E-4,3.93367E-4
70.02084,661.2124,3.9642E-4,3.94837E-4
70.02918,661.2534,3.99446E-4,3.96314E-4
70.0375,661.2959,4.02472E-4,3.97798E-4
70.04582,661.3368,4.05499E-4,3.99289E-4
70.05418,661.3778,4.09533E-4,4.00785E-4
70.0625,661.4192,4.12559E-4,4.02288E-4
70.07082,661.4612,4.15586E-4,4.03797E-4
70.07918,661.503,4.18612E-4,4.05312E-4
70.0875,661.5441,4.21638E-4,4.06833E-4
70.09582,661.5861,4.25673E-4,4.0836E-4
70.10416,661.6285,4.28699E-4,4.09892E-4
70.1125,661.6703,4.31725E-4,4.1143E-4
70.12084,661.7119,4.34751E-4,4.12975E-4
70.12916,661.7541,4.37777E-4,4.14527E-4
70.1375,661.7953,4.41812E-4,4.16085E-4
70.14584,661.837,4.45847E-4,4.17648E-4
70.15418,661.8785,4.48873E-4,4.19217E-4
70.1625,661.9194,4.52908E-4,4.20792E-4
70.17082,661.9617,4.55934E-4,4.22372E-4
70.17918,662.0031,4.5896E-4,4.23958E-4
70.1875,662.0448,4.62995E-4,4.2555E-4
70.19582,662.0859,4.67029E-4,4.27146E-4
70.20418,662.1282,4.70056E-4,4.28747E-4
70.2125,662.1688,4.7409E-4,4.30352E-4
70.22082,662.2109,4.77116E-4,4.31962E-4
70.22916,662.2529,4.80143E-4,4.33575E-4
70.2375,662.2944,4.83169E-4,4.35194E-4
70.24584,662.3366,4.87203E-4,4.36817E-4
70.25416,662.378,4.9023E-4,4.38445E-4
70.2625,662.42,4.94264E-4,4.40079E-4
70.27084,662.4616,4.97291E-4,4.41719E-4
70.27918,662.5033,5.01325E-4,4.43364E-4
70.2875,662.5453,5.04351E-4,4.45014E-4
70.29582,662.5863,5.08386E-4,4.4667E-4
70.30418,662.6281,5.11412E-4,4.48332E-4
70.3125,662.6694,5.15447E-4,4.49999E-4
70.32082,662.711,5.19482E-4,4.5167E-4
70.32918,662.7522,5.23517E-4,4.53347E-4
70.3375,662.7946,5.27552E-4,4.55029E-4
70.34582,662.8354,5.30578E-4,4.56717E-4
70.35416,662.8776,5.34613E-4,4.58412E-4
70.3625,662.9185,5.38647E-4,4.60112E-4
70.37084,662.9612,5.42682E-4,4.61818E-4
70.37916,663.0032,5.46717E-4,4.6353E-4
70.3875,663.0442,5.50752E-4,4.65248E-4
70.39584,663.0862,5.53778E-4,4.66971E-4
70.40418,663.1286,5.57813E-4,4.687E-4
70.4125,663.1705,5.60839E-4,4.70436E-4
70.42082,663.2113,5.64874E-4,4.72177E-4
70.42918,663.2536,5.68908E-4,4.73925E-4
70.4375,663.2944,5.72943E-4,4.75679E-4
70.44582,663.3362,5.76978E-4,4.7744E-4
70.45418,663.3778,5.81013E-4,4.79208E-4
70.4625,663.4192,5.85048E-4,4.80982E-4
70.47082,663.4605,5.90091E-4,4.82764E-4
70.47916,663.5022,5.94126E-4,4.84553E-4
70.4875,663.5444,5.98161E-4,4.8635E-4
70.49584,663.5861,6.02196E-4,4.88153E-4
70.50416,663.6275,6.0623E-4,4.89965E-4
70.5125,663.6701,6.10265E-4,4.91784E-4
70.52084,663.711,6.15309E-4,4.9361E-4
70.52918,663.7529,6.19344E-4,4.95444E-4
70.5375,663.7942,6.23378E-4,4.97286E-4
70.54582,663.8362,6.27413E-4,4.99134E-4
70.55418,663.8783,6.31448E-4,5.00987E-4
70.5625,663.9195,6.36491E-4,5.02847E-4
70.57082,663.9614,6.39518E-4,5.04714E-4
70.57918,664.0029,6.43552E-4,5.06586E-4
70.5875,664.0444,6.47587E-4,5.08465E-4
70.59582,664.0864,6.52631E-4,5.10349E-4
70.60416,664.127,6.56666E-4,5.12238E-4
70.6125,664.169,6.607E-4,5.14133E-4
70.62084,664.2104,6.65744E-4,5.16035E-4
70.62916,664.2525,6.69779E-4,5.17944E-4
70.6375,664.2944,6.73814E-4,5.1986E-4
70.64584,664.3366,6.78857E-4,5.21782E-4
70.65418,664.3774,6.82892E-4,5.23709E-4
70.6625,664.42,6.87935E-4,5.25642E-4
70.67082,664.4613,6.9197E-4,5.27582E-4
70.67918,664.5028,6.97014E-4,5.29527E-4
70.6875,664.544,7.01048E-4,5.31477E-4
70.69582,664.5859,7.05083E-4,5.33433E-4
70.70418,664.6279,7.10127E-4,5.35393E-4
70.7125,664.6688,7.14162E-4,5.37358E-4
70.72082,664.711,7.18196E-4,5.39326E-4
70.72916,664.7527,7.2324E-4,5.41299E-4
70.7375,664.7938,7.27275E-4,5.43277E-4
70.74584,664.8355,7.32318E-4,5.45258E-4
70.75416,664.877,7.36353E-4,5.47244E-4
70.7625,664.919,7.41397E-4,5.49234E-4
70.77084,664.9598,7.45431E-4,5.51228E-4
70.77918,665.0019,7.49466E-4,5.53227E-4
70.7875,665.0441,7.5451E-4,5.5523E-4
70.79582,665.0854,7.58545E-4,5.57238E-4
70.80418,665.1279,7.63588E-4,5.5925E-4
70.8125,665.17,7.68632E-4,5.61267E-4
70.82082,665.2116,7.72666E-4,5.63288E-4
70.82918,665.2528,7.76701E-4,5.65314E-4
70.8375,665.2947,7.81745E-4,5.67344E-4
70.84582,665.336,7.86788E-4,5.69379E-4
70.85416,665.377,7.90823E-4,5.71419E-4
70.8625,665.419,7.95867E-4,5.73463E-4
70.87084,665.4594,8.0091E-4,5.75511E-4
70.87916,665.5016,8.04945E-4,5.77563E-4
70.8875,665.5433,8.09988E-4,5.79619E-4
70.89584,665.585,8.15032E-4,5.81679E-4
70.90418,665.6272,8.19067E-4,5.83744E-4
70.9125,665.669,8.2411E-4,5.85812E-4
70.92082,665.71,8.29154E-4,5.87885E-4
70.92918,665.7526,8.33189E-4,5.89962E-4
70.9375,665.7937,8.38232E-4,5.92043E-4
70.94582,665.8361,8.43276E-4,5.94129E-4
70.95418,665.8775,8.4731E-4,5.9622E-4
70.9625,665.919,8.52354E-4,5.98316E-4
70.97082,665.9604,8.56389E-4,6.00416E-4
70.97916,666.001,8.61432E-4,6.02523E-4
70.9875,666.0438,8.67484E-4,6.04636E-4
70.99584,666.0848,8.72528E-4,6.06754E-4
71.00416,666.1268,8.77571E-4,6.08878E-4
71.0125,666.1686,8.82615E-4,6.11009E-4
71.02084,666.2102,8.87659E-4,6.13148E-4
71.02918,666.2518,8.92702E-4,6.15293E-4
71.0375,666.2931,8.98754E-4,6.17445E-4
71.04582,666.3352,9.03798E-4,6.19603E-4
71.05418,666.3767,9.08841E-4,6.21767E-4
71.0625,666.419,9.13885E-4,6.23937E-4
71.07082,666.4607,9.18928E-4,6.26114E-4
71.07918,666.5022,9.22963E-4,6.28298E-4
71.0875,666.5432,9.29015E-4,6.30489E-4
71.09582,666.585,9.34059E-4,6.32686E-4
71.10416,666.6274,9.40111E-4,6.34891E-4
71.1125,666.6684,9.45155E-4,6.37102E-4
71.12084,666.7095,9.50198E-4,6.39321E-4
71.12916,666.7517,9.55242E-4,6.41547E-4
71.1375,666.7933,9.61294E-4,6.43782E-4
71.14584,666.835,9.66337E-4,6.46025E-4
71.15418,666.8768,9.71381E-4,6.48277E-4
71.1625,666.9184,9.77433E-4,6.50536E-4
71.17082,666.9594,9.82477E-4,6.52803E-4
71.17918,667.0017,9.8752E-4,6.55079E-4
71.1875,667.0437,9.93572E-4,6.57362E-4
71.19582,667.0852,9.98616E-4,6.59653E-4
71.20418,667.1268,0.001,6.61951E-4
71.2125,667.1684,0.00101,6.64256E-4
71.22082,667.2104,0.00101,6.66568E-4
71.22916,667.2524,0.00102,6.68887E-4
71.2375,667.2932,0.00103,6.71214E-4
71.24584,667.3355,0.00103,6.73548E-4
71.25416,667.377,0.00104,6.75888E-4
71.2625,667.418,0.00104,6.78236E-4
71.27084,667.46,0.00105,6.8059E-4
71.27918,667.5016,0.00106,6.82951E-4
71.2875,667.5426,0.00106,6.8532E-4
71.29582,667.5848,0.00107,6.87696E-4
71.30418,667.6267,0.00107,6.90081E-4
71.3125,667.669,0.00108,6.92474E-4
71.32082,667.7104,0.00108,6.94876E-4
71.32918,667.7526,0.00109,6.97284E-4
71.3375,667.7944,0.0011,6.99701E-4
71.34582,667.8354,0.0011,7.02127E-4
71.35416,667.8768,0.00111,7.0456E-4
71.3625,667.9179,0.00111,7.07001E-4
71.37084,667.9592,0.00112,7.09451E-4
71.37916,668.0014,0.00112,7.11908E-4
71.3875,668.043,0.00113,7.14375E-4
71.39584,668.0841,0.00114,7.1685E-4
71.40418,668.1259,0.00114,7.19335E-4
71.4125,668.1682,0.00115,7.21829E-4
71.42082,668.2106,0.00115,7.24332E-4
71.42918,668.2523,0.00116,7.26844E-4
71.4375,668.2934,0.00117,7.29363E-4
71.44582,668.3352,0.00117,7.31891E-4
71.45418,668.3765,0.00118,7.34427E-4
71.4625,668.4183,0.00118,7.36972E-4
71.47082,668.4597,0.00119,7.39527E-4
71.47916,668.5007,0.0012,7.42091E-4
71.4875,668.5426,0.0012,7.44665E-4
71.49584,668.5839,0.00121,7.47247E-4
71.50416,668.6257,0.00121,7.49839E-4
71.5125,668.668,0.00122,7.5244E-4
71.52084,668.7094,0.00123,7.5505E-4
71.52918,668.7511,0.00123,7.57669E-4
71.5375,668.793,0.00124,7.60298E-4
71.54582,668.8351,0.00124,7.62934E-4
71.55418,668.8766,0.00125,7.6558E-4
71.5625,668.9183,0.00126,7.68235E-4
71.57082,668.9598,0.00126,7.70898E-4
71.57918,669.0011,0.00127,7.73572E-4
71.5875,669.0428,0.00128,7.76256E-4
71.59582,669.0848,0.00128,7.78949E-4
71.60416,669.1262,0.00129,7.81653E-4
71.6125,669.1676,0.0013,7.84367E-4
71.62084,669.2087,0.0013,7.87091E-4
71.62916,669.251,0.00131,7.89826E-4
71.6375,669.2931,0.00132,7.92573E-4
71.64584,669.3344,0.00132,7.9533E-4
71.65418,669.3765,0.00133,7.98098E-4
71.6625,669.4176,0.00134,8.00877E-4
71.67082,669.459,0.00134,8.03668E-4
71.67918,669.5003,0.00135,8.0647E-4
71.6875,669.5428,0.00136,8.09282E-4
71.69582,669.5844,0.00136,8.12106E-4
71.70418,669.6265,0.00137,8.14939E-4
71.7125,669.668,0.00138,8.17783E-4
71.72082,669.7096,0.00138,8.20635E-4
71.72916,669.7513,0.00139,8.23498E-4
71.7375,669.7926,0.0014,8.2637E-4
71.74584,669.8348,0.00141,8.29252E-4
71.75416,669.876,0.00141,8.32144E-4
71.7625,669.9178,0.00142,8.35046E-4
71.77084,669.9596,0.00143,8.37958E-4
71.77918,670.0004,0.00143,8.4088E-4
71.7875,670.0422,0.00144,8.43812E-4
71.79582,670.085,0.00145,8.46754E-4
71.80418,670.1253,0.00145,8.49706E-4
71.8125,670.1676,0.00146,8.52668E-4
71.82082,670.2092,0.00147,8.55639E-4
71.82918,670.2508,0.00147,8.5862E-4
71.8375,670.293,0.00148,8.61609E-4
71.84582,670.3348,0.00149,8.64608E-4
71.85416,670.3769,0.00149,8.67618E-4
71.8625,670.4176,0.0015,8.70638E-4
71.87084,670.4594,0.00151,8.7367E-4
71.87916,670.501,0.00152,8.76712E-4
71.8875,670.5424,0.00152,8.79766E-4
71.89584,670.584,0.00153,8.82831E-4
71.90418,670.625,0.00154,8.85907E-4
71.9125,670.667,0.00154,8.88996E-4
71.92082,670.7086,0.00155,8.92098E-4
71.92918,670.751,0.00156,8.95214E-4
71.9375,670.7931,0.00157,8.98344E-4
71.94582,670.8348,0.00157,9.01487E-4
71.95418,670.877,0.00158,9.04645E-4
71.9625,670.9179,0.00159,9.07817E-4
71.97082,670.9597,0.0016,9.11003E-4
71.97916,671.0012,0.0016,9.14204E-4
71.9875,671.0428,0.00161,9.1742E-4
71.99584,671.0844,0.00162,9.2065E-4
72.00416,671.1262,0.00163,9.23895E-4
72.0125,671.1668,0.00163,9.27154E-4
72.02084,671.2095,0.00164,9.30428E-4
72.02918,671.2497,0.00165,9.33716E-4
72.0375,671.292,0.00166,9.3702E-4
72.04582,671.3334,0.00166,9.40339E-4
72.05418,671.3753,0.00167,9.43673E-4
72.0625,671.4172,0.00168,9.47024E-4
72.07082,671.4594,0.00169,9.5039E-4
72.07918,671.5014,0.0017,9.53772E-4
72.0875,671.5421,0.0017,9.57171E-4
72.09582,671.5841,0.00171,9.60586E-4
72.10416,671.6258,0.00172,9.64017E-4
72.1125,671.6675,0.00173,9.67466E-4
72.12084,671.7094,0.00173,9.70933E-4
72.12916,671.751,0.00174,9.74417E-4
72.1375,671.792,0.00175,9.7792E-4
72.14584,671.8334,0.00176,9.81441E-4
72.15418,671.8756,0.00177,9.84981E-4
72.1625,671.918,0.00178,9.88538E-4
72.17082,671.9597,0.00179,9.92114E-4
72.17918,672.0006,0.00179,9.95708E-4
72.1875,672.0425,0.0018,9.99322E-4
72.19582,672.0839,0.00181,0.001
72.20418,672.126,0.00182,0.00101
72.2125,672.1672,0.00183,0.00101
72.22082,672.209,0.00184,0.00101
72.22916,672.2498,0.00184,0.00102
72.2375,672.292,0.00185,0.00102
72.24584,672.3332,0.00186,0.00103
72.25416,672.3757,0.00187,0.00103
72.2625,672.4169,0.00188,0.00103
72.27084,672.4588,0.00189,0.00104
72.27918,672.5004,0.0019,0.00104
72.2875,672.5424,0.0019,0.00104
72.29582,672.5838,0.00191,0.00105
72.30418,672.6259,0.00192,0.00105
72.3125,672.6665,0.00193,0.00106
72.32082,672.709,0.00194,0.00106
72.32918,672.751,0.00195,0.00106
72.3375,672.7919,0.00196,0.00107
72.34582,672.8336,0.00197,0.00107
72.35416,672.876,0.00198,0.00108
72.3625,672.9174,0.00198,0.00108
72.37084,672.9587,0.00199,0.00108
72.37916,673.0002,0.002,0.00109
72.3875,673.0426,0.00201,0.00109
72.39584,673.0841,0.00202,0.0011
72.40418,673.125,0.00203,0.0011
72.4125,673.1667,0.00203,0.0011
72.42082,673.2094,0.00204,0.00111
72.42918,673.25,0.00205,0.00111
72.4375,673.2924,0.00206,0.00112
72.44582,673.333,0.00207,0.00112
72.45418,673.375,0.00208,0.00112
72.4625,673.4166,0.00209,0.00113
72.47082,673.4585,0.0021,0.00113
72.47916,673.5,0.00211,0.00114
72.4875,673.5416,0.00212,0.00114
72.49584,673.5833,0.00213,0.00115
72.50416,673.6249,0.00214,0.00115
72.5125,673.6666,0.00215,0.00115
72.52084,673.7084,0.00215,0.00116
72.52918,673.7497,0.00216,0.00116
72.5375,673.7915,0.00217,0.00117
72.54582,673.8341,0.00218,0.00117
72.55418,673.8755,0.00219,0.00118
72.5625,673.9166,0.0022,0.00118
72.57082,673.9582,0.00221,0.00118
72.57918,673.9993,0.00222,0.00119
72.5875,674.0409,0.00223,0.00119
72.59582,674.0832,0.00224,0.0012
72.60416,674.1245,0.00225,0.0012
72.6125,674.1662,0.00226,0.00121
72.62084,674.2083,0.00227,0.00121
72.62916,674.2497,0.00228,0.00122
72.6375,674.2914,0.00229,0.00122
72.64584,674.3338,0.0023,0.00122
72.65418,674.375,0.00231,0.00123
72.6625,674.417,0.00232,0.00123
72.67082,674.4576,0.00233,0.00124
72.67918,674.4993,0.00234,0.00124
72.6875,674.5414,0.00235,0.00125
72.69582,674.5826,0.00236,0.00125
72.70418,674.6246,0.00237,0.00126
72.7125,674.6654,0.00238,0.00126
72.72082,674.707,0.00239,0.00127
72.72916,674.7491,0.0024,0.00127
72.7375,674.7912,0.00242,0.00128
72.74584,674.833,0.00243,0.00128
72.75416,674.8748,0.00244,0.00129
72.7625,674.9168,0.00245,0.00129
72.77084,674.9585,0.00246,0.0013
72.77918,675,0.00247,0.0013
72.7875,675.0422,0.00248,0.00131
72.79582,675.083,0.00249,0.00131
72.80418,675.1249,0.0025,0.00132
72.8125,675.1657,0.00251,0.00132
72.82082,675.2078,0.00252,0.00133
72.82918,675.2488,0.00253,0.00133
72.8375,675.2904,0.00255,0.00134
72.84582,675.3322,0.00256,0.00134
72.85416,675.3739,0.00257,0.00135
72.8625,675.4168,0.00258,0.00135
72.87084,675.4582,0.00259,0.00136
72.87916,675.5,0.0026,0.00136
72.8875,675.541,0.00261,0.00137
72.89584,675.5838,0.00262,0.00137
72.90418,675.625,0.00264,0.00138
72.9125,675.6669,0.00265,0.00138
72.92082,675.7081,0.00266,0.00139
72.92918,675.7492,0.00267,0.0014
72.9375,675.7906,0.00268,0.0014
72.94582,675.832,0.00269,0.00141
72.95418,675.8739,0.00271,0.00141
72.9625,675.9155,0.00272,0.00142
72.97082,675.9574,0.00273,0.00142
72.97916,676.0002,0.00274,0.00143
72.9875,676.0418,0.00275,0.00143
72.99584,676.0832,0.00276,0.00144
73.00416,676.1249,0.00277,0.00145
73.0125,676.167,0.00279,0.00145
73.02084,676.208,0.0028,0.00146
73.02918,676.2489,0.00281,0.00146
73.0375,676.2913,0.00282,0.00147
73.04582,676.3328,0.00283,0.00147
73.05418,676.3745,0.00284,0.00148
73.0625,676.416,0.00286,0.00149
73.07082,676.457,0.00287,0.00149
73.07918,676.4987,0.00288,0.0015
73.0875,676.5414,0.00289,0.0015
73.09582,676.5828,0.00291,0.00151
73.10416,676.6244,0.00292,0.00152
73.1125,676.6662,0.00293,0.00152
73.12084,676.7078,0.00294,0.00153
73.12916,676.75,0.00296,0.00154
73.1375,676.792,0.00297,0.00154
73.14584,676.8336,0.00298,0.00155
73.15418,676.8745,0.00299,0.00155
73.1625,676.9157,0.00301,0.00156
73.17082,676.9563,0.00302,0.00157
73.17918,676.998,0.00303,0.00157
73.1875,677.04,0.00305,0.00158
73.19582,677.0825,0.00306,0.00159
73.20418,677.124,0.00307,0.00159
73.2125,677.1663,0.00309,0.0016
73.22082,677.208,0.0031,0.00161
73.22916,677.2493,0.00311,0.00161
73.2375,677.2911,0.00313,0.00162
73.24584,677.3328,0.00314,0.00163
73.25416,677.3743,0.00315,0.00163
73.2625,677.4153,0.00317,0.00164
73.27084,677.4569,0.00318,0.00165
73.27918,677.4978,0.00319,0.00165
73.2875,677.54,0.00321,0.00166
73.29582,677.5824,0.00322,0.00167
73.30418,677.6231,0.00323,0.00167
73.3125,677.665,0.00325,0.00168
73.32082,677.7074,0.00326,0.00169
73.32918,677.7489,0.00327,0.0017
73.3375,677.791,0.00329,0.0017
73.34582,677.8326,0.0033,0.00171
73.35416,677.8737,0.00332,0.00172
73.3625,677.9158,0.00333,0.00172
73.37084,677.957,0.00334,0.00173
73.37916,677.9985,0.00336,0.00174
73.3875,678.04,0.00337,0.00175
73.39584,678.0807,0.00339,0.00175
73.40418,678.1235,0.0034,0.00176
73.4125,678.1654,0.00342,0.00177
73.42082,678.208,0.00343,0.00178
73.42918,678.2495,0.00345,0.00178
73.4375,678.2904,0.00346,0.00179
73.44582,678.332,0.00348,0.0018
73.45418,678.3737,0.00349,0.00181
73.4625,678.4155,0.0035,0.00181
73.47082,678.457,0.00352,0.00182
73.47916,678.498,0.00353,0.00183
73.4875,678.5396,0.00355,0.00184
73.49584,678.5822,0.00356,0.00185
73.50416,678.6234,0.00358,0.00185
73.5125,678.6653,0.00359,0.00186
73.52084,678.707,0.00361,0.00187
73.52918,678.7488,0.00362,0.00188
73.5375,678.79,0.00364,0.00189
73.54582,678.8317,0.00365,0.00189
73.55418,678.8729,0.00367,0.0019
73.5625,678.9145,0.00369,0.00191
73.57082,678.9568,0.0037,0.00192
73.57918,678.9979,0.00372,0.00193
73.5875,679.0402,0.00373,0.00194
73.59582,679.0819,0.00375,0.00195
73.60416,679.1236,0.00376,0.00195
73.6125,679.1652,0.00378,0.00196
73.62084,679.2067,0.0038,0.00197
73.62916,679.2483,0.00381,0.00198
73.6375,679.2897,0.00383,0.00199
73.64584,679.3313,0.00385,0.002
73.65418,679.3735,0.00386,0.00201
73.6625,679.4156,0.00388,0.00201
73.67082,679.4564,0.0039,0.00202
73.67918,679.4976,0.00391,0.00203
73.6875,679.5392,0.00393,0.00204
73.69582,679.5813,0.00395,0.00205
73.70418,679.623,0.00396,0.00206
73.7125,679.665,0.00398,0.00207
73.72082,679.7062,0.004,0.00208
73.72916,679.748,0.00401,0.00209
73.7375,679.7898,0.00403,0.0021
73.74584,679.832,0.00405,0.0021
73.75416,679.8734,0.00406,0.00211
73.7625,679.9153,0.00408,0.00212
73.77084,679.9567,0.0041,0.00213
73.77918,679.9985,0.00412,0.00214
73.7875,680.0398,0.00413,0.00215
73.79582,680.081,0.00415,0.00216
73.80418,680.1226,0.00417,0.00217
73.8125,680.164,0.00419,0.00218
73.82082,680.2064,0.00421,0.00219
73.82918,680.2477,0.00422,0.0022
73.8375,680.2903,0.00424,0.00221
73.84582,680.3308,0.00426,0.00222
73.85416,680.3728,0.00428,0.00223
73.8625,680.4147,0.0043,0.00224
73.87084,680.4559,0.00432,0.00225
73.87916,680.4975,0.00433,0.00226
73.8875,680.5391,0.00435,0.00227
73.89584,680.5804,0.00437,0.00228
73.90418,680.6228,0.00439,0.00229
73.9125,680.665,0.00441,0.0023
73.92082,680.7062,0.00443,0.00231
73.92918,680.7481,0.00445,0.00232
73.9375,680.7896,0.00447,0.00233
73.94582,680.831,0.00449,0.00234
73.95418,680.8729,0.00451,0.00235
73.9625,680.9146,0.00453,0.00236
73.97082,680.9558,0.00454,0.00237
73.97916,680.997,0.00456,0.00238
73.9875,681.0385,0.00458,0.0024
73.99584,681.0806,0.0046,0.00241
74.00416,681.1215,0.00462,0.00242
74.0125,681.1631,0.00464,0.00243
74.02084,681.2062,0.00466,0.00244
74.02918,681.2474,0.00468,0.00245
74.0375,681.2895,0.0047,0.00246
74.04582,681.3322,0.00472,0.00247
74.05418,681.3726,0.00474,0.00248
74.0625,681.414,0.00476,0.0025
74.07082,681.4554,0.00478,0.00251
74.07918,681.4973,0.0048,0.00252
74.0875,681.5382,0.00483,0.00253
74.09582,681.5802,0.00485,0.00254
74.10416,681.6213,0.00487,0.00255
74.1125,681.6636,0.00489,0.00256
74.12084,681.7056,0.00491,0.00258
74.12916,681.748,0.00493,0.00259
74.1375,681.7895,0.00495,0.0026
74.14584,681.8313,0.00497,0.00261
74.15418,681.8728,0.005,0.00262
74.1625,681.9145,0.00502,0.00264
74.17082,681.9556,0.00504,0.00265
74.17918,681.9964,0.00506,0.00266
74.1875,682.0394,0.00508,0.00267
74.19582,682.0803,0.0051,0.00268
74.20418,682.122,0.00513,0.0027
74.2125,682.1638,0.00515,0.00271
74.22082,682.2053,0.00517,0.00272
74.22916,682.2475,0.00519,0.00273
74.2375,682.289,0.00521,0.00275
74.24584,682.3305,0.00524,0.00276
74.25416,682.372,0.00526,0.00277
74.2625,682.4137,0.00528,0.00278
74.27084,682.4555,0.00531,0.0028
74.27918,682.4971,0.00533,0.00281
74.2875,682.5392,0.00535,0.00282
74.29582,682.5806,0.00537,0.00284
74.30418,682.6227,0.0054,0.00285
74.3125,682.6631,0.00542,0.00286
74.32082,682.7055,0.00544,0.00287
74.32918,682.7474,0.00547,0.00289
74.3375,682.7889,0.00549,0.0029
74.34582,682.8305,0.00551,0.00291
74.35416,682.8725,0.00554,0.00293
74.3625,682.9135,0.00556,0.00294
74.37084,682.9553,0.00559,0.00296
74.37916,682.9967,0.00561,0.00297
74.3875,683.0385,0.00563,0.00298
74.39584,683.0802,0.00566,0.003
74.40418,683.1225,0.00568,0.00301
74.4125,683.1642,0.00571,0.00302
74.42082,683.2045,0.00573,0.00304
74.42918,683.2472,0.00576,0.00305
74.4375,683.2889,0.00578,0.00307
74.44582,683.3295,0.00581,0.00308
74.45418,683.3711,0.00583,0.00309
74.4625,683.4132,0.00586,0.00311
74.47082,683.4544,0.00588,0.00312
74.47916,683.4965,0.00591,0.00314
74.4875,683.5378,0.00593,0.00315
74.49584,683.5798,0.00596,0.00317
74.50416,683.622,0.00599,0.00318
74.5125,683.6639,0.00601,0.0032
74.52084,683.7045,0.00604,0.00321
74.52918,683.747,0.00607,0.00323
74.5375,683.7883,0.00609,0.00324
74.54582,683.8298,0.00612,0.00326
74.55418,683.8714,0.00615,0.00327
74.5625,683.9128,0.00617,0.00329
74.57082,683.955,0.0062,0.0033
74.57918,683.9964,0.00623,0.00332
74.5875,684.0385,0.00625,0.00333
74.59582,684.0799,0.00628,0.00335
74.60416,684.1217,0.00631,0.00337
74.6125,684.1631,0.00634,0.00338
74.62084,684.2043,0.00637,0.0034
74.62916,684.2462,0.00639,0.00341
74.6375,684.2882,0.00642,0.00343
74.64584,684.3294,0.00645,0.00345
74.65418,684.3715,0.00648,0.00346
74.6625,684.4132,0.00651,0.00348
74.67082,684.455,0.00654,0.0035
74.67918,684.4967,0.00656,0.00351
74.6875,684.5379,0.00659,0.00353
74.69582,684.5795,0.00662,0.00355
74.70418,684.6208,0.00665,0.00356
74.7125,684.6627,0.00668,0.00358
74.72082,684.7046,0.00671,0.0036
74.72916,684.7464,0.00674,0.00361
74.7375,684.7881,0.00677,0.00363
74.74584,684.8292,0.0068,0.00365
74.75416,684.8712,0.00683,0.00367
74.7625,684.9125,0.00686,0.00368
74.77084,684.9549,0.00689,0.0037
74.77918,684.996,0.00692,0.00372
74.7875,685.0376,0.00695,0.00374
74.79582,685.0798,0.00698,0.00375
74.80418,685.1206,0.00701,0.00377
74.8125,685.1629,0.00704,0.00379
74.82082,685.2039,0.00707,0.00381
74.82918,685.2464,0.00711,0.00383
74.8375,685.2884,0.00714,0.00385
74.84582,685.33,0.00717,0.00386
74.85416,685.3718,0.0072,0.00388
74.8625,685.4138,0.00723,0.0039
74.87084,685.4559,0.00726,0.00392
74.87916,685.4968,0.0073,0.00394
74.8875,685.5379,0.00733,0.00396
74.89584,685.5791,0.00736,0.00398
74.90418,685.6202,0.00739,0.004
74.9125,685.6622,0.00743,0.00402
74.92082,685.7044,0.00746,0.00404
74.92918,685.7456,0.00749,0.00406
74.9375,685.7875,0.00752,0.00408
74.94582,685.8294,0.00756,0.0041
74.95418,685.871,0.00759,0.00412
74.9625,685.9135,0.00762,0.00414
74.97082,685.9545,0.00766,0.00416
74.97916,685.9962,0.00769,0.00418
74.9875,686.038,0.00773,0.0042
74.99584,686.0795,0.00776,0.00422
75.00416,686.1206,0.0078,0.00424
75.0125,686.1618,0.00783,0.00426
75.02084,686.2049,0.00786,0.00428
75.02918,686.2456,0.0079,0.0043
75.0375,686.2875,0.00793,0.00432
75.04582,686.3287,0.00797,0.00434
75.05418,686.3703,0.00801,0.00437
75.0625,686.4119,0.00804,0.00439
75.07082,686.4536,0.00808,0.00441
75.07918,686.4954,0.00811,0.00443
75.0875,686.5378,0.00815,0.00445
75.09582,686.5786,0.00819,0.00447
75.10416,686.6214,0.00822,0.0045
75.1125,686.6632,0.00826,0.00452
75.12084,686.7044,0.00829,0.00454
75.12916,686.7465,0.00833,0.00456
75.1375,686.7872,0.00837,0.00459
75.14584,686.8292,0.00841,0.00461
75.15418,686.8696,0.00844,0.00463
75.1625,686.9112,0.00848,0.00465
75.17082,686.9535,0.00852,0.00468
75.17918,686.9949,0.00856,0.0047
75.1875,687.037,0.0086,0.00472
75.19582,687.0792,0.00863,0.00475
75.20418,687.1216,0.00867,0.00477
75.2125,687.163,0.00871,0.00479
75.22082,687.2041,0.00875,0.00482
75.22916,687.2462,0.00879,0.00484
75.2375,687.2872,0.00883,0.00486
75.24584,687.3284,0.00887,0.00489
75.25416,687.3699,0.00891,0.00491
75.2625,687.4112,0.00895,0.00494
75.27084,687.4538,0.00899,0.00496
75.27918,687.4955,0.00903,0.00498
75.2875,687.5368,0.00907,0.00501
75.29582,687.579,0.00911,0.00503
75.30418,687.6212,0.00915,0.00506
75.3125,687.6625,0.0092,0.00508
75.32082,687.7044,0.00924,0.00511
75.32918,687.7459,0.00928,0.00513
75.3375,687.7875,0.00932,0.00516
75.34582,687.8289,0.00936,0.00518
75.35416,687.8703,0.00941,0.00521
75.3625,687.9119,0.00945,0.00524
75.37084,687.9534,0.00949,0.00526
75.37916,687.995,0.00954,0.00529
75.3875,688.0366,0.00958,0.00531
75.39584,688.079,0.00962,0.00534
75.40418,688.1202,0.00967,0.00537
75.4125,688.1624,0.00971,0.00539
75.42082,688.2038,0.00976,0.00542
75.42918,688.2462,0.0098,0.00545
75.4375,688.287,0.00984,0.00547
75.44582,688.3291,0.00989,0.0055
75.45418,688.3704,0.00994,0.00553
75.4625,688.4123,0.00998,0.00555
75.47082,688.4538,0.01003,0.00558
75.47916,688.495,0.01007,0.00561
75.4875,688.5366,0.01012,0.00564
75.49584,688.5786,0.01017,0.00566
75.50416,688.6203,0.01021,0.00569
75.5125,688.6625,0.01026,0.00572
75.52084,688.7041,0.01031,0.00575
75.52918,688.7456,0.01036,0.00578
75.5375,688.7866,0.0104,0.0058
75.54582,688.8282,0.01045,0.00583
75.55418,688.87,0.0105,0.00586
75.5625,688.911,0.01055,0.00589
75.57082,688.9528,0.0106,0.00592
75.57918,688.9952,0.01065,0.00595
75.5875,689.0367,0.01069,0.00598
75.59582,689.0783,0.01074,0.00601
75.60416,689.12,0.01079,0.00604
75.6125,689.1617,0.01084,0.00607
75.62084,689.2038,0.01089,0.0061
75.62916,689.2451,0.01094,0.00613
75.6375,689.2868,0.01099,0.00616
75.64584,689.328,0.01105,0.00619
75.65418,689.3698,0.0111,0.00622
75.6625,689.4122,0.01115,0.00625
75.67082,689.4539,0.0112,0.00628
75.67918,689.4955,0.01125,0.00631
75.6875,689.5368,0.0113,0.00634
75.69582,689.5784,0.01136,0.00637
75.70418,689.6194,0.01141,0.0064
75.7125,689.6609,0.01146,0.00644
75.72082,689.7028,0.01151,0.00647
75.72916,689.7449,0.01157,0.0065
75.7375,689.786,0.01162,0.00653
75.74584,689.8276,0.01167,0.00656
75.75416,689.8702,0.01173,0.0066
75.7625,689.9114,0.01178,0.00663
75.77084,689.9526,0.01184,0.00666
75.77918,689.9947,0.01189,0.00669
75.7875,690.0361,0.01195,0.00673
75.79582,690.079,0.012,0.00676
75.80418,690.1206,0.01206,0.00679
75.8125,690.1625,0.01211,0.00683
75.82082,690.2033,0.01217,0.00686
75.82918,690.2445,0.01222,0.00689
75.8375,690.2859,0.01228,0.00693
75.84582,690.3274,0.01234,0.00696
75.85416,690.3688,0.01239,0.007
75.8625,690.411,0.01245,0.00703
75.87084,690.4526,0.01251,0.00707
75.87916,690.4946,0.01257,0.0071
75.8875,690.5367,0.01262,0.00714
75.89584,690.5778,0.01268,0.00717
75.90418,690.62,0.01274,0.00721
75.9125,690.6613,0.0128,0.00724
75.92082,690.703,0.01286,0.00728
75.92918,690.745,0.01292,0.00731
75.9375,690.7863,0.01298,0.00735
75.94582,690.8272,0.01304,0.00738
75.95418,690.8694,0.0131,0.00742
75.9625,690.9115,0.01316,0.00746
75.97082,690.9532,0.01322,0.00749
75.97916,690.995,0.01328,0.00753
75.9875,691.0369,0.01334,0.00757
75.99584,691.0778,0.0134,0.00761
76.00416,691.12,0.01346,0.00764
76.0125,691.1618,0.01353,0.00768
76.02084,691.2035,0.01359,0.00772
76.02918,691.245,0.01365,0.00776
76.0375,691.2861,0.01372,0.00779
76.04582,691.327,0.01378,0.00783
76.05418,691.3688,0.01384,0.00787
76.0625,691.411,0.01391,0.00791
76.07082,691.4533,0.01397,0.00795
76.07918,691.495,0.01404,0.00799
76.0875,691.5367,0.0141,0.00803
76.09582,691.578,0.01417,0.00807
76.10416,691.619,0.01424,0.00811
76.1125,691.6615,0.0143,0.00815
76.12084,691.7035,0.01437,0.00819
76.12916,691.7441,0.01444,0.00823
76.1375,691.7856,0.01451,0.00827
76.14584,691.8275,0.01457,0.00831
76.15418,691.8696,0.01464,0.00835
76.1625,691.9116,0.01471,0.00839
76.17082,691.9525,0.01478,0.00844
76.17918,691.9943,0.01485,0.00848
76.1875,692.0365,0.01492,0.00852
76.19582,692.0778,0.01499,0.00856
76.20418,692.1192,0.01506,0.00861
76.2125,692.1603,0.01513,0.00865
76.22082,692.2021,0.0152,0.0087
76.22916,692.2444,0.01527,0.00874
76.2375,692.2861,0.01534,0.00878
76.24584,692.3281,0.01541,0.00883
76.25416,692.37,0.01549,0.00888
76.2625,692.4108,0.01556,0.00892
76.27084,692.4533,0.01563,0.00897
76.27918,692.4936,0.01571,0.00901
76.2875,692.535,0.01578,0.00906
76.29582,692.5776,0.01585,0.00911
76.30418,692.6187,0.01593,0.00916
76.3125,692.6611,0.016,0.00921
76.32082,692.7028,0.01608,0.00925
76.32918,692.7442,0.01615,0.0093
76.3375,692.7854,0.01623,0.00935
76.34582,692.8276,0.01631,0.0094
76.35416,692.8695,0.01638,0.00946
76.3625,692.9106,0.01646,0.00951
76.37084,692.9527,0.01654,0.00956
76.37916,692.9943,0.01662,0.00961
76.3875,693.0355,0.01669,0.00967
76.39584,693.0777,0.01677,0.00972
76.40418,693.1188,0.01685,0.00977
76.4125,693.16,0.01693,0.00983
76.42082,693.2012,0.01701,0.00988
76.42918,693.2437,0.01709,0.00994
76.4375,693.2846,0.01717,0.01
76.44582,693.3262,0.01725,0.01005
76.45418,693.369,0.01734,0.01011
76.4625,693.41,0.01742,0.01017
76.47082,693.4521,0.0175,0.01023
76.47916,693.4943,0.01758,0.01029
76.4875,693.5356,0.01767,0.01035
76.49584,693.5774,0.01775,0.01041
76.50416,693.6188,0.01783,0.01048
76.5125,693.6597,0.01792,0.01054
76.52084,693.7009,0.018,0.0106
76.52918,693.7437,0.01809,0.01067
76.5375,693.7852,0.01817,0.01073
76.54582,693.827,0.01826,0.0108
76.55418,693.8682,0.01835,0.01086
76.5625,693.91,0.01843,0.01093
76.57082,693.9517,0.01852,0.011
76.57918,693.9933,0.01861,0.01107
76.5875,694.0358,0.0187,0.01114
76.59582,694.0762,0.01879,0.01121
76.60416,694.1178,0.01887,0.01128
76.6125,694.1594,0.01896,0.01135
76.62084,694.2021,0.01905,0.01142
76.62916,694.243,0.01914,0.0115
76.6375,694.2851,0.01923,0.01157
76.64584,694.3262,0.01933,0.01164
76.65418,694.3674,0.01942,0.01172
76.6625,694.4094,0.01951,0.0118
76.67082,694.4514,0.0196,0.01187
76.67918,694.493,0.0197,0.01195
76.6875,694.5344,0.01979,0.01203
76.69582,694.5756,0.01988,0.01211
76.70418,694.6178,0.01998,0.01219
76.7125,694.6594,0.02007,0.01227
76.72082,694.7011,0.02017,0.01235
76.72916,694.743,0.02026,0.01243
76.7375,694.7847,0.02036,0.01251
76.74584,694.8258,0.02046,0.0126
76.75416,694.8681,0.02055,0.01268
76.7625,694.9094,0.02065,0.01277
76.77084,694.9504,0.02075,0.01285
76.77918,694.993,0.02085,0.01294
76.7875,695.0342,0.02095,0.01303
76.79582,695.0762,0.02105,0.01311
76.80418,695.1174,0.02115,0.0132
76.8125,695.1589,0.02125,0.01329
76.82082,695.2004,0.02135,0.01338
76.82918,695.2426,0.02145,0.01347
76.8375,695.2846,0.02156,0.01356
76.84582,695.3254,0.02166,0.01365
76.85416,695.3675,0.02176,0.01375
76.8625,695.4094,0.02187,0.01384
76.87084,695.4502,0.02197,0.01393
76.87916,695.492,0.02208,0.01403
76.8875,695.5336,0.02219,0.01412
76.89584,695.5754,0.0223,0.01422
76.90418,695.6164,0.0224,0.01431
76.9125,695.659,0.02251,0.01441
76.92082,695.7004,0.02263,0.01451
76.92918,695.743,0.02274,0.0146
76.9375,695.7848,0.02285,0.0147
76.94582,695.8269,0.02297,0.0148
76.95418,695.8678,0.02309,0.0149
76.9625,695.9092,0.02321,0.015
76.97082,695.95,0.02333,0.0151
76.97916,695.9924,0.02345,0.0152
76.9875,696.033,0.02358,0.01531
76.99584,696.075,0.0237,0.01541
77.00416,696.117,0.02382,0.01551
77.0125,696.1584,0.02395,0.01562
77.02084,696.2008,0.02408,0.01572
77.02918,696.242,0.0242,0.01582
77.0375,696.284,0.02433,0.01593
77.04582,696.3247,0.02446,0.01604
77.05418,696.3672,0.02459,0.01614
77.0625,696.409,0.02472,0.01625
77.07082,696.4504,0.02486,0.01636
77.07918,696.4918,0.025,0.01647
77.0875,696.5334,0.02514,0.01657
77.09582,696.5746,0.02529,0.01668
77.10416,696.6166,0.02543,0.01679
77.1125,696.659,0.02556,0.0169
77.12084,696.7002,0.0257,0.01701
77.12916,696.7416,0.02585,0.01712
77.1375,696.7836,0.026,0.01723
77.14584,696.826,0.02615,0.01735
77.15418,696.8676,0.02629,0.01746
77.1625,696.9084,0.02643,0.01757
77.17082,696.95,0.02659,0.01768
77.17918,696.9908,0.02674,0.0178
77.1875,697.0332,0.02689,0.01791
77.19582,697.0746,0.02704,0.01803
77.20418,697.1174,0.02719,0.01814
77.2125,697.1586,0.02734,0.01826
77.22082,697.2004,0.0275,0.01837
77.22916,697.2424,0.02765,0.01849
77.2375,697.2836,0.02781,0.0186
77.24584,697.3254,0.02796,0.01872
77.25416,697.367,0.02812,0.01884
77.2625,697.4091,0.02828,0.01896
77.27084,697.4502,0.02844,0.01907
77.27918,697.4913,0.0286,0.01919
77.2875,697.5329,0.02876,0.01931
77.29582,697.575,0.02892,0.01943
77.30418,697.6164,0.02908,0.01955
77.3125,697.658,0.02924,0.01967
77.32082,697.7002,0.02941,0.01979
77.32918,697.7416,0.02958,0.01991
77.3375,697.7838,0.02974,0.02003
77.34582,697.8261,0.0299,0.02015
77.35416,697.867,0.03007,0.02027
77.3625,697.9084,0.03024,0.02039
77.37084,697.9506,0.03041,0.02051
77.37916,697.9914,0.03058,0.02064
77.3875,698.0334,0.03075,0.02076
77.39584,698.0742,0.03093,0.02088
77.40418,698.116,0.0311,0.021
77.4125,698.1579,0.03127,0.02113
77.42082,698.2004,0.03145,0.02125
77.42918,698.2414,0.03162,0.02138
77.4375,698.2832,0.0318,0.0215
77.44582,698.3248,0.03198,0.02163
77.45418,698.3668,0.03216,0.02175
77.4625,698.4081,0.03235,0.02188
77.47082,698.4506,0.03253,0.022
77.47916,698.492,0.03272,0.02213
77.4875,698.5332,0.0329,0.02226
77.49584,698.5754,0.03309,0.02238
77.50416,698.616,0.03328,0.02251
77.5125,698.6581,0.03348,0.02264
77.52084,698.7,0.03366,0.02277
77.52918,698.741,0.03385,0.0229
77.5375,698.7834,0.03405,0.02303
77.54582,698.8248,0.03424,0.02316
77.55418,698.8668,0.03443,0.02329
77.5625,698.9081,0.03462,0.02342
77.57082,698.9493,0.03481,0.02355
77.57918,698.9912,0.03501,0.02369
77.5875,699.0326,0.03521,0.02382
77.59582,699.0747,0.0354,0.02395
77.60416,699.1164,0.03559,0.02409
77.6125,699.157,0.03579,0.02422
77.62084,699.2002,0.036,0.02436
77.62916,699.2416,0.03619,0.0245
77.6375,699.2831,0.03638,0.02463
77.64584,699.3243,0.03659,0.02477
77.65418,699.3658,0.03679,0.02491
77.6625,699.4076,0.037,0.02505
77.67082,699.4488,0.03721,0.02519
77.67918,699.4904,0.03741,0.02533
77.6875,699.5319,0.03761,0.02547
77.69582,699.5744,0.03782,0.02562
77.70418,699.6161,0.03803,0.02576
77.7125,699.6578,0.03824,0.0259
77.72082,699.6984,0.03845,0.02605
77.72916,699.7408,0.03867,0.0262
77.7375,699.782,0.03889,0.02634
77.74584,699.8244,0.0391,0.02649
77.75416,699.8658,0.03931,0.02664
77.7625,699.9079,0.03953,0.02679
77.77084,699.9488,0.03974,0.02694
77.77918,699.9908,0.03996,0.02709
77.7875,700.032,0.04018,0.02724
77.79582,700.0741,0.04039,0.02739
77.80418,700.1156,0.04062,0.02755
77.8125,700.158,0.04084,0.0277
77.82082,700.1993,0.04106,0.02786
77.82918,700.2404,0.04128,0.02802
77.8375,700.2818,0.04151,0.02817
77.84582,700.3244,0.04175,0.02833
77.85416,700.3654,0.04197,0.02849
77.8625,700.4071,0.0422,0.02865
77.87084,700.4484,0.04243,0.02881
77.87916,700.4906,0.04266,0.02898
77.8875,700.5322,0.04289,0.02914
77.89584,700.574,0.04313,0.0293
77.90418,700.6156,0.04336,0.02947
77.9125,700.6571,0.0436,0.02964
77.92082,700.6986,0.04384,0.0298
77.92918,700.74,0.04408,0.02997
77.9375,700.7828,0.04432,0.03014
77.94582,700.824,0.04456,0.03031
77.95418,700.8666,0.0448,0.03048
77.9625,700.9078,0.04505,0.03065
77.97082,700.9494,0.04528,0.03082
77.97916,700.991,0.04553,0.031
77.9875,701.033,0.04578,0.03117
77.99584,701.0737,0.04602,0.03134
78.00416,701.115,0.04628,0.03152
78.0125,701.157,0.04653,0.0317
78.02084,701.1986,0.04678,0.03187
78.02918,701.2406,0.04703,0.03205
78.0375,701.282,0.0473,0.03223
78.04582,701.323,0.04756,0.03241
78.05418,701.3653,0.04783,0.03259
78.0625,701.4069,0.04809,0.03277
78.07082,701.4488,0.04835,0.03295
78.07918,701.4902,0.04862,0.03313
78.0875,701.532,0.04888,0.03332
78.09582,701.574,0.04916,0.0335
78.10416,701.6161,0.04943,0.03369
78.1125,701.6571,0.04969,0.03387
78.12084,701.699,0.04997,0.03406
78.12916,701.7403,0.05024,0.03425
78.1375,701.7834,0.05052,0.03443
78.14584,701.8235,0.0508,0.03462
78.15418,701.8658,0.05109,0.03481
78.1625,701.9072,0.05138,0.035
78.17082,701.9484,0.05166,0.03519
78.17918,701.9902,0.05194,0.03538
78.1875,702.0322,0.05222,0.03557
78.19582,702.0741,0.05251,0.03577
78.20418,702.1158,0.05281,0.03596
78.2125,702.1574,0.05311,0.03615
78.22082,702.199,0.0534,0.03635
78.22916,702.2411,0.05369,0.03654
78.2375,702.2824,0.05399,0.03674
78.24584,702.3235,0.0543,0.03694
78.25416,702.3653,0.0546,0.03713
78.2625,702.4072,0.05491,0.03733
78.27084,702.4493,0.05523,0.03753
78.27918,702.4914,0.05554,0.03773
78.2875,702.533,0.05586,0.03793
78.29582,702.574,0.05617,0.03813
78.30418,702.6154,0.05649,0.03833
78.3125,702.6575,0.05681,0.03853
78.32082,702.6992,0.05714,0.03874
78.32918,702.74,0.05747,0.03894
78.3375,702.7824,0.05779,0.03914
78.34582,702.824,0.05812,0.03935
78.35416,702.8656,0.05846,0.03955
78.3625,702.9081,0.0588,0.03976
78.37084,702.9493,0.05914,0.03996
78.37916,702.9904,0.05948,0.04017
78.3875,703.0328,0.05983,0.04038
78.39584,703.0742,0.06018,0.04058
78.40418,703.116,0.06053,0.04079
78.4125,703.1579,0.06087,0.041
78.42082,703.1998,0.06122,0.04121
78.42918,703.2414,0.06157,0.04142
78.4375,703.2832,0.06192,0.04163
78.44582,703.3237,0.06227,0.04184
78.45418,703.3656,0.06261,0.04205
78.4625,703.407,0.06297,0.04226
78.47082,703.4486,0.06332,0.04248
78.47916,703.4913,0.06368,0.04269
78.4875,703.5322,0.06403,0.0429
78.49584,703.574,0.06439,0.04312
78.50416,703.6152,0.06476,0.04333
78.5125,703.6582,0.06512,0.04354
78.52084,703.6981,0.0655,0.04376
78.52918,703.7408,0.06587,0.04397
78.5375,703.7832,0.06622,0.04419
78.54582,703.8239,0.06659,0.04441
78.55418,703.866,0.06696,0.04462
78.5625,703.9076,0.06733,0.04484
78.57082,703.9486,0.06771,0.04506
78.57918,703.99,0.06808,0.04528
78.5875,704.0316,0.06845,0.04549
78.59582,704.0734,0.06883,0.04571
78.60416,704.115,0.0692,0.04593
78.6125,704.1562,0.06959,0.04615
78.62084,704.1974,0.06998,0.04637
78.62916,704.2404,0.07036,0.04659
78.6375,704.2814,0.07075,0.04682
78.64584,704.3228,0.07115,0.04704
78.65418,704.3652,0.07153,0.04726
78.6625,704.4056,0.07192,0.04748
78.67082,704.448,0.07231,0.04771
78.67918,704.49,0.07271,0.04793
78.6875,704.5313,0.0731,0.04815
78.69582,704.5733,0.07349,0.04838
78.70418,704.6152,0.07389,0.0486
78.7125,704.656,0.07429,0.04883
78.72082,704.6968,0.0747,0.04905
78.72916,704.7388,0.0751,0.04928
78.7375,704.7806,0.0755,0.04951
78.74584,704.8227,0.07591,0.04973
78.75416,704.8636,0.07633,0.04996
78.7625,704.9057,0.07675,0.05019
78.77084,704.9474,0.07716,0.05042
78.77918,704.9892,0.07757,0.05065
78.7875,705.0312,0.07799,0.05088
78.79582,705.0722,0.07841,0.05111
78.80418,705.1144,0.07883,0.05134
78.8125,705.1554,0.07925,0.05158
78.82082,705.1967,0.07967,0.05181
78.82918,705.2388,0.08009,0.05204
78.8375,705.2797,0.08053,0.05228
78.84582,705.322,0.08096,0.05251
78.85416,705.364,0.0814,0.05275
78.8625,705.4062,0.08183,0.05299
78.87084,705.4476,0.08227,0.05323
78.87916,705.4893,0.0827,0.05346
78.8875,705.5306,0.08314,0.0537
78.89584,705.5716,0.08359,0.05395
78.90418,705.6133,0.08404,0.05419
78.9125,705.6553,0.08448,0.05443
78.92082,705.6966,0.08492,0.05467
78.92918,705.7388,0.08538,0.05492
78.9375,705.7806,0.08583,0.05516
78.94582,705.8226,0.08628,0.05541
78.95418,705.8639,0.08673,0.05566
78.9625,705.905,0.08718,0.05591
78.97082,705.9472,0.08764,0.05616
78.97916,705.989,0.0881,0.05641
78.9875,706.0303,0.08858,0.05666
78.99584,706.0716,0.08905,0.05691
79.00416,706.1129,0.08951,0.05717
79.0125,706.1545,0.08999,0.05742
79.02084,706.1962,0.09046,0.05768
79.02918,706.2379,0.09093,0.05793
79.0375,706.28,0.09139,0.05819
79.04582,706.3216,0.09187,0.05845
79.05418,706.3635,0.09234,0.05871
79.0625,706.4052,0.09283,0.05898
79.07082,706.4467,0.09332,0.05924
79.07918,706.4884,0.09381,0.0595
79.0875,706.5303,0.0943,0.05977
79.09582,706.5716,0.09479,0.06004
79.10416,706.6128,0.09529,0.0603
79.1125,706.6544,0.09578,0.06057
79.12084,706.6956,0.09628,0.06084
79.12916,706.7386,0.09678,0.06111
79.1375,706.7796,0.09728,0.06139
79.14584,706.8214,0.09779,0.06166
79.15418,706.8635,0.09832,0.06194
79.1625,706.9047,0.09882,0.06221
79.17082,706.9458,0.09934,0.06249
79.17918,706.9872,0.09984,0.06277
79.1875,707.0295,0.10037,0.06305
79.19582,707.0715,0.10088,0.06333
79.20418,707.1124,0.10139,0.06361
79.2125,707.154,0.10191,0.0639
79.22082,707.196,0.10242,0.06418
79.22916,707.2376,0.10295,0.06447
79.2375,707.2797,0.10348,0.06475
79.24584,707.3204,0.10402,0.06504
79.25416,707.3626,0.10454,0.06533
79.2625,707.4044,0.10507,0.06562
79.27084,707.4463,0.10561,0.06591
79.27918,707.4877,0.10615,0.06621
79.2875,707.529,0.1067,0.0665
79.29582,707.5707,0.10725,0.0668
79.30418,707.6126,0.10778,0.06709
79.3125,707.6538,0.10833,0.06739
79.32082,707.6953,0.10888,0.06769
79.32918,707.7376,0.10944,0.06799
79.3375,707.7792,0.11,0.06829
79.34582,707.8209,0.11056,0.06859
79.35416,707.8621,0.11113,0.06889
79.3625,707.9041,0.1117,0.0692
79.37084,707.945,0.11227,0.0695
79.37916,707.9868,0.11283,0.06981
79.3875,708.0284,0.11341,0.07012
79.39584,708.0696,0.11398,0.07043
79.40418,708.1122,0.11456,0.07074
79.4125,708.1534,0.11516,0.07105
79.42082,708.1952,0.11575,0.07136
79.42918,708.2379,0.11634,0.07167
79.4375,708.279,0.11692,0.07199
79.44582,708.3206,0.11751,0.0723
79.45418,708.3622,0.11811,0.07262
79.4625,708.4038,0.11871,0.07294
79.47082,708.4455,0.11932,0.07325
79.47916,708.4878,0.11993,0.07357
79.4875,708.5294,0.12054,0.0739
79.49584,708.5703,0.12115,0.07422
79.50416,708.6116,0.12176,0.07454
79.5125,708.653,0.12237,0.07487
79.52084,708.6944,0.12299,0.07519
79.52918,708.7363,0.12362,0.07552
79.5375,708.7781,0.12424,0.07585
79.54582,708.8199,0.12486,0.07618
79.55418,708.8616,0.1255,0.07651
79.5625,708.9041,0.12614,0.07684
79.57082,708.9456,0.12679,0.07718
79.57918,708.9875,0.12741,0.07751
79.5875,709.0289,0.12807,0.07785
79.59582,709.0704,0.12873,0.07818
79.60416,709.1114,0.12936,0.07852
79.6125,709.153,0.13001,0.07886
79.62084,709.1952,0.13067,0.0792
79.62916,709.2362,0.13132,0.07954
79.6375,709.2781,0.13198,0.07989
79.64584,709.32,0.13264,0.08023
79.65418,709.3619,0.13331,0.08058
79.6625,709.4035,0.13397,0.08092
79.67082,709.4451,0.13465,0.08127
79.67918,709.4866,0.13533,0.08162
79.6875,709.528,0.13601,0.08197
79.69582,709.5697,0.13667,0.08232
79.70418,709.6118,0.13736,0.08267
79.7125,709.6534,0.13805,0.08303
79.72082,709.6941,0.13874,0.08338
79.72916,709.7361,0.13944,0.08374
79.7375,709.7775,0.14014,0.08409
79.74584,709.8191,0.14084,0.08445
79.75416,709.8609,0.14155,0.08481
79.7625,709.903,0.14226,0.08517
79.77084,709.9444,0.14296,0.08553
79.77918,709.9864,0.14368,0.08589
79.7875,710.0278,0.14439,0.08626
79.79582,710.0691,0.14509,0.08662
79.80418,710.1108,0.14581,0.08698
79.8125,710.152,0.14653,0.08735
79.82082,710.1939,0.14726,0.08772
79.82918,710.2358,0.14798,0.08809
79.8375,710.2773,0.1487,0.08846
79.84582,710.3192,0.14944,0.08883
79.85416,710.3607,0.15017,0.0892
79.8625,710.4024,0.1509,0.08957
79.87084,710.4434,0.15166,0.08994
79.87916,710.4859,0.15239,0.09031
79.8875,710.5272,0.15314,0.09069
79.89584,710.5688,0.1539,0.09106
79.90418,710.61,0.15464,0.09144
79.9125,710.6524,0.15538,0.09182
79.92082,710.6937,0.15617,0.0922
79.92918,710.7352,0.15693,0.09257
79.9375,710.777,0.15769,0.09295
79.94582,710.818,0.15846,0.09333
79.95418,710.8597,0.15922,0.09371
79.9625,710.9012,0.15996,0.09409
79.97082,710.9437,0.16073,0.09448
79.97916,710.9846,0.16151,0.09486
79.9875,711.0262,0.1623,0.09524
79.99584,711.0685,0.16309,0.09563
80.00416,711.11,0.16388,0.09601
80.0125,711.1517,0.16465,0.0964
80.02084,711.1934,0.16543,0.09678
80.02918,711.235,0.16624,0.09717
80.0375,711.2766,0.16705,0.09756
80.04582,711.318,0.16784,0.09794
80.05418,711.3591,0.16863,0.09833
80.0625,711.4016,0.16945,0.09872
80.07082,711.4434,0.17025,0.09911
80.07918,711.4844,0.17109,0.0995
80.0875,711.5265,0.17194,0.09989
80.09582,711.568,0.17278,0.10029
80.10416,711.6101,0.17363,0.10068
80.1125,711.652,0.17446,0.10107
80.12084,711.693,0.1753,0.10146
80.12916,711.7344,0.17616,0.10186
80.1375,711.7763,0.17701,0.10225
80.14584,711.8178,0.17786,0.10265
80.15418,711.8596,0.17869,0.10304
80.1625,711.9011,0.17953,0.10344
80.17082,711.9428,0.1804,0.10384
80.17918,711.9843,0.18125,0.10424
80.1875,712.0257,0.18212,0.10463
80.19582,712.068,0.18298,0.10503
80.20418,712.1106,0.18385,0.10543
80.2125,712.1516,0.1847,0.10583
80.22082,712.1924,0.1856,0.10623
80.22916,712.234,0.18648,0.10663
80.2375,712.2765,0.18737,0.10704
80.24584,712.3178,0.18826,0.10744
80.25416,712.3602,0.18916,0.10784
80.2625,712.401,0.19005,0.10825
80.27084,712.4428,0.19098,0.10865
80.27918,712.4843,0.19187,0.10906
80.2875,712.5254,0.19278,0.10947
80.29582,712.5676,0.1937,0.10988
80.30418,712.6097,0.19463,0.11029
80.3125,712.6516,0.19557,0.1107
80.32082,712.6936,0.19651,0.11111
80.32918,712.7338,0.19745,0.11152
80.3375,712.7754,0.19841,0.11194
80.34582,712.8174,0.19936,0.11235
80.35416,712.8586,0.20028,0.11277
80.3625,712.9009,0.20123,0.11318
80.37084,712.9424,0.20219,0.1136
80.37916,712.984,0.20312,0.11402
80.3875,713.0258,0.20407,0.11444
80.39584,713.067,0.20503,0.11487
80.40418,713.1084,0.20597,0.11529
80.4125,713.1506,0.20694,0.11572
80.42082,713.1924,0.2079,0.11615
80.42918,713.2338,0.20887,0.11657
80.4375,713.2758,0.20984,0.11701
80.44582,713.3178,0.2108,0.11744
80.45418,713.3589,0.21179,0.11787
80.4625,713.4002,0.21278,0.11831
80.47082,713.4418,0.21377,0.11874
80.47916,713.4833,0.21476,0.11918
80.4875,713.5248,0.21575,0.11962
80.49584,713.5664,0.21673,0.12006
80.50416,713.6083,0.21774,0.12051
80.5125,713.6497,0.21871,0.12095
80.52084,713.692,0.21973,0.1214
80.52918,713.7337,0.22074,0.12185
80.5375,713.775,0.22174,0.1223
80.54582,713.8168,0.22277,0.12276
80.55418,713.8582,0.22378,0.12321
80.5625,713.8997,0.22481,0.12367
80.57082,713.9412,0.22585,0.12413
80.57918,713.9832,0.22687,0.12459
80.5875,714.0248,0.22791,0.12506
80.59582,714.067,0.22894,0.12553
80.60416,714.1085,0.22998,0.126
80.6125,714.1504,0.23103,0.12647
80.62084,714.1919,0.23206,0.12695
80.62916,714.2328,0.23309,0.12742
80.6375,714.275,0.23414,0.1279
80.64584,714.3165,0.23521,0.12839
80.65418,714.3578,0.23628,0.12887
80.6625,714.3988,0.23735,0.12936
80.67082,714.4414,0.23842,0.12985
80.67918,714.4828,0.23948,0.13034
80.6875,714.5248,0.24056,0.13084
80.69582,714.566,0.24165,0.13133
80.70418,714.6084,0.24274,0.13183
80.7125,714.6503,0.24383,0.13234
80.72082,714.6916,0.24491,0.13284
80.72916,714.7332,0.24601,0.13335
80.7375,714.7744,0.24709,0.13386
80.74584,714.816,0.24819,0.13437
80.75416,714.8576,0.24928,0.13488
80.7625,714.8992,0.25038,0.1354
80.77084,714.9408,0.25148,0.13592
80.77918,714.9829,0.2526,0.13644
80.7875,715.0246,0.25373,0.13696
80.79582,715.0664,0.25485,0.13748
80.80418,715.1078,0.25598,0.138
80.8125,715.15,0.25711,0.13853
80.82082,715.1914,0.25824,0.13906
80.82918,715.2334,0.25937,0.13959
80.8375,715.2739,0.26051,0.14011
80.84582,715.3168,0.26162,0.14065
80.85416,715.3581,0.26278,0.14118
80.8625,715.3992,0.26393,0.14171
80.87084,715.4407,0.26506,0.14224
80.87916,715.4826,0.26621,0.14278
80.8875,715.5246,0.26739,0.14331
80.89584,715.5661,0.26854,0.14385
80.90418,715.6076,0.26971,0.14439
80.9125,715.6487,0.27087,0.14493
80.92082,715.6902,0.27203,0.14547
80.92918,715.7325,0.27319,0.14601
80.9375,715.7748,0.27435,0.14655
80.94582,715.8162,0.27558,0.14709
80.95418,715.8588,0.27677,0.14763
80.9625,715.8993,0.27793,0.14817
80.97082,715.9406,0.27908,0.14871
80.97916,715.9812,0.28027,0.14925
80.9875,716.0219,0.28147,0.14979
80.99584,716.0638,0.28267,0.15033
81.00416,716.1052,0.28391,0.15088
81.0125,716.1473,0.28512,0.15141
81.02084,716.1899,0.28635,0.15195
81.02918,716.2326,0.28757,0.15249
81.0375,716.2744,0.28881,0.15303
81.04582,716.3158,0.29009,0.15357
81.05418,716.3578,0.29135,0.1541
81.0625,716.3993,0.29264,0.15464
81.07082,716.4411,0.29392,0.15517
81.07918,716.4833,0.29522,0.1557
81.0875,716.5244,0.29654,0.15624
81.09582,716.5668,0.29788,0.15677
81.10416,716.6088,0.29917,0.15729
81.1125,716.6494,0.3005,0.15782
81.12084,716.6916,0.30181,0.15835
81.12916,716.7326,0.30315,0.15887
81.1375,716.7748,0.30451,0.15939
81.14584,716.8166,0.30585,0.15991
81.15418,716.8588,0.30722,0.16043
81.1625,716.9,0.30858,0.16095
81.17082,716.942,0.30993,0.16146
81.17918,716.984,0.31129,0.16198
81.1875,717.025,0.31266,0.16249
81.19582,717.0669,0.31406,0.163
81.20418,717.1097,0.31544,0.16351
81.2125,717.1497,0.31682,0.16402
81.22082,717.1914,0.31823,0.16452
81.22916,717.233,0.31964,0.16503
81.2375,717.2752,0.32103,0.16553
81.24584,717.3176,0.32245,0.16603
81.25416,717.359,0.32385,0.16654
81.2625,717.4004,0.32541,0.16704
81.27084,717.4425,0.32699,0.16754
81.27918,717.4844,0.32846,0.16804
81.2875,717.5256,0.32986,0.16854
81.29582,717.5664,0.33128,0.16903
81.30418,717.6081,0.33269,0.16953
81.3125,717.6496,0.3341,0.17002
81.32082,717.6918,0.33553,0.17051
81.32918,717.7328,0.33693,0.171
81.3375,717.7752,0.33831,0.17149
81.34582,717.8174,0.33959,0.17198
81.35416,717.8594,0.341,0.17246
81.3625,717.9008,0.34253,0.17294
81.37084,717.942,0.3441,0.17341
81.37916,717.9832,0.34564,0.17389
81.3875,718.0258,0.34719,0.17436
81.39584,718.0668,0.34876,0.17483
81.40418,718.1094,0.35041,0.17529
81.4125,718.1506,0.35198,0.17575
81.42082,718.1924,0.35353,0.17621
81.42918,718.2339,0.35505,0.17667
81.4375,718.2756,0.35657,0.17712
81.44582,718.3174,0.35811,0.17757
81.45418,718.3587,0.35965,0.17801
81.4625,718.4002,0.36121,0.17845
81.47082,718.4418,0.36278,0.17889
81.47916,718.4834,0.36428,0.17932
81.4875,718.5247,0.36579,0.17975
81.49584,718.5667,0.36737,0.18017
81.50416,718.6085,0.36896,0.18059
81.5125,718.6504,0.37059,0.18101
81.52084,718.692,0.3722,0.18142
81.52918,718.7336,0.37384,0.18182
81.5375,718.7754,0.37544,0.18222
81.54582,718.8166,0.37708,0.18261
81.55418,718.8584,0.37873,0.183
81.5625,718.8998,0.38035,0.18338
81.57082,718.9412,0.38194,0.18376
81.57918,718.984,0.38352,0.18413
81.5875,719.0253,0.38514,0.1845
81.59582,719.066,0.38674,0.18486
81.60416,719.1072,0.38824,0.18521
81.6125,719.1477,0.38968,0.18555
81.62084,719.1888,0.39109,0.18589
81.62916,719.2286,0.39246,0.18622
81.6375,719.27,0.39396,0.18655
81.64584,719.3101,0.39543,0.18686
81.65418,719.3528,0.39691,0.18717
81.6625,719.3948,0.39839,0.18748
81.67082,719.4367,0.39993,0.18777
81.67918,719.48,0.40143,0.18805
81.6875,719.5218,0.40295,0.18833
81.69582,719.5636,0.40442,0.1886
81.70418,719.6054,0.40596,0.18886
81.7125,719.6478,0.40752,0.18911
81.72082,719.689,0.40908,0.18935
81.72916,719.73,0.41063,0.18959
81.7375,719.7716,0.41226,0.18981
81.74584,719.8128,0.41384,0.19003
81.75416,719.8544,0.41544,0.19025
81.7625,719.896,0.41703,0.19045
81.77084,719.9372,0.41864,0.19065
81.77918,719.9792,0.4202,0.19085
81.7875,720.0222,0.42178,0.19103
81.79582,720.0637,0.42351,0.19121
81.80418,720.1053,0.42533,0.19138
81.8125,720.1471,0.42704,0.19155
81.82082,720.1878,0.42867,0.19171
81.82918,720.2297,0.4303,0.19186
81.8375,720.2712,0.43179,0.19201
81.84582,720.3118,0.43326,0.19215
81.85416,720.3531,0.43475,0.19229
81.8625,720.3956,0.43623,0.19242
81.87084,720.4388,0.43797,0.19254
81.87916,720.482,0.43965,0.19266
81.8875,720.5243,0.44117,0.19277
81.89584,720.5664,0.44287,0.19288
81.90418,720.6074,0.44453,0.19298
81.9125,720.65,0.44629,0.19308
81.92082,720.691,0.44789,0.19318
81.92918,720.732,0.44954,0.19327
81.9375,720.7729,0.45125,0.19335
81.94582,720.8142,0.45294,0.19344
81.95418,720.8556,0.45461,0.19351
81.9625,720.8981,0.45638,0.19359
81.97082,720.939,0.45815,0.19366
81.97916,720.981,0.45987,0.19373
81.9875,721.0233,0.46153,0.19379
81.99584,721.0642,0.46317,0.19385
82.00416,721.1063,0.46489,0.19391
82.0125,721.1478,0.46659,0.19396
82.02084,721.1888,0.46834,0.19401
82.02918,721.23,0.47009,0.19406
82.0375,721.2718,0.47186,0.19411
82.04582,721.3133,0.47376,0.19416
82.05418,721.3543,0.47547,0.1942
82.0625,721.3957,0.47721,0.19424
82.07082,721.4383,0.47896,0.19428
82.07918,721.4802,0.48063,0.19432
82.0875,721.5227,0.48226,0.19435
82.09582,721.5638,0.48407,0.19439
82.10416,721.605,0.48574,0.19442
82.1125,721.6464,0.48756,0.19445
82.12084,721.6871,0.49014,0.19448
82.12916,721.7271,0.49239,0.19451
82.1375,721.7672,0.49407,0.19453
82.14584,721.8079,0.49558,0.19456
82.15418,721.8489,0.49709,0.19458
82.1625,721.8906,0.49858,0.1946
82.17082,721.9329,0.50007,0.19461
82.17918,721.9754,0.50157,0.19463
82.1875,722.0178,0.5031,0.19464
82.19582,722.0598,0.50465,0.19465
82.20418,722.1019,0.50617,0.19465
82.2125,722.1435,0.50771,0.19465
82.22082,722.1859,0.50924,0.19465
82.22916,722.2272,0.51073,0.19465
82.2375,722.268,0.51228,0.19464
82.24584,722.3094,0.51385,0.19463
82.25416,722.3498,0.51536,0.19462
82.2625,722.3914,0.51693,0.19461
82.27084,722.4335,0.51848,0.1946
82.27918,722.4752,0.52003,0.19458
82.2875,722.5174,0.5216,0.19456
82.29582,722.5597,0.52317,0.19454
82.30418,722.6008,0.5247,0.19451
82.3125,722.6428,0.52628,0.19448
82.32082,722.6844,0.52784,0.19445
82.32918,722.7259,0.52941,0.19442
82.3375,722.7676,0.53098,0.19438
82.34582,722.8094,0.53257,0.19434
82.35416,722.8507,0.53415,0.1943
82.3625,722.8928,0.53573,0.19425
82.37084,722.9354,0.53732,0.1942
82.37916,722.9768,0.53888,0.19415
82.3875,723.019,0.54046,0.19409
82.39584,723.06,0.54203,0.19403
82.40418,723.1022,0.54364,0.19397
82.4125,723.1444,0.54523,0.1939
82.42082,723.1854,0.54682,0.19383
82.42918,723.2266,0.5484,0.19376
82.4375,723.2682,0.54999,0.19368
82.44582,723.3102,0.55159,0.1936
82.45418,723.3517,0.55316,0.19352
82.4625,723.3937,0.55472,0.19343
82.47082,723.436,0.55629,0.19334
82.47916,723.4778,0.55789,0.19325
82.4875,723.5199,0.55947,0.19315
82.49584,723.5616,0.56104,0.19305
82.50416,723.6033,0.56261,0.19294
82.5125,723.644,0.56418,0.19283
82.52084,723.685,0.56579,0.19272
82.52918,723.7276,0.5674,0.19261
82.5375,723.7692,0.56897,0.19249
82.54582,723.8103,0.57057,0.19237
82.55418,723.853,0.57218,0.19225
82.5625,723.8946,0.57376,0.19213
82.57082,723.936,0.57537,0.192
82.57918,723.9784,0.57695,0.19187
82.5875,724.0202,0.57855,0.19174
82.59582,724.0615,0.58016,0.19161
82.60416,724.1036,0.58173,0.19147
82.6125,724.1446,0.58334,0.19134
82.62084,724.1861,0.58494,0.1912
82.62916,724.2282,0.58655,0.19106
82.6375,724.27,0.58818,0.19092
82.64584,724.3115,0.58979,0.19078
82.65418,724.3532,0.59139,0.19063
82.6625,724.3954,0.59298,0.19048
82.67082,724.4366,0.5946,0.19033
82.67918,724.478,0.59623,0.19018
82.6875,724.52,0.59786,0.19002
82.69582,724.562,0.59945,0.18987
82.70418,724.6028,0.60106,0.1897
82.7125,724.6454,0.60266,0.18954
82.72082,724.6872,0.6043,0.18938
82.72916,724.729,0.60595,0.18921
82.7375,724.7698,0.60756,0.18904
82.74584,724.8109,0.60916,0.18887
82.75416,724.8534,0.61077,0.1887
82.7625,724.8944,0.61241,0.18852
82.77084,724.9358,0.614,0.18834
82.77918,724.9781,0.61561,0.18816
82.7875,725.0194,0.61719,0.18798
82.79582,725.0612,0.61882,0.1878
82.80418,725.1031,0.62044,0.18762
82.8125,725.1449,0.62204,0.18743
82.82082,725.1866,0.62366,0.18724
82.82918,725.2289,0.62527,0.18705
82.8375,725.2707,0.62689,0.18686
82.84582,725.3118,0.62849,0.18667
82.85416,725.3533,0.63009,0.18647
82.8625,725.395,0.63176,0.18627
82.87084,725.436,0.6334,0.18608
82.87916,725.4771,0.63501,0.18588
82.8875,725.5194,0.63662,0.18568
82.89584,725.5602,0.6382,0.18547
82.90418,725.6024,0.6398,0.18527
82.9125,725.6449,0.64142,0.18506
82.92082,725.6864,0.64302,0.18485
82.92918,725.7281,0.64461,0.18464
82.9375,725.7703,0.6462,0.18443
82.94582,725.8126,0.6478,0.18422
82.95418,725.8531,0.64941,0.184
82.9625,725.895,0.651,0.18379
82.97082,725.9362,0.65259,0.18357
82.97916,725.9775,0.65421,0.18335
82.9875,726.0194,0.65583,0.18312
82.99584,726.0611,0.65745,0.1829
83.00416,726.1028,0.65902,0.18267
83.0125,726.1438,0.66064,0.18244
83.02084,726.1862,0.66227,0.18221
83.02918,726.2284,0.66387,0.18197
83.0375,726.2693,0.66544,0.18174
83.04582,726.3117,0.66704,0.1815
83.05418,726.3531,0.66866,0.18126
83.0625,726.3948,0.67026,0.18101
83.07082,726.4371,0.67178,0.18077
83.07918,726.4776,0.67323,0.18052
83.0875,726.5197,0.67506,0.18027
83.09582,726.5601,0.67737,0.18002
83.10416,726.6006,0.67904,0.17976
83.1125,726.6428,0.68041,0.1795
83.12084,726.684,0.68175,0.17925
83.12916,726.7258,0.68307,0.17899
83.1375,726.7686,0.6844,0.17872
83.14584,726.8104,0.68579,0.17846
83.15418,726.852,0.68713,0.17819
83.1625,726.8942,0.68851,0.17792
83.17082,726.9359,0.68989,0.17764
83.17918,726.9772,0.69125,0.17737
83.1875,727.019,0.69261,0.17709
83.19582,727.0596,0.69396,0.17681
83.20418,727.1014,0.69534,0.17653
83.2125,727.1431,0.69676,0.17624
83.22082,727.1846,0.69817,0.17596
83.22916,727.226,0.69954,0.17567
83.2375,727.2678,0.70093,0.17538
83.24584,727.3094,0.70228,0.17509
83.25416,727.3512,0.70365,0.17479
83.2625,727.3936,0.70505,0.1745
83.27084,727.4352,0.70642,0.1742
83.27918,727.4766,0.70778,0.1739
83.2875,727.5187,0.70919,0.1736
83.29582,727.5606,0.71057,0.1733
83.30418,727.6024,0.71194,0.17299
83.3125,727.6438,0.71334,0.17269
83.32082,727.6851,0.71472,0.17238
83.32918,727.7258,0.7161,0.17207
83.3375,727.7676,0.71752,0.17176
83.34582,727.8086,0.7189,0.17145
83.35416,727.851,0.72028,0.17114
83.3625,727.8926,0.72169,0.17082
83.37084,727.9348,0.72304,0.17051
83.37916,727.9768,0.72446,0.17019
83.3875,728.0188,0.72587,0.16988
83.39584,728.0601,0.72724,0.16956
83.40418,728.1016,0.72863,0.16924
83.4125,728.143,0.73003,0.16892
83.42082,728.1848,0.73142,0.1686
83.42918,728.2266,0.73283,0.16828
83.4375,728.2682,0.73422,0.16796
83.44582,728.3088,0.73559,0.16763
83.45418,728.3516,0.73702,0.16731
83.4625,728.3929,0.73841,0.16699
83.47082,728.435,0.73977,0.16666
83.47916,728.4762,0.74118,0.16634
83.4875,728.5187,0.74258,0.16601
83.49584,728.56,0.74396,0.16568
83.50416,728.6012,0.74535,0.16536
83.5125,728.6428,0.74674,0.16503
83.52084,728.6844,0.74812,0.1647
83.52918,728.726,0.74953,0.16438
83.5375,728.7679,0.7509,0.16405
83.54582,728.8094,0.75229,0.16372
83.55418,728.8518,0.75367,0.16339
83.5625,728.8929,0.75504,0.16307
83.57082,728.934,0.75642,0.16274
83.57918,728.976,0.7578,0.16241
83.5875,729.0184,0.75918,0.16209
83.59582,729.0594,0.76056,0.16176
83.60416,729.1021,0.76193,0.16144
83.6125,729.1434,0.76331,0.16111
83.62084,729.1844,0.76466,0.16079
83.62916,729.226,0.76602,0.16046
83.6375,729.2676,0.76739,0.16014
83.64584,729.31,0.76875,0.15981
83.65418,729.351,0.77012,0.15948
83.6625,729.3924,0.77148,0.15915
83.67082,729.4347,0.77284,0.15882
83.67918,729.476,0.77419,0.15849
83.6875,729.5176,0.77554,0.15816
83.69582,729.5594,0.77687,0.15783
83.70418,729.6014,0.77823,0.1575
83.7125,729.6434,0.77957,0.15716
83.72082,729.6846,0.78091,0.15682
83.72916,729.7263,0.78225,0.15649
83.7375,729.7687,0.78359,0.15615
83.74584,729.809,0.78493,0.1558
83.75416,729.8514,0.78626,0.15546
83.7625,729.8933,0.78758,0.15511
83.77084,729.9352,0.78891,0.15476
83.77918,729.9766,0.79023,0.15441
83.7875,730.0181,0.79156,0.15406
83.79582,730.0597,0.79287,0.15371
83.80418,730.1016,0.79418,0.15335
83.8125,730.1426,0.79549,0.15299
83.82082,730.1848,0.7968,0.15262
83.82918,730.2266,0.7981,0.15226
83.8375,730.2687,0.79939,0.15189
83.84582,730.31,0.80069,0.15152
83.85416,730.3515,0.802,0.15114
83.8625,730.3926,0.80327,0.15077
83.87084,730.4344,0.80456,0.15038
83.87916,730.4756,0.80584,0.15
83.8875,730.5176,0.80713,0.14961
83.89584,730.56,0.8084,0.14922
83.90418,730.6012,0.80966,0.14883
83.9125,730.6439,0.81095,0.14843
83.92082,730.6847,0.81221,0.14803
83.92918,730.7271,0.81345,0.14763
83.9375,730.7691,0.81474,0.14722
83.94582,730.81,0.81597,0.14681
83.95418,730.8514,0.81722,0.14639
83.9625,730.8922,0.81848,0.14598
83.97082,730.9341,0.81971,0.14555
83.97916,730.9756,0.82094,0.14513
83.9875,731.0172,0.82218,0.1447
83.99584,731.0591,0.82342,0.14427
84.00416,731.1014,0.82462,0.14383
84.0125,731.1431,0.82585,0.14338
84.02084,731.1844,0.82706,0.14294
84.02918,731.2262,0.82829,0.14249
84.0375,731.2678,0.8295,0.14203
84.04582,731.3096,0.83069,0.14158
84.05418,731.3516,0.8319,0.14112
84.0625,731.3926,0.83308,0.14065
84.07082,731.4347,0.83429,0.14018
84.07918,731.4758,0.83545,0.13971
84.0875,731.5172,0.83665,0.13923
84.09582,731.5585,0.83783,0.13875
84.10416,731.6002,0.839,0.13827
84.1125,731.6426,0.84016,0.13779
84.12084,731.6842,0.84131,0.1373
84.12916,731.726,0.84249,0.1368
84.1375,731.7675,0.84365,0.13631
84.14584,731.8091,0.84478,0.13581
84.15418,731.8509,0.84594,0.13531
84.1625,731.8922,0.84708,0.1348
84.17082,731.9344,0.8482,0.13429
84.17918,731.9759,0.84934,0.13378
84.1875,732.017,0.85045,0.13327
84.19582,732.0592,0.85157,0.13275
84.20418,732.1007,0.85267,0.13224
84.2125,732.1424,0.85378,0.13171
84.22082,732.1842,0.85489,0.13119
84.22916,732.2264,0.856,0.13066
84.2375,732.2674,0.85711,0.13013
84.24584,732.3086,0.85819,0.1296
84.25416,732.3506,0.85929,0.12907
84.2625,732.3916,0.86037,0.12853
84.27084,732.4344,0.86145,0.128
84.27918,732.4758,0.86252,0.12746
84.2875,732.5176,0.86359,0.12691
84.29582,732.559,0.86467,0.12637
84.30418,732.6008,0.86573,0.12582
84.3125,732.6422,0.86678,0.12527
84.32082,732.6836,0.86782,0.12472
84.32918,732.7261,0.8689,0.12417
84.3375,732.7675,0.86992,0.12362
84.34582,732.8083,0.87097,0.12306
84.35416,732.8504,0.87201,0.12251
84.3625,732.8916,0.87303,0.12195
84.37084,732.9338,0.87405,0.12139
84.37916,732.9756,0.87507,0.12082
84.3875,733.0176,0.87607,0.12026
84.39584,733.059,0.87709,0.1197
84.40418,733.101,0.87808,0.11913
84.4125,733.1431,0.87908,0.11856
84.42082,733.184,0.88009,0.11799
84.42918,733.2261,0.88106,0.11742
84.4375,733.2661,0.88203,0.11685
84.44582,733.3085,0.88302,0.11628
84.45418,733.349,0.884,0.1157
84.4625,733.3914,0.88496,0.11513
84.47082,733.4344,0.88592,0.11455
84.47916,733.4762,0.88687,0.11398
84.4875,733.5174,0.88783,0.1134
84.49584,733.5593,0.88879,0.11282
84.50416,733.6009,0.88973,0.11224
84.5125,733.6414,0.89068,0.11166
84.52084,733.6826,0.8916,0.11108
84.52918,733.7244,0.89252,0.1105
84.5375,733.7658,0.89345,0.10991
84.54582,733.8086,0.89436,0.10933
84.55418,733.8507,0.89527,0.10874
84.5625,733.8919,0.89619,0.10816
84.57082,733.9336,0.89709,0.10757
84.57918,733.9748,0.89799,0.10699
84.5875,734.0167,0.89887,0.1064
84.59582,734.0574,0.89977,0.10581
84.60416,734.0993,0.90062,0.10523
84.6125,734.1412,0.90152,0.10464
84.62084,734.1825,0.90238,0.10405
84.62916,734.2248,0.90325,0.10346
84.6375,734.2662,0.90411,0.10287
84.64584,734.3085,0.90498,0.10229
84.65418,734.35,0.90581,0.1017
84.6625,734.3916,0.90668,0.10111
84.67082,734.4334,0.90751,0.10052
84.67918,734.474,0.90835,0.09993
84.6875,734.5156,0.90918,0.09933
84.69582,734.5576,0.90999,0.09874
84.70418,734.5992,0.91081,0.09815
84.7125,734.641,0.91163,0.09756
84.72082,734.6828,0.91244,0.09697
84.72916,734.724,0.91325,0.09638
84.7375,734.7659,0.91406,0.09579
84.74584,734.807,0.91484,0.09519
84.75416,734.8485,0.91563,0.0946
84.7625,734.8906,0.91643,0.09401
84.77084,734.9326,0.9172,0.09342
84.77918,734.9747,0.91798,0.09283
84.7875,735.0157,0.91876,0.09223
84.79582,735.0574,0.91951,0.09164
84.80418,735.0989,0.92027,0.09105
84.8125,735.141,0.92102,0.09046
84.82082,735.1816,0.92177,0.08987
84.82918,735.2234,0.92251,0.08928
84.8375,735.2652,0.92326,0.08869
84.84582,735.307,0.924,0.0881
84.85416,735.349,0.92473,0.08751
84.8625,735.3898,0.92543,0.08692
84.87084,735.4316,0.92615,0.08633
84.87916,735.4734,0.92687,0.08574
84.8875,735.5153,0.92758,0.08516
84.89584,735.5572,0.92829,0.08457
84.90418,735.5988,0.92899,0.08398
84.9125,735.6404,0.92968,0.0834
84.92082,735.6816,0.93036,0.08281
84.92918,735.7236,0.93104,0.08223
84.9375,735.7652,0.93173,0.08165
84.94582,735.8071,0.93239,0.08107
84.95418,735.8488,0.93307,0.08048
84.9625,735.8912,0.93374,0.0799
84.97082,735.9316,0.9344,0.07932
84.97916,735.974,0.93505,0.07875
84.9875,736.0152,0.9357,0.07817
84.99584,736.0562,0.93633,0.07759
85.00416,736.0981,0.93696,0.07702
85.0125,736.1387,0.93761,0.07644
85.02084,736.1812,0.93824,0.07587
85.02918,736.223,0.93887,0.0753
85.0375,736.2654,0.93948,0.07473
85.04582,736.3068,0.94008,0.07416
85.05418,736.3485,0.94069,0.07359
85.0625,736.3904,0.9413,0.07303
85.07082,736.4319,0.9419,0.07246
85.07918,736.4727,0.94248,0.0719
85.0875,736.5143,0.94309,0.07134
85.09582,736.5557,0.94368,0.07078
85.10416,736.5982,0.94425,0.07023
85.1125,736.6398,0.94482,0.06967
85.12084,736.6812,0.94539,0.06912
85.12916,736.7227,0.94597,0.06857
85.1375,736.7644,0.94653,0.06802
85.14584,736.806,0.94709,0.06747
85.15418,736.8481,0.94765,0.06693
85.1625,736.89,0.94819,0.06639
85.17082,736.9311,0.94873,0.06585
85.17918,736.9731,0.94926,0.06531
85.1875,737.0146,0.94979,0.06478
85.19582,737.0563,0.95032,0.06425
85.20418,737.0976,0.95085,0.06372
85.2125,737.1394,0.95137,0.06319
85.22082,737.1809,0.95189,0.06266
85.22916,737.2228,0.95239,0.06214
85.2375,737.2636,0.9529,0.06162
85.24584,737.3056,0.95341,0.0611
85.25416,737.3474,0.9539,0.06059
85.2625,737.3884,0.95438,0.06008
85.27084,737.4311,0.95488,0.05957
85.27918,737.4727,0.95537,0.05906
85.2875,737.5141,0.95585,0.05856
85.29582,737.5561,0.95631,0.05805
85.30418,737.5976,0.95679,0.05755
85.3125,737.6385,0.95725,0.05706
85.32082,737.6809,0.9577,0.05656
85.32918,737.722,0.95815,0.05607
85.3375,737.7644,0.95862,0.05559
85.34582,737.8056,0.95906,0.0551
85.35416,737.8472,0.9595,0.05462
85.3625,737.8894,0.95994,0.05414
85.37084,737.9301,0.96037,0.05366
85.37916,737.9722,0.9608,0.05319
85.3875,738.0136,0.96123,0.05271
85.39584,738.0555,0.96165,0.05224
85.40418,738.097,0.96206,0.05178
85.4125,738.1381,0.96247,0.05132
85.42082,738.18,0.96287,0.05086
85.42918,738.2219,0.96328,0.0504
85.4375,738.2642,0.96368,0.04994
85.44582,738.3052,0.96407,0.04949
85.45418,738.3472,0.96446,0.04904
85.4625,738.3886,0.96484,0.0486
85.47082,738.4298,0.96522,0.04815
85.47916,738.4713,0.96561,0.04771
85.4875,738.5128,0.96597,0.04727
85.49584,738.555,0.96633,0.04684
85.50416,738.5967,0.96664,0.04641
85.5125,738.6387,0.96693,0.04598
85.52084,738.6796,0.96724,0.04555
85.52918,738.7216,0.96755,0.04512
85.5375,738.7625,0.96785,0.0447
85.54582,738.8047,0.96817,0.04428
85.55418,738.8471,0.96849,0.04387
85.5625,738.8884,0.96881,0.04345
85.57082,738.9296,0.96913,0.04304
85.57918,738.9719,0.96946,0.04264
85.5875,739.0131,0.96978,0.04223
85.59582,739.055,0.9701,0.04183
85.60416,739.0966,0.97042,0.04143
85.6125,739.1381,0.97074,0.04103
85.62084,739.1792,0.97106,0.04064
85.62916,739.2206,0.97139,0.04025
85.6375,739.2624,0.9717,0.03986
85.64584,739.3042,0.97201,0.03947
85.65418,739.3463,0.97232,0.03909
85.6625,739.3887,0.97263,0.03871
85.67082,739.4296,0.97293,0.03833
85.67918,739.472,0.97325,0.03796
85.6875,739.5137,0.97355,0.03759
85.69582,739.5544,0.97384,0.03722
85.70418,739.5964,0.97414,0.03685
85.7125,739.6374,0.97443,0.03649
85.72082,739.6793,0.97473,0.03613
85.72916,739.7213,0.97501,0.03577
85.7375,739.7628,0.9753,0.03542
85.74584,739.8042,0.97559,0.03507
85.75416,739.8458,0.97587,0.03472
85.7625,739.8882,0.97615,0.03437
85.77084,739.9296,0.97643,0.03403
85.77918,739.9709,0.97669,0.03369
85.7875,740.0128,0.97695,0.03335
85.79582,740.0554,0.97723,0.03302
85.80418,740.0956,0.9775,0.03269
85.8125,740.1379,0.97776,0.03236
85.82082,740.1792,0.97802,0.03203
85.82918,740.2214,0.97828,0.03171
85.8375,740.2628,0.97853,0.03139
85.84582,740.3038,0.97879,0.03107
85.85416,740.3454,0.97904,0.03075
85.8625,740.3878,0.97929,0.03044
85.87084,740.4285,0.97954,0.03013
85.87916,740.4706,0.97978,0.02983
85.8875,740.5127,0.98002,0.02952
85.89584,740.5542,0.98026,0.02922
85.90418,740.5966,0.9805,0.02892
85.9125,740.6382,0.98073,0.02863
85.92082,740.6796,0.98095,0.02834
85.92918,740.721,0.98118,0.02805
85.9375,740.7628,0.98141,0.02776
85.94582,740.8036,0.98163,0.02748
85.95418,740.8458,0.98184,0.0272
85.9625,740.8861,0.98207,0.02692
85.97082,740.9278,0.98228,0.02664
85.97916,740.9696,0.98249,0.02637
85.9875,741.0115,0.98271,0.0261
85.99584,741.0539,0.98291,0.02583
86.00416,741.0963,0.98312,0.02557
86.0125,741.1374,0.98333,0.0253
86.02084,741.1794,0.98353,0.02504
86.02918,741.2211,0.98373,0.02478
86.0375,741.262,0.98393,0.02453
86.04582,741.3033,0.98412,0.02428
86.05418,741.3452,0.98432,0.02403
86.0625,741.3866,0.9845,0.02378
86.07082,741.4272,0.98469,0.02353
86.07918,741.4696,0.98488,0.02329
86.0875,741.5109,0.98506,0.02305
86.09582,741.553,0.98524,0.02281
86.10416,741.5944,0.98542,0.02257
86.1125,741.6366,0.98559,0.02234
86.12084,741.6787,0.98578,0.02211
86.12916,741.72,0.98594,0.02188
86.1375,741.7619,0.98611,0.02165
86.14584,741.8032,0.98628,0.02142
86.15418,741.8451,0.98645,0.0212
86.1625,741.8855,0.98661,0.02098
86.17082,741.9264,0.98678,0.02076
86.17918,741.9682,0.98694,0.02054
86.1875,742.01,0.9871,0.02033
86.19582,742.0522,0.98725,0.02012
86.20418,742.094,0.98739,0.01991
86.2125,742.136,0.98754,0.0197
86.22082,742.1775,0.98769,0.0195
86.22916,742.2188,0.98784,0.01929
86.2375,742.2603,0.98798,0.01909
86.24584,742.3025,0.98812,0.01889
86.25416,742.3438,0.98826,0.01869
86.2625,742.3859,0.98839,0.0185
86.27084,742.4274,0.98853,0.0183
86.27918,742.4688,0.98867,0.01811
86.2875,742.5094,0.9888,0.01792
86.29582,742.5517,0.98894,0.01774
86.30418,742.5928,0.98907,0.01755
86.3125,742.635,0.98919,0.01737
86.32082,742.6762,0.98931,0.01719
86.32918,742.7186,0.98944,0.01701
86.3375,742.7598,0.98955,0.01683
86.34582,742.8017,0.98967,0.01665
86.35416,742.8429,0.98979,0.01648
86.3625,742.8843,0.98991,0.01631
86.37084,742.9259,0.99002,0.01613
86.37916,742.9678,0.99014,0.01597
86.3875,743.0097,0.99025,0.0158
86.39584,743.0504,0.99035,0.01563
86.40418,743.0932,0.99046,0.01547
86.4125,743.1352,0.99057,0.01531
86.42082,743.177,0.99068,0.01515
86.42918,743.2184,0.99078,0.01499
86.4375,743.2598,0.99088,0.01483
86.44582,743.3007,0.99098,0.01468
86.45418,743.343,0.99108,0.01453
86.4625,743.3844,0.99117,0.01438
86.47082,743.4254,0.99127,0.01423
86.47916,743.4665,0.99136,0.01408
86.4875,743.5086,0.99145,0.01393
86.49584,743.5507,0.99154,0.01379
86.50416,743.593,0.99163,0.01365
86.5125,743.634,0.99172,0.01351
86.52084,743.6764,0.99182,0.01337
86.52918,743.7181,0.99191,0.01323
86.5375,743.759,0.992,0.01309
86.54582,743.8,0.99209,0.01296
86.55418,743.8424,0.99219,0.01283
86.5625,743.8836,0.99228,0.0127
86.57082,743.926,0.99237,0.01257
86.57918,743.9667,0.99247,0.01244
86.5875,744.0081,0.99256,0.01231
86.59582,744.0507,0.99265,0.01219
86.60416,744.0916,0.99275,0.01207
86.6125,744.1336,0.99284,0.01194
86.62084,744.1752,0.99293,0.01182
86.62916,744.2168,0.99303,0.01171
86.6375,744.2584,0.99312,0.01159
86.64584,744.3008,0.99321,0.01147
86.65418,744.3418,0.9933,0.01136
86.6625,744.3836,0.99339,0.01124
86.67082,744.4254,0.99349,0.01113
86.67918,744.467,0.99358,0.01102
86.6875,744.5082,0.99367,0.01091
86.69582,744.55,0.99376,0.01081
86.70418,744.5914,0.99385,0.0107
86.7125,744.6328,0.99394,0.01059
86.72082,744.6747,0.99402,0.01049
86.72916,744.7175,0.99411,0.01039
86.7375,744.7585,0.9942,0.01028
86.74584,744.8,0.99429,0.01018
86.75416,744.8422,0.99437,0.01008
86.7625,744.884,0.99446,0.00999
86.77084,744.9248,0.99454,0.00989
86.77918,744.9667,0.99463,0.00979
86.7875,745.0084,0.99471,0.0097
86.79582,745.0496,0.99479,0.0096
86.80418,745.0912,0.99487,0.00951
86.8125,745.1336,0.99496,0.00942
86.82082,745.175,0.99504,0.00932
86.82918,745.217,0.99512,0.00923
86.8375,745.2594,0.99519,0.00914
86.84582,745.3007,0.99527,0.00905
86.85416,745.3424,0.99535,0.00897
86.8625,745.3837,0.99543,0.00888
86.87084,745.4247,0.9955,0.00879
86.87916,745.4662,0.99558,0.00871
86.8875,745.508,0.99565,0.00862
86.89584,745.55,0.99572,0.00854
86.90418,745.5906,0.9958,0.00845
86.9125,745.6334,0.99587,0.00837
86.92082,745.6741,0.99594,0.00829
86.92918,745.7167,0.99601,0.0082
86.9375,745.7578,0.99608,0.00812
86.94582,745.7992,0.99615,0.00804
86.95418,745.8412,0.99622,0.00796
86.9625,745.8829,0.99628,0.00788
86.97082,745.9248,0.99635,0.0078
86.97916,745.9668,0.99641,0.00772
86.9875,746.0084,0.99648,0.00764
86.99584,746.05,0.99654,0.00756
87.00416,746.0909,0.99661,0.00748
87.0125,746.1321,0.99667,0.0074
87.02084,746.1734,0.99673,0.00733
87.02918,746.2149,0.99679,0.00725
87.0375,746.2576,0.99685,0.00717
87.04582,746.2988,0.99691,0.0071
87.05418,746.3404,0.99697,0.00702
87.0625,746.3828,0.99702,0.00694
87.07082,746.4242,0.99708,0.00687
87.07918,746.466,0.99714,0.00679
87.0875,746.5072,0.99719,0.00671
87.09582,746.5488,0.99725,0.00664
87.10416,746.59,0.9973,0.00656
87.1125,746.6317,0.99735,0.00649
87.12084,746.6735,0.9974,0.00641
87.12916,746.715,0.99745,0.00634
87.1375,746.7563,0.99751,0.00627
87.14584,746.7976,0.99755,0.00619
87.15418,746.8398,0.9976,0.00612
87.1625,746.8816,0.99765,0.00604
87.17082,746.9234,0.9977,0.00597
87.17918,746.9645,0.99775,0.0059
87.1875,747.006,0.99779,0.00582
87.19582,747.0481,0.99784,0.00575
87.20418,747.0896,0.99788,0.00568
87.2125,747.131,0.99793,0.00561
87.22082,747.1726,0.99797,0.00553
87.22916,747.2142,0.99801,0.00546
87.2375,747.2556,0.99806,0.00539
87.24584,747.2972,0.9981,0.00532
87.25416,747.3387,0.99814,0.00525
87.2625,747.3802,0.99818,0.00518
87.27084,747.4227,0.99822,0.00511
87.27918,747.4641,0.99826,0.00504
87.2875,747.506,0.9983,0.00497
87.29582,747.5474,0.99833,0.0049
87.30418,747.5889,0.99837,0.00483
87.3125,747.6311,0.99841,0.00476
87.32082,747.6719,0.99844,0.00469
87.32918,747.7136,0.99848,0.00463
87.3375,747.7557,0.99851,0.00456
87.34582,747.7969,0.99854,0.00449
87.35416,747.8383,0.99858,0.00443
87.3625,747.8805,0.99861,0.00436
87.37084,747.922,0.99864,0.00429
87.37916,747.9636,0.99867,0.00423
87.3875,748.0048,0.9987,0.00416
87.39584,748.0468,0.99873,0.0041
87.40418,748.0886,0.99876,0.00404
87.4125,748.13,0.99879,0.00397
87.42082,748.1721,0.99882,0.00391
87.42918,748.2132,0.99885,0.00385
87.4375,748.2554,0.99888,0.00379
87.44582,748.297,0.9989,0.00373
87.45418,748.3382,0.99893,0.00367
87.4625,748.3794,0.99896,0.00361
87.47082,748.4214,0.99898,0.00355
87.47916,748.4634,0.99901,0.00349
87.4875,748.5041,0.99903,0.00343
87.49584,748.5467,0.99906,0.00337
87.50416,748.588,0.99908,0.00331
87.5125,748.6296,0.9991,0.00326
87.52084,748.6716,0.99912,0.0032
87.52918,748.713,0.99915,0.00315
87.5375,748.7548,0.99917,0.00309
87.54582,748.7962,0.99919,0.00304
87.55418,748.838,0.99921,0.00298
87.5625,748.879,0.99923,0.00293
87.57082,748.9206,0.99925,0.00288
87.57918,748.9628,0.99927,0.00283
87.5875,749.0044,0.99929,0.00277
87.59582,749.0456,0.99931,0.00272
87.60416,749.0876,0.99933,0.00267
87.6125,749.1291,0.99934,0.00262
87.62084,749.1712,0.99936,0.00258
87.62916,749.213,0.99938,0.00253
87.6375,749.255,0.9994,0.00248
87.64584,749.2964,0.99941,0.00243
87.65418,749.3378,0.99943,0.00239
87.6625,749.3793,0.99945,0.00234
87.67082,749.4213,0.99946,0.0023
87.67918,749.4628,0.99948,0.00225
87.6875,749.5047,0.99949,0.00221
87.69582,749.5461,0.9995,0.00216
87.70418,749.5872,0.99952,0.00212
87.7125,749.6294,0.99953,0.00208
87.72082,749.6712,0.99955,0.00204
87.72916,749.7118,0.99956,0.002
87.7375,749.754,0.99957,0.00195
87.74584,749.7964,0.99958,0.00191
87.75416,749.8384,0.9996,0.00188
87.7625,749.8797,0.99961,0.00184
87.77084,749.9215,0.99962,0.0018
87.77918,749.9633,0.99963,0.00176
87.7875,750.0044,0.99964,0.00172
87.79582,750.0454,0.99965,0.00169
87.80418,750.0874,0.99966,0.00165
87.8125,750.1293,0.99967,0.00162
87.82082,750.171,0.99968,0.00158
87.82918,750.2127,0.99969,0.00155
87.8375,750.2557,0.9997,0.00151
87.84582,750.2974,0.99971,0.00148
87.85416,750.3383,0.99972,0.00145
87.8625,750.3796,0.99973,0.00141
87.87084,750.421,0.99974,0.00138
87.87916,750.463,0.99974,0.00135
87.8875,750.5041,0.99975,0.00132
87.89584,750.5456,0.99976,0.00129
87.90418,750.5881,0.99977,0.00126
87.9125,750.6297,0.99977,0.00123
87.92082,750.6711,0.99978,0.0012
87.92918,750.7123,0.99979,0.00118
87.9375,750.7544,0.9998,0.00115
87.94582,750.7954,0.9998,0.00112
87.95418,750.8378,0.99981,0.00109
87.9625,750.8792,0.99981,0.00107
87.97082,750.9214,0.99982,0.00104
87.97916,750.9634,0.99983,0.00102
87.9875,751.005,0.99983,9.90913E-4
87.99584,751.0456,0.99984,9.66435E-4
88.00416,751.0877,0.99984,9.42401E-4
88.0125,751.1285,0.99985,9.18805E-4
88.02084,751.171,0.99985,8.95643E-4
88.02918,751.2121,0.99986,8.7291E-4
88.0375,751.254,0.99986,8.50601E-4
88.04582,751.2963,0.99987,8.28712E-4
88.05418,751.3386,0.99987,8.07236E-4
88.0625,751.3796,0.99988,7.86168E-4
88.07082,751.4211,0.99988,7.65503E-4
88.07918,751.4631,0.99988,7.45236E-4
88.0875,751.504,0.99989,7.25361E-4
88.09582,751.5457,0.99989,7.05875E-4
88.10416,751.5869,0.99989,6.8677E-4
88.1125,751.629,0.9999,6.68043E-4
88.12084,751.6715,0.9999,6.49689E-4
88.12916,751.713,0.9999,6.31702E-4
88.1375,751.7553,0.99991,6.14079E-4
88.14584,751.7968,0.99991,5.96813E-4
88.15418,751.8375,0.99991,5.79899E-4
88.1625,751.8796,0.99992,5.63333E-4
88.17082,751.9213,0.99992,5.47109E-4
88.17918,751.9624,0.99992,5.31223E-4
88.1875,752.0039,0.99992,5.15669E-4
88.19582,752.0461,0.99993,5.00443E-4
88.20418,752.0874,0.99993,4.85541E-4
88.2125,752.1287,0.99993,4.70956E-4
88.22082,752.171,0.99993,4.56685E-4
88.22916,752.2128,0.99994,4.42722E-4
88.2375,752.2548,0.99994,4.29063E-4
88.24584,752.2964,0.99994,4.15703E-4
88.25416,752.3376,0.99994,4.02636E-4
88.2625,752.3794,0.99994,3.89859E-4
88.27084,752.4211,0.99994,3.77365E-4
88.27918,752.4626,0.99994,3.65151E-4
88.2875,752.5041,0.99995,3.53211E-4
88.29582,752.5455,0.99995,3.4154E-4
88.30418,752.5875,0.99995,3.30134E-4
88.3125,752.6287,0.99995,3.18988E-4
88.32082,752.67,0.99995,3.08099E-4
88.32918,752.7117,0.99995,2.9746E-4
88.3375,752.7538,0.99995,2.87069E-4
88.34582,752.7955,0.99995,2.7692E-4
88.35416,752.838,0.99995,2.67009E-4
88.3625,752.8794,0.99996,2.57331E-4
88.37084,752.9209,0.99996,2.47883E-4
88.37916,752.9626,0.99996,2.38661E-4
88.3875,753.0041,0.99996,2.29659E-4
88.39584,753.0453,0.99996,2.20875E-4
88.40418,753.087,0.99996,2.12304E-4
88.4125,753.1283,0.99996,2.03944E-4
88.42082,753.1695,0.99996,1.95791E-4
88.42918,753.2122,0.99996,1.8784E-4
88.4375,753.2536,0.99996,1.80086E-4
88.44582,753.2954,0.99996,1.72527E-4
88.45418,753.3368,0.99996,1.65158E-4
88.4625,753.3788,0.99996,1.57976E-4
88.47082,753.4208,0.99996,1.50976E-4
88.47916,753.4621,0.99996,1.44154E-4
88.4875,753.5031,0.99996,1.37507E-4
88.49584,753.5454,0.99996,1.31031E-4
88.50416,753.587,0.99996,1.24724E-4
88.5125,753.6285,0.99996,1.18582E-4
88.52084,753.6698,0.99996,1.12601E-4
88.52918,753.7114,0.99996,1.06779E-4
88.5375,753.7532,0.99996,1.01113E-4
88.54582,753.7954,0.99996,9.55977E-5
88.55418,753.837,0.99996,9.023E-5
88.5625,753.8784,0.99996,8.50062E-5
88.57082,753.9197,0.99996,7.99234E-5
88.57918,753.9617,0.99996,7.49789E-5
88.5875,754.0031,0.99996,7.01694E-5
88.59582,754.045,0.99996,6.54914E-5
88.60416,754.0861,0.99996,6.09412E-5
88.6125,754.1283,0.99996,5.6516E-5
88.62084,754.1704,0.99996,5.2213E-5
88.62916,754.2116,0.99996,4.80294E-5
88.6375,754.2534,0.99996,4.39622E-5
88.64584,754.2953,0.99996,4.00087E-5
88.65418,754.3374,0.99996,3.61663E-5
88.6625,754.3784,0.99996,3.24324E-5
88.67082,754.4194,0.99996,2.88046E-5
88.67918,754.4619,0.99996,2.52805E-5
88.6875,754.5028,0.99996,2.18576E-5
88.69582,754.5442,0.99996,1.85337E-5
88.70418,754.5856,0.99996,1.53066E-5
88.7125,754.6286,0.99996,1.21739E-5
88.72082,754.67,0.99996,9.13299E-6
88.72916,754.7124,0.99996,6.18175E-6
88.7375,754.753,0.99996,3.3179E-6
88.74584,754.7951,0.99996,5.38962E-7
88.75416,754.836,0.99996,-2.15743E-6
88.7625,754.8774,0.99996,-4.77354E-6
88.77084,754.919,0.99996,-7.3115E-6
88.77918,754.9606,0.99996,-9.77291E-6
88.7875,755.0016,0.99996,-1.21595E-5
88.79582,755.0448,0.99996,-1.44736E-5
88.80418,755.0868,0.99996,-1.67173E-5
88.8125,755.1286,0.99996,-1.88923E-5
88.82082,755.1697,0.99996,-2.10007E-5
88.82918,755.211,0.99996,-2.30453E-5
88.8375,755.2526,0.99996,-2.50285E-5
88.84582,755.294,0.99995,-2.69518E-5
88.85416,755.3354,0.99995,-2.8817E-5
88.8625,755.3768,0.99995,-3.06256E-5
88.87084,755.4186,0.99995,-3.23793E-5
88.87916,755.4606,0.99995,-3.40801E-5
88.8875,755.5022,0.99995,-3.573E-5
88.89584,755.5434,0.99995,-3.73299E-5
88.90418,755.5863,0.99995,-3.8881E-5
88.9125,755.6284,0.99995,-4.03846E-5
88.92082,755.6696,0.99995,-4.18426E-5
88.92918,755.7113,0.99995,-4.32567E-5
88.9375,755.7521,0.99995,-4.46286E-5
88.94582,755.7941,0.99995,-4.596E-5
88.95418,755.8351,0.99995,-4.72523E-5
88.9625,755.8776,0.99995,-4.85069E-5
88.97082,755.9181,0.99995,-4.97245E-5
88.97916,755.9597,0.99995,-5.09059E-5
88.9875,756.0018,0.99995,-5.2052E-5
88.99584,756.044,0.99995,-5.31642E-5
89.00416,756.0853,0.99995,-5.42437E-5
89.0125,756.128,0.99995,-5.52915E-5
89.02084,756.1689,0.99994,-5.63078E-5
89.02918,756.211,0.99994,-5.7293E-5
89.0375,756.2523,0.99994,-5.82484E-5
89.04582,756.293,0.99994,-5.91752E-5
89.05418,756.3354,0.99994,-6.00743E-5
89.0625,756.3763,0.99994,-6.09465E-5
89.07082,756.418,0.99994,-6.17925E-5
89.07918,756.4598,0.99994,-6.26129E-5
89.0875,756.5025,0.99994,-6.34083E-5
89.09582,756.5437,0.99994,-6.41796E-5
89.10416,756.5856,0.99994,-6.49278E-5
89.1125,756.6272,0.99994,-6.56536E-5
89.12084,756.6689,0.99994,-6.63578E-5
89.12916,756.7106,0.99994,-6.70412E-5
89.1375,756.7519,0.99994,-6.77042E-5
89.14584,756.7928,0.99994,-6.83472E-5
89.15418,756.8341,0.99993,-6.8971E-5
89.1625,756.8764,0.99993,-6.95761E-5
89.17082,756.9184,0.99993,-7.01627E-5
89.17918,756.96,0.99993,-7.07309E-5
89.1875,757.0019,0.99993,-7.12811E-5
89.19582,757.0434,0.99993,-7.18138E-5
89.20418,757.0846,0.99993,-7.233E-5
89.2125,757.1265,0.99993,-7.28305E-5
89.22082,757.1687,0.99993,-7.33158E-5
89.22916,757.2096,0.99993,-7.37861E-5
89.2375,757.2514,0.99993,-7.42422E-5
89.24584,757.2933,0.99993,-7.46845E-5
89.25416,757.334,0.99993,-7.51132E-5
89.2625,757.3758,0.99993,-7.55286E-5
89.27084,757.4179,0.99992,-7.59312E-5
89.27918,757.4594,0.99992,-7.63212E-5
89.2875,757.5009,0.99992,-7.66984E-5
89.29582,757.5432,0.99992,-7.7063E-5
89.30418,757.5843,0.99992,-7.74149E-5
89.3125,757.6264,0.99992,-7.77542E-5
89.32082,757.6674,0.99992,-7.80813E-5
89.32918,757.7096,0.99992,-7.83965E-5
89.3375,757.7506,0.99992,-7.87E-5
89.34582,757.793,0.99992,-7.89919E-5
89.35416,757.834,0.99992,-7.92726E-5
89.3625,757.8756,0.99992,-7.95424E-5
89.37084,757.9166,0.99992,-7.98014E-5
89.37916,757.9587,0.99992,-8.00499E-5
89.3875,758.0002,0.99992,-8.02881E-5
89.39584,758.0426,0.99992,-8.05161E-5
89.40418,758.084,0.99992,-8.0734E-5
89.4125,758.1254,0.99991,-8.09422E-5
89.42082,758.1676,0.99991,-8.11407E-5
89.42918,758.2086,0.99991,-8.133E-5
89.4375,758.2508,0.99991,-8.15106E-5
89.44582,758.2922,0.99991,-8.1683E-5
89.45418,758.3338,0.99991,-8.18475E-5
89.4625,758.376,0.99991,-8.20039E-5
89.47082,758.4174,0.99991,-8.21522E-5
89.47916,758.4581,0.99991,-8.22927E-5
89.4875,758.5003,0.99991,-8.24255E-5
89.49584,758.5416,0.99991,-8.25509E-5
89.50416,758.5832,0.99991,-8.26697E-5
89.5125,758.6254,0.9999,-8.27823E-5
89.52084,758.6674,0.9999,-8.28885E-5
89.52918,758.709,0.9999,-8.29881E-5
89.5375,758.7507,0.9999,-8.30812E-5
89.54582,758.7922,0.9999,-8.31686E-5
89.55418,758.834,0.9999,-8.32506E-5
89.5625,758.876,0.9999,-8.33273E-5
89.57082,758.9171,0.9999,-8.33991E-5
89.57918,758.9583,0.9999,-8.34664E-5
89.5875,759.0003,0.9999,-8.35294E-5
89.59582,759.0417,0.9999,-8.35886E-5
89.60416,759.0838,0.9999,-8.36449E-5
89.6125,759.1254,0.9999,-8.36987E-5
89.62084,759.1664,0.9999,-8.37499E-5
89.62916,759.2083,0.99989,-8.37982E-5
89.6375,759.2494,0.99989,-8.3843E-5
89.64584,759.2921,0.99989,-8.3884E-5
89.65418,759.334,0.99989,-8.39215E-5
89.6625,759.3756,0.99989,-8.39555E-5
89.67082,759.4175,0.99989,-8.3986E-5
89.67918,759.4588,0.99989,-8.40124E-5
89.6875,759.5004,0.99989,-8.40346E-5
89.69582,759.5416,0.99989,-8.40532E-5
89.70418,759.5836,0.99989,-8.40689E-5
89.7125,759.6256,0.99989,-8.40825E-5
89.72082,759.666,0.99989,-8.40944E-5
89.72916,759.7078,0.99989,-8.41047E-5
89.7375,759.7498,0.99988,-8.41135E-5
89.74584,759.7919,0.99988,-8.41211E-5
89.75416,759.8346,0.99988,-8.41279E-5
89.7625,759.8754,0.99988,-8.4134E-5
89.77084,759.9166,0.99988,-8.41396E-5
89.77918,759.9582,0.99988,-8.41449E-5
89.7875,760,0.99988,-8.41494E-5
89.79582,760.0416,0.99988,-8.41531E-5
89.80418,760.083,0.99988,-8.41558E-5
89.8125,760.1252,0.99988,-8.41573E-5
89.82082,760.1666,0.99988,-8.41581E-5
89.82918,760.208,0.99988,-8.41589E-5
89.8375,760.2488,0.99988,-8.41597E-5
89.84582,760.292,0.99987,-8.41605E-5
89.85416,760.334,0.99987,-8.41608E-5
89.8625,760.375,0.99987,-8.41604E-5
89.87084,760.4164,0.99987,-8.41593E-5
89.87916,760.4582,0.99987,-8.41576E-5
89.8875,760.5,0.99987,-8.41554E-5
89.89584,760.5416,0.99987,-8.41528E-5
89.90418,760.5833,0.99987,-8.41499E-5
89.9125,760.6246,0.99987,-8.41466E-5
89.92082,760.6664,0.99987,-8.4143E-5
89.92918,760.7087,0.99987,-8.41387E-5
89.9375,760.7498,0.99987,-8.41339E-5
89.94582,760.791,0.99987,-8.4129E-5
89.95418,760.833,0.99987,-8.41242E-5
89.9625,760.875,0.99987,-8.41192E-5
89.97082,760.9154,0.99986,-8.41136E-5
89.97916,760.957,0.99986,-8.41072E-5
89.9875,760.9998,0.99986,-8.41E-5
89.99584,761.0418,0.99986,-8.40917E-5
90.00416,761.0832,0.99986,-8.40819E-5
90.0125,761.1239,0.99986,-8.40706E-5
90.02084,761.1662,0.99986,-8.4058E-5
90.02918,761.208,0.99986,-8.40437E-5
90.0375,761.2494,0.99986,-8.40278E-5
90.04582,761.2918,0.99986,-8.4011E-5
90.05418,761.333,0.99986,-8.39938E-5
90.0625,761.3738,0.99986,-8.39771E-5
90.07082,761.4153,0.99986,-8.39613E-5
90.07918,761.4571,0.99986,-8.39461E-5
90.0875,761.4986,0.99986,-8.39313E-5
90.09582,761.54,0.99986,-8.39174E-5
90.10416,761.5824,0.99985,-8.39053E-5
90.1125,761.6244,0.99985,-8.38952E-5
90.12084,761.6664,0.99985,-8.38867E-5
90.12916,761.7078,0.99985,-8.38792E-5
90.1375,761.7498,0.99985,-8.38718E-5
90.14584,761.791,0.99985,-8.38644E-5
90.15418,761.832,0.99985,-8.38572E-5
90.1625,761.8728,0.99985,-8.38502E-5
90.17082,761.9145,0.99985,-8.3843E-5
90.17918,761.9566,0.99985,-8.38356E-5
90.1875,761.9981,0.99985,-8.38278E-5
90.19582,762.0402,0.99985,-8.38192E-5
90.20418,762.0825,0.99985,-8.38099E-5
90.2125,762.1242,0.99985,-8.38001E-5
90.22082,762.1662,0.99985,-8.37903E-5
90.22916,762.2078,0.99985,-8.37811E-5
90.2375,762.2481,0.99984,-8.37727E-5
90.24584,762.2894,0.99984,-8.37649E-5
90.25416,762.331,0.99984,-8.37577E-5
90.2625,762.3728,0.99984,-8.37514E-5
90.27084,762.4144,0.99984,-8.37461E-5
90.27918,762.4565,0.99984,-8.3742E-5
90.2875,762.4978,0.99984,-8.37393E-5
90.29582,762.54,0.99984,-8.37378E-5
90.30418,762.5812,0.99984,-8.37378E-5
90.3125,762.6231,0.99984,-8.37394E-5
90.32082,762.665,0.99984,-8.3743E-5
90.32918,762.7071,0.99984,-8.37485E-5
90.3375,762.7483,0.99984,-8.37561E-5
90.34582,762.7896,0.99984,-8.37661E-5
90.35416,762.8312,0.99983,-8.37785E-5
90.3625,762.8724,0.99983,-8.37929E-5
90.37084,762.9148,0.99983,-8.38093E-5
90.37916,762.9567,0.99983,-8.38279E-5
90.3875,762.998,0.99983,-8.38491E-5
90.39584,763.0391,0.99983,-8.38728E-5
90.40418,763.081,0.99983,-8.38989E-5
90.4125,763.1228,0.99983,-8.39277E-5
90.42082,763.1645,0.99983,-8.39594E-5
90.42918,763.2063,0.99983,-8.39942E-5
90.4375,763.247,0.99983,-8.40322E-5
90.44582,763.2898,0.99983,-8.40732E-5
90.45418,763.3305,0.99982,-8.4117E-5
90.4625,763.3718,0.99982,-8.41631E-5
90.47082,763.4138,0.99982,-8.42103E-5
90.47916,763.4554,0.99982,-8.4258E-5
90.4875,763.4975,0.99982,-8.43058E-5
90.49584,763.5394,0.99982,-8.43534E-5
90.50416,763.581,0.99982,-8.44009E-5
90.5125,763.6231,0.99982,-8.4449E-5
90.52084,763.6646,0.99982,-8.44972E-5
90.52918,763.7062,0.99982,-8.45448E-5
90.5375,763.748,0.99982,-8.45914E-5
90.54582,763.7893,0.99982,-8.46371E-5
90.55418,763.8306,0.99982,-8.46825E-5
90.5625,763.8714,0.99982,-8.47282E-5
90.57082,763.9144,0.99982,-8.47742E-5
90.57918,763.9558,0.99981,-8.48207E-5
90.5875,763.9974,0.99981,-8.48679E-5
90.59582,764.0385,0.99981,-8.49159E-5
90.60416,764.0803,0.99981,-8.49649E-5
90.6125,764.1225,0.99981,-8.50154E-5
90.62084,764.1641,0.99981,-8.50673E-5
90.62916,764.2056,0.99981,-8.51204E-5
90.6375,764.2476,0.99981,-8.51744E-5
90.64584,764.289,0.99981,-8.52287E-5
90.65418,764.331,0.99981,-8.52833E-5
90.6625,764.3721,0.99981,-8.5338E-5
90.67082,764.4137,0.99981,-8.53924E-5
90.67918,764.4552,0.9998,-8.54462E-5
90.6875,764.4967,0.9998,-8.5499E-5
90.69582,764.5384,0.9998,-8.55503E-5
90.70418,764.5808,0.9998,-8.56005E-5
90.7125,764.6223,0.9998,-8.56501E-5
90.72082,764.6644,0.9998,-8.56818E-5
90.72916,764.7059,0.9998,-8.57135E-5
90.7375,764.7472,0.9998,-8.57453E-5
90.74584,764.7885,0.9998,-8.57769E-5
90.75416,764.8304,0.9998,-8.58081E-5
90.7625,764.8718,0.9998,-8.58388E-5
90.77084,764.913,0.9998,-8.58688E-5
90.77918,764.9542,0.9998,-8.58981E-5
90.7875,764.9963,0.9998,-8.59267E-5
90.79582,765.0379,0.9998,-8.59547E-5
90.80418,765.0801,0.9998,-8.59819E-5
90.8125,765.1224,0.99979,-8.6008E-5
90.82082,765.1636,0.99979,-8.60331E-5
90.82918,765.2053,0.99979,-8.60573E-5
90.8375,765.2474,0.99979,-8.60803E-5
90.84582,765.2876,0.99979,-8.61022E-5
90.85416,765.3293,0.99979,-8.61225E-5
90.8625,765.3716,0.99979,-8.6141E-5
90.87084,765.4128,0.99979,-8.61576E-5
90.87916,765.455,0.99979,-8.61724E-5
90.8875,765.4967,0.99979,-8.61857E-5
90.89584,765.5387,0.99979,-8.61986E-5
90.90418,765.5809,0.99979,-8.62115E-5
90.9125,765.622,0.99979,-8.62246E-5
90.92082,765.6635,0.99979,-8.62383E-5
